<?xml version="1.0" encoding="UTF-8" standalone="no"?>
<!-- Generator: Adobe Illustrator 15.0.0, SVG Export Plug-In . SVG Version: 6.00 Build 0)  -->

<svg
   xmlns:dc="http://purl.org/dc/elements/1.1/"
   xmlns:cc="http://creativecommons.org/ns#"
   xmlns:rdf="http://www.w3.org/1999/02/22-rdf-syntax-ns#"
   xmlns:svg="http://www.w3.org/2000/svg"
   xmlns="http://www.w3.org/2000/svg"
   xmlns:sodipodi="http://sodipodi.sourceforge.net/DTD/sodipodi-0.dtd"
   xmlns:inkscape="http://www.inkscape.org/namespaces/inkscape"
   version="1.1"
   id="YOUR_ARTWORK_HERE"
   x="0px"
   y="0px"
   width="738px"
   height="1170px"
   viewBox="0 0 738 1170"
   enable-background="new 0 0 738 1170"
   xml:space="preserve"
   inkscape:version="0.91 r13725"
   sodipodi:docname="mat.svg"
   inkscape:export-filename="/home/david/Sync/sovereignty/mat.png"
   inkscape:export-xdpi="375"
   inkscape:export-ydpi="375"><metadata
     id="metadata532"><rdf:RDF><cc:Work
         rdf:about=""><dc:format>image/svg+xml</dc:format><dc:type
           rdf:resource="http://purl.org/dc/dcmitype/StillImage" /><dc:title /></cc:Work></rdf:RDF></metadata><defs
     id="defs530" /><sodipodi:namedview
     pagecolor="#ffffff"
     bordercolor="#666666"
     borderopacity="1"
     objecttolerance="10"
     gridtolerance="10"
     guidetolerance="10"
     inkscape:pageopacity="0"
     inkscape:pageshadow="2"
     inkscape:window-width="1920"
     inkscape:window-height="1056"
     id="namedview528"
     showgrid="false"
     showguides="false"
     inkscape:guide-bbox="true"
     inkscape:snap-bbox="true"
     inkscape:bbox-nodes="true"
     inkscape:snap-page="true"
     inkscape:zoom="0.78257496"
     inkscape:cx="369"
     inkscape:cy="584.99832"
     inkscape:window-x="1920"
     inkscape:window-y="24"
     inkscape:window-maximized="1"
     inkscape:current-layer="layer1"><sodipodi:guide
       position="-188.75651,927.01645"
       orientation="1,0"
       id="guide4660" /><sodipodi:guide
       position="926.6875,927.01645"
       orientation="1,0"
       id="guide4697" /><sodipodi:guide
       position="-188.75651,927.01645"
       orientation="0,1"
       id="guide4699" /><sodipodi:guide
       position="926.6875,243.58347"
       orientation="0,1"
       id="guide4701" /><sodipodi:guide
       position="-188.7565,767.66444"
       orientation="0,1"
       id="guide5283" /></sodipodi:namedview><g
     transform="translate(3.9264486,276.11066)"
     inkscape:label="Delete"
     id="layer1"><rect
       y="-734.07355"
       x="-276.11066"
       height="738"
       width="186.33037"
       id="rect5994"
       style="fill:#800000;fill-opacity:1;stroke:#000000;stroke-width:4.32504606;stroke-miterlimit:4;stroke-dasharray:none;stroke-opacity:1"
       transform="matrix(0,1,-1,0,0,0)" /><rect
       y="-734.07355"
       x="-89.780289"
       height="738"
       width="159.35233"
       id="rect5994-3"
       style="fill:#800000;fill-opacity:1;stroke:#000000;stroke-width:3.99970651;stroke-miterlimit:4;stroke-dasharray:none;stroke-opacity:1"
       transform="matrix(0,1,-1,0,0,0)" /><rect
       y="-734.07355"
       x="388.27667"
       height="738"
       width="159.35233"
       id="rect5994-6"
       style="fill:#800000;fill-opacity:1;stroke:#000000;stroke-width:3.99970651;stroke-miterlimit:4;stroke-dasharray:none;stroke-opacity:1"
       transform="matrix(0,1,-1,0,0,0)" /><rect
       y="-734.07355"
       x="547.62897"
       height="738"
       width="159.35233"
       id="rect5994-7"
       style="fill:#800000;fill-opacity:1;stroke:#000000;stroke-width:3.99970651;stroke-miterlimit:4;stroke-dasharray:none;stroke-opacity:1"
       transform="matrix(0,1,-1,0,0,0)" /><rect
       y="-734.07355"
       x="69.572037"
       height="738"
       width="159.35233"
       id="rect5994-5"
       style="fill:#0000ff;fill-opacity:1;stroke:#000000;stroke-width:3.99970651;stroke-miterlimit:4;stroke-dasharray:none;stroke-opacity:1"
       transform="matrix(0,1,-1,0,0,0)" /><rect
       y="-734.07355"
       x="228.92436"
       height="738"
       width="159.35233"
       id="rect5994-35"
       style="fill:#0000ff;fill-opacity:1;stroke:#000000;stroke-width:3.99970651;stroke-miterlimit:4;stroke-dasharray:none;stroke-opacity:1"
       transform="matrix(0,1,-1,0,0,0)" /><rect
       y="-734.07355"
       x="706.98138"
       height="738"
       width="186.90796"
       id="rect5994-62"
       style="fill:#ffff00;fill-opacity:1;stroke:#000000;stroke-width:4.33174419;stroke-miterlimit:4;stroke-dasharray:none;stroke-opacity:1"
       transform="matrix(0,1,-1,0,0,0)" /><text
       sodipodi:linespacing="125%"
       id="text5986"
       y="-682.28705"
       x="-10.422733"
       style="font-style:normal;font-variant:normal;font-weight:normal;font-stretch:normal;font-size:22.50000191px;line-height:125%;font-family:'Kingthings Calligraphica 2';-inkscape-font-specification:'Kingthings Calligraphica 2, ';text-align:center;letter-spacing:0px;word-spacing:0px;text-anchor:middle;fill:#ffffff;fill-opacity:1;stroke:none;stroke-width:1px;stroke-linecap:butt;stroke-linejoin:miter;stroke-opacity:1"
       xml:space="preserve"
       transform="matrix(0,1,-1,0,0,0)"><tspan
         style="font-size:22.5px;text-align:center;text-anchor:middle;fill:#ffffff"
         id="tspan5990"
         y="-682.28705"
         x="-10.422733"
         sodipodi:role="line">Trusted</tspan><tspan
         id="tspan5361"
         style="font-size:22.5px;text-align:center;text-anchor:middle;fill:#ffffff"
         y="-654.16205"
         x="-10.422733"
         sodipodi:role="line">Pledged</tspan><tspan
         id="tspan5652"
         style="font-size:22.5px;text-align:center;text-anchor:middle;fill:#ffffff"
         y="-626.03705"
         x="-10.422733"
         sodipodi:role="line">Traitor</tspan><tspan
         id="tspan4158"
         style="font-size:22.5px;text-align:center;text-anchor:middle;fill:#ffffff"
         y="-597.91205"
         x="-10.422733"
         sodipodi:role="line" /></text>
<text
       sodipodi:linespacing="125%"
       id="text5986-3"
       y="-572.1861"
       x="-10.176983"
       style="font-style:normal;font-variant:normal;font-weight:normal;font-stretch:normal;font-size:77.41040039px;line-height:125%;font-family:'Kingthings Calligraphica 2';-inkscape-font-specification:'Kingthings Calligraphica 2, ';text-align:center;letter-spacing:0px;word-spacing:0px;text-anchor:middle;fill:#ffffff;fill-opacity:1;stroke:none;stroke-width:1px;stroke-linecap:butt;stroke-linejoin:miter;stroke-opacity:1"
       xml:space="preserve"
       transform="matrix(0,1,-1,0,0,0)"><tspan
         id="tspan4158-5"
         style="font-size:78.67234802px;text-align:center;text-anchor:middle;fill:#ffffff"
         y="-572.1861"
         x="-10.176983"
         sodipodi:role="line">+10</tspan></text>
<g
       id="g5713-2"
       transform="matrix(0,1,-1,0,756.21176,-264.73587)"><text
         xml:space="preserve"
         style="font-style:normal;font-variant:normal;font-weight:normal;font-stretch:normal;font-size:22.50000191px;line-height:125%;font-family:'Kingthings Calligraphica 2';-inkscape-font-specification:'Kingthings Calligraphica 2, ';text-align:center;letter-spacing:0px;word-spacing:0px;text-anchor:middle;fill:#ffffff;fill-opacity:1;stroke:none;stroke-width:1px;stroke-linecap:butt;stroke-linejoin:miter;stroke-opacity:1"
         x="94.960808"
         y="73.924721"
         id="text5986-7"
         sodipodi:linespacing="125%"><tspan
           sodipodi:role="line"
           id="tspan5988-0"
           x="94.960808"
           y="73.924721"
           style="font-size:22.5px;text-align:center;text-anchor:middle;fill:#ffffff">Trusted</tspan><tspan
           sodipodi:role="line"
           x="94.960808"
           y="102.04972"
           id="tspan5990-9"
           style="font-size:22.5px;text-align:center;text-anchor:middle;fill:#ffffff">Unpledged</tspan><tspan
           sodipodi:role="line"
           x="94.960808"
           y="130.17471"
           style="font-size:22.5px;text-align:center;text-anchor:middle;fill:#ffffff"
           id="tspan5652-3">Traitor</tspan><tspan
           sodipodi:role="line"
           x="94.960808"
           y="158.29971"
           style="font-size:22.5px;text-align:center;text-anchor:middle;fill:#ffffff"
           id="tspan4158-6" /></text>
<text
         xml:space="preserve"
         style="font-style:normal;font-variant:normal;font-weight:normal;font-stretch:normal;font-size:77.41040039px;line-height:125%;font-family:'Kingthings Calligraphica 2';-inkscape-font-specification:'Kingthings Calligraphica 2, ';text-align:center;letter-spacing:0px;word-spacing:0px;text-anchor:middle;fill:#ffffff;fill-opacity:1;stroke:none;stroke-width:1px;stroke-linecap:butt;stroke-linejoin:miter;stroke-opacity:1"
         x="95.206558"
         y="184.02568"
         id="text5986-3-0"
         sodipodi:linespacing="125%"><tspan
           sodipodi:role="line"
           x="95.206558"
           y="184.02568"
           style="font-size:78.67234802px;text-align:center;text-anchor:middle;fill:#ffffff"
           id="tspan4158-5-6">+15</tspan></text>
</g><g
       id="g5713-26"
       transform="matrix(0,1,-1,0,756.21175,372.67344)"><text
         xml:space="preserve"
         style="font-style:normal;font-variant:normal;font-weight:normal;font-stretch:normal;font-size:22.50000191px;line-height:125%;font-family:'Kingthings Calligraphica 2';-inkscape-font-specification:'Kingthings Calligraphica 2, ';text-align:center;letter-spacing:0px;word-spacing:0px;text-anchor:middle;fill:#ffffff;fill-opacity:1;stroke:none;stroke-width:1px;stroke-linecap:butt;stroke-linejoin:miter;stroke-opacity:1"
         x="94.960808"
         y="73.924721"
         id="text5986-1"
         sodipodi:linespacing="125%"><tspan
           sodipodi:role="line"
           id="tspan5988-8"
           x="94.960808"
           y="73.924721"
           style="font-size:22.5px;text-align:center;text-anchor:middle;fill:#ffffff">Untrusted</tspan><tspan
           sodipodi:role="line"
           x="94.960808"
           y="102.04972"
           id="tspan5990-7"
           style="font-size:22.5px;text-align:center;text-anchor:middle;fill:#ffffff">Unpledged</tspan><tspan
           sodipodi:role="line"
           x="94.960808"
           y="130.17471"
           style="font-size:22.5px;text-align:center;text-anchor:middle;fill:#ffffff"
           id="tspan5652-9">Traitor</tspan><tspan
           sodipodi:role="line"
           x="94.960808"
           y="158.29971"
           style="font-size:22.5px;text-align:center;text-anchor:middle;fill:#ffffff"
           id="tspan4158-2" /></text>
<text
         xml:space="preserve"
         style="font-style:normal;font-variant:normal;font-weight:normal;font-stretch:normal;font-size:77.41040039px;line-height:125%;font-family:'Kingthings Calligraphica 2';-inkscape-font-specification:'Kingthings Calligraphica 2, ';text-align:center;letter-spacing:0px;word-spacing:0px;text-anchor:middle;fill:#ffffff;fill-opacity:1;stroke:none;stroke-width:1px;stroke-linecap:butt;stroke-linejoin:miter;stroke-opacity:1"
         x="95.206558"
         y="184.02568"
         id="text5986-3-02"
         sodipodi:linespacing="125%"><tspan
           sodipodi:role="line"
           x="95.206558"
           y="184.02568"
           style="font-size:78.67234802px;text-align:center;text-anchor:middle;fill:#ffffff"
           id="tspan4158-5-3">+0</tspan></text>
</g><text
       sodipodi:linespacing="125%"
       id="text5986-1-5"
       y="-682.28705"
       x="625.75378"
       style="font-style:normal;font-variant:normal;font-weight:normal;font-stretch:normal;font-size:22.50000191px;line-height:125%;font-family:'Kingthings Calligraphica 2';-inkscape-font-specification:'Kingthings Calligraphica 2, ';text-align:center;letter-spacing:0px;word-spacing:0px;text-anchor:middle;fill:#ffffff;fill-opacity:1;stroke:none;stroke-width:1px;stroke-linecap:butt;stroke-linejoin:miter;stroke-opacity:1"
       xml:space="preserve"
       transform="matrix(0,1,-1,0,0,0)"><tspan
         style="font-size:22.5px;text-align:center;text-anchor:middle;fill:#ffffff"
         y="-682.28705"
         x="625.75378"
         id="tspan5988-8-9"
         sodipodi:role="line">Untrusted</tspan><tspan
         style="font-size:22.5px;text-align:center;text-anchor:middle;fill:#ffffff"
         id="tspan5990-7-2"
         y="-654.16205"
         x="625.75378"
         sodipodi:role="line">Pledged</tspan><tspan
         id="tspan5652-9-2"
         style="font-size:22.5px;text-align:center;text-anchor:middle;fill:#ffffff"
         y="-626.03705"
         x="625.75378"
         sodipodi:role="line">Traitor</tspan><tspan
         id="tspan4158-2-8"
         style="font-size:22.5px;text-align:center;text-anchor:middle;fill:#ffffff"
         y="-597.91205"
         x="625.75378"
         sodipodi:role="line" /></text>
<text
       sodipodi:linespacing="125%"
       id="text5986-3-02-9"
       y="-572.1861"
       x="625.99951"
       style="font-style:normal;font-variant:normal;font-weight:normal;font-stretch:normal;font-size:77.41040039px;line-height:125%;font-family:'Kingthings Calligraphica 2';-inkscape-font-specification:'Kingthings Calligraphica 2, ';text-align:center;letter-spacing:0px;word-spacing:0px;text-anchor:middle;fill:#ffffff;fill-opacity:1;stroke:none;stroke-width:1px;stroke-linecap:butt;stroke-linejoin:miter;stroke-opacity:1"
       xml:space="preserve"
       transform="matrix(0,1,-1,0,0,0)"><tspan
         id="tspan4158-5-3-7"
         style="font-size:78.67234802px;text-align:center;text-anchor:middle;fill:#ffffff"
         y="-572.1861"
         x="625.99951"
         sodipodi:role="line">-5</tspan></text>
<text
       sodipodi:linespacing="125%"
       id="text5986-1-5-6"
       y="-670.08179"
       x="149.29765"
       style="font-style:normal;font-variant:normal;font-weight:normal;font-stretch:normal;font-size:22.50000191px;line-height:125%;font-family:'Kingthings Calligraphica 2';-inkscape-font-specification:'Kingthings Calligraphica 2, ';text-align:center;letter-spacing:0px;word-spacing:0px;text-anchor:middle;fill:#ffffff;fill-opacity:1;stroke:none;stroke-width:1px;stroke-linecap:butt;stroke-linejoin:miter;stroke-opacity:1"
       xml:space="preserve"
       transform="matrix(0,1,-1,0,0,0)"><tspan
         id="tspan4158-2-8-3"
         style="font-size:22.5px;text-align:center;text-anchor:middle;fill:#ffffff"
         y="-670.08179"
         x="151.34111"
         sodipodi:role="line">Trusted </tspan><tspan
         id="tspan5455"
         style="font-size:22.5px;text-align:center;text-anchor:middle;fill:#ffffff"
         y="-641.95679"
         x="149.29765"
         sodipodi:role="line">Loyalist</tspan></text>
<text
       sodipodi:linespacing="125%"
       id="text5986-3-02-9-1"
       y="-567.22083"
       x="149.54338"
       style="font-style:normal;font-variant:normal;font-weight:normal;font-stretch:normal;font-size:77.41040039px;line-height:125%;font-family:'Kingthings Calligraphica 2';-inkscape-font-specification:'Kingthings Calligraphica 2, ';text-align:center;letter-spacing:0px;word-spacing:0px;text-anchor:middle;fill:#ffffff;fill-opacity:1;stroke:none;stroke-width:1px;stroke-linecap:butt;stroke-linejoin:miter;stroke-opacity:1"
       xml:space="preserve"
       transform="matrix(0,1,-1,0,0,0)"><tspan
         id="tspan4158-5-3-7-9"
         style="font-size:78.67234802px;text-align:center;text-anchor:middle;fill:#ffffff"
         y="-567.22083"
         x="149.54338"
         sodipodi:role="line">+5</tspan></text>
<text
       sodipodi:linespacing="125%"
       id="text5986-1-5-6-7"
       y="-670.08179"
       x="308.28192"
       style="font-style:normal;font-variant:normal;font-weight:normal;font-stretch:normal;font-size:22.50000191px;line-height:125%;font-family:'Kingthings Calligraphica 2';-inkscape-font-specification:'Kingthings Calligraphica 2, ';text-align:center;letter-spacing:0px;word-spacing:0px;text-anchor:middle;fill:#ffffff;fill-opacity:1;stroke:none;stroke-width:1px;stroke-linecap:butt;stroke-linejoin:miter;stroke-opacity:1"
       xml:space="preserve"
       transform="matrix(0,1,-1,0,0,0)"><tspan
         id="tspan4158-2-8-3-8"
         style="font-size:22.5px;text-align:center;text-anchor:middle;fill:#ffffff"
         y="-670.08179"
         x="310.32538"
         sodipodi:role="line">Untrusted </tspan><tspan
         id="tspan5455-4"
         style="font-size:22.5px;text-align:center;text-anchor:middle;fill:#ffffff"
         y="-641.95679"
         x="308.28192"
         sodipodi:role="line">Loyalist</tspan></text>
<text
       sodipodi:linespacing="125%"
       id="text5986-3-02-9-1-5"
       y="-567.22083"
       x="308.52765"
       style="font-style:normal;font-variant:normal;font-weight:normal;font-stretch:normal;font-size:77.41040039px;line-height:125%;font-family:'Kingthings Calligraphica 2';-inkscape-font-specification:'Kingthings Calligraphica 2, ';text-align:center;letter-spacing:0px;word-spacing:0px;text-anchor:middle;fill:#ffffff;fill-opacity:1;stroke:none;stroke-width:1px;stroke-linecap:butt;stroke-linejoin:miter;stroke-opacity:1"
       xml:space="preserve"
       transform="matrix(0,1,-1,0,0,0)"><tspan
         id="tspan4158-5-3-7-9-0"
         style="font-size:78.67234802px;text-align:center;text-anchor:middle;fill:#ffffff"
         y="-567.22083"
         x="308.52765"
         sodipodi:role="line">+1</tspan></text>
<text
       sodipodi:linespacing="125%"
       id="text5986-1-5-6-6"
       y="-656.49377"
       x="786.49982"
       style="font-style:normal;font-variant:normal;font-weight:normal;font-stretch:normal;font-size:22.50000191px;line-height:125%;font-family:'Kingthings Calligraphica 2';-inkscape-font-specification:'Kingthings Calligraphica 2, ';text-align:center;letter-spacing:0px;word-spacing:0px;text-anchor:middle;fill:#000000;fill-opacity:1;stroke:none;stroke-width:1px;stroke-linecap:butt;stroke-linejoin:miter;stroke-opacity:1"
       xml:space="preserve"
       transform="matrix(0,1,-1,0,0,0)"><tspan
         id="tspan5455-0"
         style="font-size:22.5px;text-align:center;text-anchor:middle;fill:#000000"
         y="-656.49377"
         x="786.49982"
         sodipodi:role="line">Sovereign</tspan></text>
<text
       sodipodi:linespacing="125%"
       id="text5986-3-02-9-1-6"
       y="-567.83545"
       x="786.68488"
       style="font-style:normal;font-variant:normal;font-weight:normal;font-stretch:normal;font-size:77.41040039px;line-height:125%;font-family:'Kingthings Calligraphica 2';-inkscape-font-specification:'Kingthings Calligraphica 2, ';text-align:center;letter-spacing:0px;word-spacing:0px;text-anchor:middle;fill:#000000;fill-opacity:1;stroke:none;stroke-width:1px;stroke-linecap:butt;stroke-linejoin:miter;stroke-opacity:1"
       xml:space="preserve"
       transform="matrix(0,1,-1,0,0,0)"><tspan
         id="tspan4158-5-3-7-9-3"
         style="font-size:78.67234802px;text-align:center;text-anchor:middle;fill:#000000"
         y="-567.83545"
         x="786.68488"
         sodipodi:role="line">-1</tspan><tspan
         id="tspan5519"
         style="font-size:22.5px;text-align:center;text-anchor:middle;fill:#000000"
         y="-524.77289"
         x="786.68488"
         sodipodi:role="line">Per Noble</tspan></text>
</g></svg>