<?xml version="1.0" encoding="UTF-8" standalone="no"?>
<!-- Created with Inkscape (http://www.inkscape.org/) -->

<svg
   xmlns:dc="http://purl.org/dc/elements/1.1/"
   xmlns:cc="http://creativecommons.org/ns#"
   xmlns:rdf="http://www.w3.org/1999/02/22-rdf-syntax-ns#"
   xmlns:svg="http://www.w3.org/2000/svg"
   xmlns="http://www.w3.org/2000/svg"
   xmlns:sodipodi="http://sodipodi.sourceforge.net/DTD/sodipodi-0.dtd"
   xmlns:inkscape="http://www.inkscape.org/namespaces/inkscape"
   width="297mm"
   height="210mm"
   viewBox="0 0 1052.3622 744.09448"
   id="svg2"
   version="1.1"
   inkscape:version="0.91 r13725"
   sodipodi:docname="drawing.svg">
  <defs
     id="defs4" />
  <sodipodi:namedview
     id="base"
     pagecolor="#ffffff"
     bordercolor="#666666"
     borderopacity="1.0"
     inkscape:pageopacity="0.0"
     inkscape:pageshadow="2"
     inkscape:zoom="0.37439581"
     inkscape:cx="526.1811"
     inkscape:cy="372.04724"
     inkscape:document-units="px"
     inkscape:current-layer="layer1"
     showgrid="false"
     inkscape:snap-bbox="true"
     inkscape:snap-page="true"
     inkscape:bbox-nodes="true"
     showguides="true"
     inkscape:guide-bbox="true"
     inkscape:window-width="928"
     inkscape:window-height="1028"
     inkscape:window-x="2912"
     inkscape:window-y="24"
     inkscape:window-maximized="0">
    <sodipodi:guide
       position="110.78739,31.941615"
       orientation="0,1"
       id="guide4274" />
    <sodipodi:guide
       position="82.840547,192.04721"
       orientation="1,0"
       id="guide4276" />
    <sodipodi:guide
       position="442.84055,192.04721"
       orientation="1,0"
       id="guide4278" />
    <sodipodi:guide
       position="110.78739,160.10568"
       orientation="0,1"
       id="guide4282" />
    <sodipodi:guide
       position="433.50052,712.153"
       orientation="0,1"
       id="guide4492" />
    <sodipodi:guide
       position="609.52162,192.04721"
       orientation="1,0"
       id="guide4536" />
    <sodipodi:guide
       position="969.52162,192.04721"
       orientation="1,0"
       id="guide4538" />
    <sodipodi:guide
       position="405.55367,583.98894"
       orientation="0,1"
       id="guide4540" />
  </sodipodi:namedview>
  <metadata
     id="metadata7">
    <rdf:RDF>
      <cc:Work
         rdf:about="">
        <dc:format>image/svg+xml</dc:format>
        <dc:type
           rdf:resource="http://purl.org/dc/dcmitype/StillImage" />
        <dc:title></dc:title>
      </cc:Work>
    </rdf:RDF>
  </metadata>
  <g
     inkscape:label="Layer 1"
     inkscape:groupmode="layer"
     id="layer1"
     transform="translate(0,-308.26772)">
    <g
       id="g4359"
       transform="translate(-24.969625,2.5571789e-5)">
      <text
         sodipodi:linespacing="125%"
         id="text4183"
         y="919.69794"
         x="218.21097"
         style="font-style:normal;font-variant:normal;font-weight:normal;font-stretch:normal;font-size:40px;line-height:125%;font-family:'Kingthings Calligraphica 2';-inkscape-font-specification:'Kingthings Calligraphica 2, ';text-align:center;letter-spacing:0px;word-spacing:0px;text-anchor:middle;fill:#000000;fill-opacity:1;stroke:none;stroke-width:1px;stroke-linecap:butt;stroke-linejoin:miter;stroke-opacity:1"
         xml:space="preserve"><tspan
           y="919.69794"
           x="218.21097"
           id="tspan4185"
           sodipodi:role="line">Trusted</tspan><tspan
           id="tspan4187"
           y="969.69794"
           x="218.21097"
           sodipodi:role="line">Unpledged</tspan><tspan
           id="tspan4189"
           y="1019.6979"
           x="218.21097"
           sodipodi:role="line">Traitor</tspan></text>
      <text
         sodipodi:linespacing="125%"
         id="text4183-5"
         y="987.90063"
         x="380.79169"
         style="font-style:normal;font-variant:normal;font-weight:normal;font-stretch:normal;font-size:98.0867157px;line-height:125%;font-family:'Kingthings Calligraphica 2';-inkscape-font-specification:'Kingthings Calligraphica 2, ';text-align:center;letter-spacing:0px;word-spacing:0px;text-anchor:middle;fill:#000000;fill-opacity:1;stroke:none;stroke-width:1px;stroke-linecap:butt;stroke-linejoin:miter;stroke-opacity:1"
         xml:space="preserve"><tspan
           id="tspan4189-6"
           y="987.90063"
           x="380.79169"
           sodipodi:role="line">+15</tspan></text>
    </g>
    <g
       id="g4775"
       transform="translate(-7.8792578,-42.433974)">
      <text
         sodipodi:linespacing="125%"
         id="text4183-9"
         y="965.43018"
         x="716.84662"
         style="font-style:normal;font-variant:normal;font-weight:normal;font-stretch:normal;font-size:40px;line-height:125%;font-family:'Kingthings Calligraphica 2';-inkscape-font-specification:'Kingthings Calligraphica 2, ';text-align:center;letter-spacing:0px;word-spacing:0px;text-anchor:middle;fill:#000000;fill-opacity:1;stroke:none;stroke-width:1px;stroke-linecap:butt;stroke-linejoin:miter;stroke-opacity:1"
         xml:space="preserve"><tspan
           id="tspan4189-9"
           y="965.43018"
           x="716.84662"
           sodipodi:role="line">Trusted</tspan><tspan
           y="1015.4302"
           x="716.84662"
           sodipodi:role="line"
           id="tspan4166">Pledged</tspan><tspan
           y="1065.4302"
           x="716.84662"
           sodipodi:role="line"
           id="tspan4168">Traitor</tspan></text>
      <text
         sodipodi:linespacing="125%"
         id="text4183-5-08"
         y="1023.5273"
         x="879.42731"
         style="font-style:normal;font-variant:normal;font-weight:normal;font-stretch:normal;font-size:98.0867157px;line-height:125%;font-family:'Kingthings Calligraphica 2';-inkscape-font-specification:'Kingthings Calligraphica 2, ';text-align:center;letter-spacing:0px;word-spacing:0px;text-anchor:middle;fill:#000000;fill-opacity:1;stroke:none;stroke-width:1px;stroke-linecap:butt;stroke-linejoin:miter;stroke-opacity:1"
         xml:space="preserve"><tspan
           id="tspan4189-6-9"
           y="1023.5273"
           x="879.42731"
           sodipodi:role="line">+9</tspan></text>
    </g>
    <path
       style="fill:none;fill-rule:evenodd;stroke:#000000;stroke-width:1px;stroke-linecap:butt;stroke-linejoin:miter;stroke-opacity:1"
       d="m 526.18109,340.2092 0,680.2114"
       id="path4494"
       inkscape:connector-curvature="0" />
    <g
       id="g4359-2"
       transform="matrix(-1,0,0,-1,550.0715,1360.6298)">
      <text
         sodipodi:linespacing="125%"
         id="text4183-91"
         y="919.69794"
         x="218.21097"
         style="font-style:normal;font-variant:normal;font-weight:normal;font-stretch:normal;font-size:40px;line-height:125%;font-family:'Kingthings Calligraphica 2';-inkscape-font-specification:'Kingthings Calligraphica 2, ';text-align:center;letter-spacing:0px;word-spacing:0px;text-anchor:middle;fill:#000000;fill-opacity:1;stroke:none;stroke-width:1px;stroke-linecap:butt;stroke-linejoin:miter;stroke-opacity:1"
         xml:space="preserve"><tspan
           y="919.69794"
           x="218.21097"
           id="tspan4185-2"
           sodipodi:role="line">Trusted</tspan><tspan
           id="tspan4187-7"
           y="969.69794"
           x="218.21097"
           sodipodi:role="line">Unpledged</tspan><tspan
           id="tspan4189-0"
           y="1019.6979"
           x="218.21097"
           sodipodi:role="line">Traitor</tspan></text>
      <text
         sodipodi:linespacing="125%"
         id="text4183-5-9"
         y="987.90063"
         x="380.79169"
         style="font-style:normal;font-variant:normal;font-weight:normal;font-stretch:normal;font-size:98.0867157px;line-height:125%;font-family:'Kingthings Calligraphica 2';-inkscape-font-specification:'Kingthings Calligraphica 2, ';text-align:center;letter-spacing:0px;word-spacing:0px;text-anchor:middle;fill:#000000;fill-opacity:1;stroke:none;stroke-width:1px;stroke-linecap:butt;stroke-linejoin:miter;stroke-opacity:1"
         xml:space="preserve"><tspan
           id="tspan4189-6-3"
           y="987.90063"
           x="380.79169"
           sodipodi:role="line">+15</tspan></text>
    </g>
    <g
       id="g4775-6"
       transform="matrix(-1,0,0,-1,1571.1639,1406.362)">
      <text
         sodipodi:linespacing="125%"
         id="text4183-9-0"
         y="965.43018"
         x="716.84662"
         style="font-style:normal;font-variant:normal;font-weight:normal;font-stretch:normal;font-size:40px;line-height:125%;font-family:'Kingthings Calligraphica 2';-inkscape-font-specification:'Kingthings Calligraphica 2, ';text-align:center;letter-spacing:0px;word-spacing:0px;text-anchor:middle;fill:#000000;fill-opacity:1;stroke:none;stroke-width:1px;stroke-linecap:butt;stroke-linejoin:miter;stroke-opacity:1"
         xml:space="preserve"><tspan
           id="tspan4189-9-6"
           y="965.43018"
           x="716.84662"
           sodipodi:role="line">Trusted</tspan><tspan
           y="1015.4302"
           x="716.84662"
           sodipodi:role="line"
           id="tspan4166-2">Pledged</tspan><tspan
           y="1065.4302"
           x="716.84662"
           sodipodi:role="line"
           id="tspan4168-6">Traitor</tspan></text>
      <text
         sodipodi:linespacing="125%"
         id="text4183-5-08-1"
         y="1023.5273"
         x="879.42731"
         style="font-style:normal;font-variant:normal;font-weight:normal;font-stretch:normal;font-size:98.0867157px;line-height:125%;font-family:'Kingthings Calligraphica 2';-inkscape-font-specification:'Kingthings Calligraphica 2, ';text-align:center;letter-spacing:0px;word-spacing:0px;text-anchor:middle;fill:#000000;fill-opacity:1;stroke:none;stroke-width:1px;stroke-linecap:butt;stroke-linejoin:miter;stroke-opacity:1"
         xml:space="preserve"><tspan
           id="tspan4189-6-9-8"
           y="1023.5273"
           x="879.42731"
           sodipodi:role="line">+9</tspan></text>
    </g>
  </g>
</svg>
