<?xml version="1.0" encoding="UTF-8" standalone="no"?>
<!-- Generator: Adobe Illustrator 16.0.4, SVG Export Plug-In . SVG Version: 6.00 Build 0)  -->

<svg
   xmlns:dc="http://purl.org/dc/elements/1.1/"
   xmlns:cc="http://creativecommons.org/ns#"
   xmlns:rdf="http://www.w3.org/1999/02/22-rdf-syntax-ns#"
   xmlns:svg="http://www.w3.org/2000/svg"
   xmlns="http://www.w3.org/2000/svg"
   xmlns:sodipodi="http://sodipodi.sourceforge.net/DTD/sodipodi-0.dtd"
   xmlns:inkscape="http://www.inkscape.org/namespaces/inkscape"
   version="1.1"
   x="0px"
   y="0px"
   width="252px"
   height="342.36px"
   viewBox="0 0 252 342.36"
   enable-background="new 0 0 252 342.36"
   xml:space="preserve"
   id="svg2"
   inkscape:version="0.91 r13725"
   sodipodi:docname="playerAid.svg"><metadata
     id="metadata490"><rdf:RDF><cc:Work
         rdf:about=""><dc:format>image/svg+xml</dc:format><dc:type
           rdf:resource="http://purl.org/dc/dcmitype/StillImage" /><dc:title /></cc:Work></rdf:RDF></metadata><defs
     id="defs488" /><sodipodi:namedview
     pagecolor="#ffffff"
     bordercolor="#666666"
     borderopacity="1"
     objecttolerance="10"
     gridtolerance="10"
     guidetolerance="10"
     inkscape:pageopacity="0"
     inkscape:pageshadow="2"
     inkscape:window-width="1248"
     inkscape:window-height="1388"
     id="namedview486"
     showgrid="false"
     showguides="true"
     inkscape:guide-bbox="true"
     inkscape:snap-bbox="true"
     inkscape:bbox-nodes="true"
     inkscape:zoom="1.869883"
     inkscape:cx="77.01899"
     inkscape:cy="209.00127"
     inkscape:window-x="3232"
     inkscape:window-y="24"
     inkscape:window-maximized="0"
     inkscape:current-layer="svg2"><sodipodi:guide
       position="224.99899,134.04499"
       orientation="1,0"
       id="guide4618" /><sodipodi:guide
       position="224.99899,27.181001"
       orientation="0,1"
       id="guide5103" /><sodipodi:guide
       position="27.000999,27.181001"
       orientation="1,0"
       id="guide5105" /><sodipodi:guide
       position="27.000999,315.179"
       orientation="0,1"
       id="guide5107" /><sodipodi:guide
       position="0,342.18"
       orientation="1,0"
       id="guide5109" /><sodipodi:guide
       position="0,342.18"
       orientation="0,1"
       id="guide5111" /><sodipodi:guide
       position="252,342.18"
       orientation="1,0"
       id="guide5115" /></sodipodi:namedview><flowRoot
     xml:space="preserve"
     id="flowRoot5173"
     style="fill:black;stroke:none;stroke-opacity:1;stroke-width:1px;stroke-linejoin:miter;stroke-linecap:butt;fill-opacity:1;font-family:sans-serif;font-style:normal;font-weight:normal;font-size:10px;line-height:125%;letter-spacing:0px;word-spacing:0px"><flowRegion
       id="flowRegion5175"><rect
         id="rect5177"
         width="197.99799"
         height="76.301407"
         x="27.000999"
         y="238.87758" /></flowRegion><flowPara
       id="flowPara5179" /></flowRoot><flowRoot
     xml:space="preserve"
     id="flowRoot5181"
     style="fill:black;stroke:none;stroke-opacity:1;stroke-width:1px;stroke-linejoin:miter;stroke-linecap:butt;fill-opacity:1;font-family:sans-serif;font-style:normal;font-weight:normal;font-size:10px;line-height:125%;letter-spacing:0px;word-spacing:0px"><flowRegion
       id="flowRegion5183"><rect
         id="rect5185"
         width="197.99799"
         height="65.338158"
         x="27.000999"
         y="249.84084" /></flowRegion><flowPara
       id="flowPara5187" /></flowRoot><flowRoot
     xml:space="preserve"
     id="flowRoot5189"
     style="font-style:normal;font-variant:normal;font-weight:normal;font-stretch:normal;font-size:11.25px;line-height:125%;font-family:'Kingthings Exeter';-inkscape-font-specification:'Kingthings Exeter';letter-spacing:0px;word-spacing:0px;fill:#000000;fill-opacity:1;stroke:none;stroke-width:1px;stroke-linecap:butt;stroke-linejoin:miter;stroke-opacity:1"
     transform="translate(0.02956345,-87.107971)"><flowRegion
       id="flowRegion5191"><rect
         id="rect5193"
         width="224.96944"
         height="121.4914"
         x="27.000999"
         y="249.30603"
         style="font-style:normal;font-variant:normal;font-weight:normal;font-stretch:normal;font-size:11.25px;font-family:'Kingthings Exeter';-inkscape-font-specification:'Kingthings Exeter'" /></flowRegion><flowPara
       id="flowPara5195"
       style="font-style:normal;font-variant:normal;font-weight:normal;font-stretch:normal;font-size:12.5px;font-family:'Kingthings Calligraphica 2';-inkscape-font-specification:'Kingthings Calligraphica 2, '">Rebellion</flowPara><flowPara
       id="flowPara5197">- King gains 1 power for each loyalist trusted and 1 power for each traitor not trusted.</flowPara><flowPara
       id="flowPara4237">- If more loyalists trusted, chancellor becomes king.</flowPara><flowPara
       id="flowPara5319">- Otherwise, highest numbered traitor becomes king and all traitors gain 3 power.</flowPara><flowPara
       id="flowPara4247">- Nobles gain power based on trust and fealty:</flowPara></flowRoot><flowRoot
     transform="translate(-0.07419631,-148.40944)"
     xml:space="preserve"
     id="flowRoot5189-4-9"
     style="font-style:normal;font-variant:normal;font-weight:normal;font-stretch:normal;font-size:11.25px;line-height:125%;font-family:'Kingthings Exeter';-inkscape-font-specification:'Kingthings Exeter';letter-spacing:0px;word-spacing:0px;fill:#000000;fill-opacity:1;stroke:none;stroke-width:1px;stroke-linecap:butt;stroke-linejoin:miter;stroke-opacity:1"><flowRegion
       id="flowRegion5191-0-2"><rect
         id="rect5193-1-3"
         width="197.99799"
         height="65.872948"
         x="27.000999"
         y="249.30603"
         style="font-style:normal;font-variant:normal;font-weight:normal;font-stretch:normal;font-size:11.25px;font-family:'Kingthings Exeter';-inkscape-font-specification:'Kingthings Exeter'" /></flowRegion><flowPara
       id="flowPara5195-3-4"
       style="font-style:normal;font-variant:normal;font-weight:normal;font-stretch:normal;font-size:12.5px;font-family:'Kingthings Calligraphica 2';-inkscape-font-specification:'Kingthings Calligraphica 2, '">Intrigue</flowPara><flowPara
       id="flowPara5197-6-9">- Idle nobles investigate noble to their left.</flowPara></flowRoot><flowRoot
     transform="translate(-0.06198928,-225.86947)"
     xml:space="preserve"
     id="flowRoot5189-4-9-5"
     style="font-style:normal;font-variant:normal;font-weight:normal;font-stretch:normal;font-size:11.25px;line-height:125%;font-family:'Kingthings Exeter';-inkscape-font-specification:'Kingthings Exeter';letter-spacing:0px;word-spacing:0px;fill:#000000;fill-opacity:1;stroke:none;stroke-width:1px;stroke-linecap:butt;stroke-linejoin:miter;stroke-opacity:1"><flowRegion
       id="flowRegion5191-0-2-6"><rect
         id="rect5193-1-3-7"
         width="197.99799"
         height="65.872948"
         x="27.000999"
         y="249.30603"
         style="font-style:normal;font-variant:normal;font-weight:normal;font-stretch:normal;font-size:11.25px;font-family:'Kingthings Exeter';-inkscape-font-specification:'Kingthings Exeter'" /></flowRegion><flowPara
       id="flowPara5195-3-4-6"
       style="font-style:normal;font-variant:normal;font-weight:normal;font-stretch:normal;font-size:12.5px;font-family:'Kingthings Calligraphica 2';-inkscape-font-specification:'Kingthings Calligraphica 2, '">Fealty</flowPara><flowPara
       id="flowPara5197-6-9-0">- Each noble decides whether to pledge fealty and give 1 of their power to the king.</flowPara></flowRoot><flowRoot
     transform="translate(0.047874,-123.57305)"
     xml:space="preserve"
     id="flowRoot5189-4-9-5-3"
     style="font-style:normal;font-variant:normal;font-weight:normal;font-stretch:normal;font-size:11.25px;line-height:125%;font-family:'Kingthings Exeter';-inkscape-font-specification:'Kingthings Exeter';letter-spacing:0px;word-spacing:0px;fill:#000000;fill-opacity:1;stroke:none;stroke-width:1px;stroke-linecap:butt;stroke-linejoin:miter;stroke-opacity:1"><flowRegion
       id="flowRegion5191-0-2-6-4"><rect
         id="rect5193-1-3-7-2"
         width="198.05998"
         height="81.91674"
         x="27.000999"
         y="249.30603"
         style="font-style:normal;font-variant:normal;font-weight:normal;font-stretch:normal;font-size:11.25px;font-family:'Kingthings Exeter';-inkscape-font-specification:'Kingthings Exeter'" /></flowRegion><flowPara
       id="flowPara5309"
       style="font-style:normal;font-variant:normal;font-weight:normal;font-stretch:normal;font-size:12.5px;font-family:'Kingthings Calligraphica 2';-inkscape-font-specification:'Kingthings Calligraphica 2, '">Trust</flowPara><flowPara
       id="flowPara5311">- The king decides which nobles to trust.</flowPara></flowRoot><rect
     style="fill:#ffffff;fill-opacity:1;stroke:#ffd700;stroke-width:354;stroke-miterlimit:4;stroke-dasharray:none;stroke-opacity:1"
     id="rect4649"
     width="23.464884"
     height="0"
     x="35.940559"
     y="379.4678" /><g
     id="g4249"
     transform="translate(-2.9199219e-6,-7.126559)"><path
       inkscape:connector-curvature="0"
       id="path5513"
       d="m 27.000999,338.67877 197.997991,0"
       style="fill:none;fill-rule:evenodd;stroke:#999999;stroke-width:0.5;stroke-linecap:butt;stroke-linejoin:miter;stroke-miterlimit:4;stroke-dasharray:none;stroke-opacity:1" /><path
       inkscape:connector-curvature="0"
       id="path5513-3"
       d="m 27.000999,366.81476 197.997991,0"
       style="fill:none;fill-rule:evenodd;stroke:#999999;stroke-width:0.5;stroke-linecap:butt;stroke-linejoin:miter;stroke-miterlimit:4;stroke-dasharray:none;stroke-opacity:1" /><path
       inkscape:connector-curvature="0"
       id="path5513-8"
       d="m 27.000999,352.74677 197.997991,0"
       style="fill:none;fill-rule:evenodd;stroke:#999999;stroke-width:0.5;stroke-linecap:butt;stroke-linejoin:miter;stroke-miterlimit:4;stroke-dasharray:none;stroke-opacity:1" /><path
       inkscape:connector-curvature="0"
       id="path5513-83"
       d="m 27.000999,380.88275 197.997991,0"
       style="fill:none;fill-rule:evenodd;stroke:#999999;stroke-width:0.5;stroke-linecap:butt;stroke-linejoin:miter;stroke-miterlimit:4;stroke-dasharray:none;stroke-opacity:1" /><path
       inkscape:connector-curvature="0"
       id="path5513-39"
       d="m 133.61954,324.60909 91.37945,0"
       style="fill:none;fill-rule:evenodd;stroke:#999999;stroke-width:0.50338471;stroke-linecap:butt;stroke-linejoin:miter;stroke-miterlimit:4;stroke-dasharray:none;stroke-opacity:1" /><text
       sodipodi:linespacing="125%"
       id="text4591"
       y="336.65726"
       x="46.183128"
       style="font-style:normal;font-variant:normal;font-weight:normal;font-stretch:normal;font-size:14.72835732px;line-height:125%;font-family:'Kingthings Exeter';-inkscape-font-specification:'Kingthings Exeter';text-align:center;letter-spacing:0px;word-spacing:0px;text-anchor:middle;fill:#1a1a1a;fill-opacity:1;stroke:none;stroke-width:1px;stroke-linecap:butt;stroke-linejoin:miter;stroke-opacity:1"
       xml:space="preserve"><tspan
         style="font-style:normal;font-variant:normal;font-weight:normal;font-stretch:normal;font-size:11.25px;font-family:'Kingthings Exeter';-inkscape-font-specification:'Kingthings Exeter';fill:#1a1a1a"
         y="336.65726"
         x="46.183128"
         id="tspan4593"
         sodipodi:role="line">No Fealty</tspan><tspan
         style="font-style:normal;font-variant:normal;font-weight:normal;font-stretch:normal;font-size:11.25px;font-family:'Kingthings Exeter';-inkscape-font-specification:'Kingthings Exeter';fill:#1a1a1a"
         id="tspan5483"
         y="350.71976"
         x="46.183128"
         sodipodi:role="line">No Fealty</tspan><tspan
         style="font-style:normal;font-variant:normal;font-weight:normal;font-stretch:normal;font-size:11.25px;font-family:'Kingthings Exeter';-inkscape-font-specification:'Kingthings Exeter';fill:#1a1a1a"
         id="tspan5485"
         y="364.78226"
         x="46.183128"
         sodipodi:role="line">Fealty</tspan><tspan
         style="font-style:normal;font-variant:normal;font-weight:normal;font-stretch:normal;font-size:11.25px;font-family:'Kingthings Exeter';-inkscape-font-specification:'Kingthings Exeter';fill:#1a1a1a"
         id="tspan5487"
         y="378.84476"
         x="46.183128"
         sodipodi:role="line">Fealty</tspan></text>
<text
       sodipodi:linespacing="125%"
       id="text4591-6"
       y="336.60233"
       x="104.96427"
       style="font-style:normal;font-variant:normal;font-weight:normal;font-stretch:normal;font-size:14.72835732px;line-height:125%;font-family:'Kingthings Exeter';-inkscape-font-specification:'Kingthings Exeter';text-align:center;letter-spacing:0px;word-spacing:0px;text-anchor:middle;fill:#1a1a1a;fill-opacity:1;stroke:none;stroke-width:1px;stroke-linecap:butt;stroke-linejoin:miter;stroke-opacity:1"
       xml:space="preserve"><tspan
         style="font-style:normal;font-variant:normal;font-weight:normal;font-stretch:normal;font-size:11.25px;font-family:'Kingthings Exeter';-inkscape-font-specification:'Kingthings Exeter';fill:#1a1a1a"
         y="336.60233"
         x="104.96427"
         id="tspan4593-1"
         sodipodi:role="line">Trusted</tspan><tspan
         style="font-style:normal;font-variant:normal;font-weight:normal;font-stretch:normal;font-size:11.25px;font-family:'Kingthings Exeter';-inkscape-font-specification:'Kingthings Exeter';fill:#1a1a1a"
         id="tspan5477"
         y="350.66483"
         x="104.96427"
         sodipodi:role="line">Unstrusted</tspan><tspan
         style="font-style:normal;font-variant:normal;font-weight:normal;font-stretch:normal;font-size:11.25px;font-family:'Kingthings Exeter';-inkscape-font-specification:'Kingthings Exeter';fill:#1a1a1a"
         id="tspan5479"
         y="364.72733"
         x="104.96427"
         sodipodi:role="line">Trusted</tspan><tspan
         style="font-style:normal;font-variant:normal;font-weight:normal;font-stretch:normal;font-size:11.25px;font-family:'Kingthings Exeter';-inkscape-font-specification:'Kingthings Exeter';fill:#1a1a1a"
         id="tspan5481"
         y="378.78983"
         x="104.96427"
         sodipodi:role="line">Untrusted</tspan></text>
<text
       sodipodi:linespacing="125%"
       id="text4591-6-6"
       y="322.53793"
       x="159.72742"
       style="font-style:normal;font-variant:normal;font-weight:normal;font-stretch:normal;font-size:14.72835732px;line-height:125%;font-family:'Kingthings Calligraphica 2';-inkscape-font-specification:'Kingthings Calligraphica 2, ';text-align:center;letter-spacing:0px;word-spacing:0px;text-anchor:middle;fill:#000000;fill-opacity:1;stroke:none;stroke-width:1px;stroke-linecap:butt;stroke-linejoin:miter;stroke-opacity:1"
       xml:space="preserve"><tspan
         style="font-style:normal;font-variant:normal;font-weight:normal;font-stretch:normal;font-size:11.25px;font-family:'Kingthings Exeter';-inkscape-font-specification:'Kingthings Exeter';fill:#1a1a1a"
         y="322.53793"
         x="159.72742"
         id="tspan4593-1-3"
         sodipodi:role="line">Traitor</tspan><tspan
         style="font-style:normal;font-variant:normal;font-weight:normal;font-stretch:normal;font-size:11.25px;font-family:'Kingthings Exeter';-inkscape-font-specification:'Kingthings Exeter'"
         id="tspan5453"
         y="336.60043"
         x="159.72742"
         sodipodi:role="line">5</tspan><tspan
         id="tspan5455"
         style="font-style:normal;font-variant:normal;font-weight:normal;font-stretch:normal;font-size:11.25px;font-family:'Kingthings Exeter';-inkscape-font-specification:'Kingthings Exeter'"
         y="350.66293"
         x="159.72742"
         sodipodi:role="line">0</tspan><tspan
         id="tspan5457"
         style="font-style:normal;font-variant:normal;font-weight:normal;font-stretch:normal;font-size:11.25px;font-family:'Kingthings Exeter';-inkscape-font-specification:'Kingthings Exeter'"
         y="364.72543"
         x="159.72742"
         sodipodi:role="line">2</tspan><tspan
         id="tspan5459"
         style="font-style:normal;font-variant:normal;font-weight:normal;font-stretch:normal;font-size:11.25px;font-family:'Kingthings Exeter';-inkscape-font-specification:'Kingthings Exeter'"
         y="378.78793"
         x="159.72742"
         sodipodi:role="line">-3</tspan></text>
<text
       sodipodi:linespacing="125%"
       id="text4591-6-6-4"
       y="322.57278"
       x="207.86581"
       style="font-style:normal;font-variant:normal;font-weight:normal;font-stretch:normal;font-size:14.72835732px;line-height:125%;font-family:'Kingthings Calligraphica 2';-inkscape-font-specification:'Kingthings Calligraphica 2, ';text-align:center;letter-spacing:0px;word-spacing:0px;text-anchor:middle;fill:#000000;fill-opacity:1;stroke:none;stroke-width:1px;stroke-linecap:butt;stroke-linejoin:miter;stroke-opacity:1"
       xml:space="preserve"><tspan
         style="font-style:normal;font-variant:normal;font-weight:normal;font-stretch:normal;font-size:11.25px;font-family:'Kingthings Exeter';-inkscape-font-specification:'Kingthings Exeter';fill:#1a1a1a"
         id="tspan5469"
         y="322.57278"
         x="207.86581"
         sodipodi:role="line">Loyalist</tspan><tspan
         style="font-style:normal;font-variant:normal;font-weight:normal;font-stretch:normal;font-size:11.25px;font-family:'Kingthings Exeter';-inkscape-font-specification:'Kingthings Exeter'"
         y="336.63528"
         x="207.86581"
         sodipodi:role="line"
         id="tspan5517">5</tspan><tspan
         style="font-style:normal;font-variant:normal;font-weight:normal;font-stretch:normal;font-size:11.25px;font-family:'Kingthings Exeter';-inkscape-font-specification:'Kingthings Exeter'"
         id="tspan5471"
         y="350.69778"
         x="207.86581"
         sodipodi:role="line">0</tspan><tspan
         style="font-style:normal;font-variant:normal;font-weight:normal;font-stretch:normal;font-size:11.25px;font-family:'Kingthings Exeter';-inkscape-font-specification:'Kingthings Exeter'"
         id="tspan5473"
         y="364.76028"
         x="207.86581"
         sodipodi:role="line">5</tspan><tspan
         style="font-style:normal;font-variant:normal;font-weight:normal;font-stretch:normal;font-size:11.25px;font-family:'Kingthings Exeter';-inkscape-font-specification:'Kingthings Exeter'"
         id="tspan5475"
         y="378.82278"
         x="207.86581"
         sodipodi:role="line">0</tspan></text>
</g><flowRoot
     transform="translate(-0.06198928,-186.4823)"
     xml:space="preserve"
     id="flowRoot5189-4-9-5-0"
     style="font-style:normal;font-variant:normal;font-weight:normal;font-stretch:normal;font-size:11.25px;line-height:125%;font-family:'Kingthings Exeter';-inkscape-font-specification:'Kingthings Exeter';letter-spacing:0px;word-spacing:0px;fill:#000000;fill-opacity:1;stroke:none;stroke-width:1px;stroke-linecap:butt;stroke-linejoin:miter;stroke-opacity:1"><flowRegion
       id="flowRegion5191-0-2-6-3"><rect
         id="rect5193-1-3-7-4"
         width="197.99799"
         height="65.872948"
         x="27.000999"
         y="249.30603"
         style="font-style:normal;font-variant:normal;font-weight:normal;font-stretch:normal;font-size:11.25px;font-family:'Kingthings Exeter';-inkscape-font-specification:'Kingthings Exeter'" /></flowRegion><flowPara
       id="flowPara5195-3-4-6-8"
       style="font-style:normal;font-variant:normal;font-weight:normal;font-stretch:normal;font-size:12.5px;font-family:'Kingthings Calligraphica 2';-inkscape-font-specification:'Kingthings Calligraphica 2, '">Council</flowPara><flowPara
       id="flowPara5197-6-9-0-6">- King appoints counselors who look at hidden 2 role cards.</flowPara></flowRoot></svg>