<?xml version="1.0" encoding="UTF-8" standalone="no"?>
<!-- Generator: Adobe Illustrator 16.0.4, SVG Export Plug-In . SVG Version: 6.00 Build 0)  -->

<svg
   xmlns:dc="http://purl.org/dc/elements/1.1/"
   xmlns:cc="http://creativecommons.org/ns#"
   xmlns:rdf="http://www.w3.org/1999/02/22-rdf-syntax-ns#"
   xmlns:svg="http://www.w3.org/2000/svg"
   xmlns="http://www.w3.org/2000/svg"
   xmlns:sodipodi="http://sodipodi.sourceforge.net/DTD/sodipodi-0.dtd"
   xmlns:inkscape="http://www.inkscape.org/namespaces/inkscape"
   version="1.1"
   id="Layer_1"
   sodipodi:docname="CustomMediumPunchout.svg"
   inkscape:version="0.91 r13725"
   x="0px"
   y="0px"
   width="8in"
   height="4.5in"
   viewBox="0 0 719.99999 405.00001"
   enable-background="new 0 0 576 324"
   xml:space="preserve"><metadata
     id="metadata222"><rdf:RDF><cc:Work
         rdf:about=""><dc:format>image/svg+xml</dc:format><dc:type
           rdf:resource="http://purl.org/dc/dcmitype/StillImage" /><dc:title></dc:title></cc:Work></rdf:RDF></metadata><defs
     id="defs220" /><sodipodi:namedview
     inkscape:current-layer="layer1"
     inkscape:window-maximized="1"
     inkscape:window-y="24"
     inkscape:window-x="1985"
     inkscape:document-units="in"
     inkscape:window-height="1056"
     inkscape:window-width="1855"
     inkscape:pageshadow="2"
     inkscape:pageopacity="0"
     units="in"
     inkscape:cy="192.68303"
     inkscape:cx="62.426039"
     inkscape:zoom="1.4142136"
     showgrid="false"
     guidetolerance="10"
     gridtolerance="10"
     objecttolerance="10"
     borderopacity="1"
     pagecolor="#ffffff"
     bordercolor="#666666"
     id="namedview389"
     inkscape:snap-bbox="true"
     inkscape:bbox-nodes="true"
     showguides="true"
     inkscape:guide-bbox="true"
     inkscape:snap-bbox-edge-midpoints="true"
     inkscape:bbox-paths="true"
     inkscape:object-nodes="true"
     inkscape:object-paths="true"><sodipodi:guide
       position="11.25,393.75001"
       orientation="1,0"
       id="guide4319" /><sodipodi:guide
       position="11.25,393.75001"
       orientation="0,1"
       id="guide4321" /><sodipodi:guide
       position="708.74999,393.75001"
       orientation="1,0"
       id="guide4323" /><sodipodi:guide
       position="11.25,11.25"
       orientation="0,1"
       id="guide4325" /><sodipodi:guide
       position="177.1875,393.75001"
       orientation="1,0"
       id="guide4842" /><sodipodi:guide
       position="188.4375,393.75001"
       orientation="1,0"
       id="guide5048" /><sodipodi:guide
       position="354.375,393.75001"
       orientation="1,0"
       id="guide5050" /><sodipodi:guide
       position="365.62499,393.75001"
       orientation="1,0"
       id="guide5052" /><sodipodi:guide
       position="531.56249,393.75001"
       orientation="1,0"
       id="guide5054" /><sodipodi:guide
       position="542.81249,393.75001"
       orientation="1,0"
       id="guide5056" /></sodipodi:namedview><g
     id="layer1"
     inkscape:groupmode="layer"
     inkscape:label="Delete"
     transform="translate(0,81.000009)"><rect
       style="fill:#808080;fill-opacity:1;stroke:none;stroke-width:3.84899998;stroke-miterlimit:4;stroke-dasharray:none;stroke-opacity:1"
       id="rect4327"
       width="165.9375"
       height="382.5"
       x="11.25"
       y="-69.750008" /><rect
       style="fill:#808080;fill-opacity:1;stroke:none;stroke-width:3.84899998;stroke-miterlimit:4;stroke-dasharray:none;stroke-opacity:1"
       id="rect4327-3"
       width="165.9375"
       height="382.5"
       x="542.8125"
       y="-69.750008" /><rect
       style="fill:#808080;fill-opacity:1;stroke:none;stroke-width:3.84899998;stroke-miterlimit:4;stroke-dasharray:none;stroke-opacity:1"
       id="rect4327-3-6"
       width="165.9375"
       height="382.5"
       x="365.625"
       y="-69.750008" /><rect
       style="fill:#808080;fill-opacity:1;stroke:none;stroke-width:3.84899998;stroke-miterlimit:4;stroke-dasharray:none;stroke-opacity:1"
       id="rect4327-3-7"
       width="165.9375"
       height="382.5"
       x="188.4375"
       y="-69.750008" /><rect
       style="fill:#ff0000;fill-opacity:1;stroke:none;stroke-width:3.84899998;stroke-miterlimit:4;stroke-dasharray:none;stroke-opacity:1"
       id="rect4384"
       width="11.25"
       height="11.25"
       x="162.35428"
       y="-104.56455" /><rect
       style="opacity:0.97000002;fill:#00ffff;fill-opacity:1;stroke:none;stroke-width:3.84899998;stroke-miterlimit:4;stroke-dasharray:none;stroke-opacity:1"
       id="rect4327-5-3"
       width="33.209999"
       height="33.209999"
       x="44.459999"
       y="-69.750008" /><rect
       style="opacity:0.97000002;fill:#ff00ff;fill-opacity:1;stroke:none;stroke-width:3.84899998;stroke-miterlimit:4;stroke-dasharray:none;stroke-opacity:1"
       id="rect4327-5-5"
       width="33.209999"
       height="33.209999"
       x="77.669998"
       y="-69.750008" /><rect
       style="opacity:0.97000002;fill:#008000;fill-opacity:1;stroke:none;stroke-width:3.84899998;stroke-miterlimit:4;stroke-dasharray:none;stroke-opacity:1"
       id="rect4327-5-36-0-6-2-6"
       width="33.209999"
       height="22.5"
       x="11.25"
       y="290.24997" /><rect
       style="opacity:0.97000002;fill:#ff0000;fill-opacity:1;stroke:none;stroke-width:3.84899998;stroke-miterlimit:4;stroke-dasharray:none;stroke-opacity:1"
       id="rect4327-5-36-0-6-2-6-7"
       width="5.8499999"
       height="5.8499999"
       x="44.459999"
       y="306.89996" /><rect
       style="opacity:0.97000002;fill:#ffff00;fill-opacity:1;stroke:none;stroke-width:3.84899998;stroke-miterlimit:4;stroke-dasharray:none;stroke-opacity:1"
       id="rect4327-5-36-0-6-2-6-7-2"
       width="4.9499998"
       height="4.9499998"
       x="44.91"
       y="285.29996" /><rect
       style="opacity:0.97000002;fill:#ff0000;fill-opacity:1;stroke:none;stroke-width:3.84899998;stroke-miterlimit:4;stroke-dasharray:none;stroke-opacity:1"
       id="rect4327-5-36-0-6-2-6-7-3"
       width="5.8499999"
       height="5.8499999"
       x="44.459999"
       y="267.74997" /><rect
       style="opacity:0.97000002;fill:#ff0000;fill-opacity:1;stroke:none;stroke-width:3.84899998;stroke-miterlimit:4;stroke-dasharray:none;stroke-opacity:1"
       id="rect4327-5-36-0-6-2-6-7-0-6"
       width="5.8499999"
       height="5.8499999"
       x="138.23999"
       y="267.74997" /><rect
       style="opacity:0.97000002;fill:#008000;fill-opacity:1;stroke:none;stroke-width:3.84899998;stroke-miterlimit:4;stroke-dasharray:none;stroke-opacity:1"
       id="rect4327-5-36-0-6-2-6-75-2"
       width="33.209999"
       height="22.5"
       x="11.25"
       y="267.74997" /><rect
       style="opacity:0.97000002;fill:#008000;fill-opacity:1;stroke:none;stroke-width:3.84899998;stroke-miterlimit:4;stroke-dasharray:none;stroke-opacity:1"
       id="rect4327-5-36-0-6-2-6-3"
       width="33.209999"
       height="22.5"
       x="11.25"
       y="-47.250008" /><rect
       style="opacity:0.97000002;fill:#ff0000;fill-opacity:1;stroke:none;stroke-width:3.84899998;stroke-miterlimit:4;stroke-dasharray:none;stroke-opacity:1"
       id="rect4327-5-36-0-6-2-6-7-1"
       width="5.8499999"
       height="5.8499999"
       x="44.459999"
       y="-30.600014" /><rect
       style="opacity:0.97000002;fill:#ffff00;fill-opacity:1;stroke:none;stroke-width:3.84899998;stroke-miterlimit:4;stroke-dasharray:none;stroke-opacity:1"
       id="rect4327-5-36-0-6-2-6-7-2-9"
       width="4.9499998"
       height="4.9499998"
       x="44.91"
       y="-52.200008" /><rect
       style="opacity:0.97000002;fill:#ff0000;fill-opacity:1;stroke:none;stroke-width:3.84899998;stroke-miterlimit:4;stroke-dasharray:none;stroke-opacity:1"
       id="rect4327-5-36-0-6-2-6-7-0-4"
       width="5.8499999"
       height="5.8499999"
       x="138.1275"
       y="-30.600014" /><rect
       style="opacity:0.97000002;fill:#ff0000;fill-opacity:1;stroke:none;stroke-width:3.84899998;stroke-miterlimit:4;stroke-dasharray:none;stroke-opacity:1"
       id="rect4327-5-36-0-6-2-6-7-3-8"
       width="5.8499999"
       height="5.8499999"
       x="44.459999"
       y="-69.750008" /><rect
       style="opacity:0.97000002;fill:#00ffff;fill-opacity:1;stroke:none;stroke-width:3.84899998;stroke-miterlimit:4;stroke-dasharray:none;stroke-opacity:1"
       id="rect4327-5-3-6"
       width="33.209999"
       height="33.209999"
       x="110.88"
       y="-69.750008" /><rect
       style="opacity:0.97000002;fill:#008000;fill-opacity:1;stroke:none;stroke-width:3.84899998;stroke-miterlimit:4;stroke-dasharray:none;stroke-opacity:1"
       id="rect4327-5-36-0-6-2-6-75-2-0"
       width="33.209999"
       height="22.5"
       x="11.25"
       y="-69.750008" /><rect
       style="opacity:0.97000002;fill:#ffff00;fill-opacity:1;stroke:none;stroke-width:3.84899998;stroke-miterlimit:4;stroke-dasharray:none;stroke-opacity:1"
       id="rect4327-5-36-0-6-2-6-7-2-2-7"
       width="4.9499998"
       height="4.9499998"
       x="138.5775"
       y="-52.200008" /><rect
       style="opacity:0.97000002;fill:#ff0000;fill-opacity:1;stroke:none;stroke-width:3.84899998;stroke-miterlimit:4;stroke-dasharray:none;stroke-opacity:1"
       id="rect4327-5-36-0-6-2-6-7-0-6-4"
       width="5.8499999"
       height="5.8499999"
       x="138.1275"
       y="-69.750008" /><rect
       style="opacity:0.97000002;fill:#ff0000;fill-opacity:1;stroke:none;stroke-width:3.84899998;stroke-miterlimit:4;stroke-dasharray:none;stroke-opacity:1"
       id="rect4327-5-36-0-6-2-6-7-0"
       width="5.8499999"
       height="5.8499999"
       x="138.1275"
       y="306.89996" /><rect
       style="opacity:0.97000002;fill:#ffff00;fill-opacity:1;stroke:none;stroke-width:3.84899998;stroke-miterlimit:4;stroke-dasharray:none;stroke-opacity:1"
       id="rect4327-5-36-0-6-2-6-7-2-2"
       width="4.9499998"
       height="4.9499998"
       x="138.5775"
       y="285.29996" /><rect
       style="opacity:0.97000002;fill:#008000;fill-opacity:1;stroke:none;stroke-width:3.84899998;stroke-miterlimit:4;stroke-dasharray:none;stroke-opacity:1"
       id="rect4327-5-36-0-6-2"
       width="33.209999"
       height="22.5"
       x="143.97751"
       y="290.25" /><rect
       style="opacity:0.97000002;fill:#008000;fill-opacity:1;stroke:none;stroke-width:3.84899998;stroke-miterlimit:4;stroke-dasharray:none;stroke-opacity:1"
       id="rect4327-5-36-0-6-2-3-1"
       width="33.209999"
       height="22.5"
       x="143.97751"
       y="267.75" /><rect
       style="opacity:0.97000002;fill:#008000;fill-opacity:1;stroke:none;stroke-width:3.84899998;stroke-miterlimit:4;stroke-dasharray:none;stroke-opacity:1"
       id="rect4327-5-36-0-6-2-3-1-5"
       width="33.209999"
       height="22.5"
       x="143.97749"
       y="-69.750008" /><rect
       style="opacity:0.97000002;fill:#008000;fill-opacity:1;stroke:none;stroke-width:3.84899998;stroke-miterlimit:4;stroke-dasharray:none;stroke-opacity:1"
       id="rect4327-5-36-0-6-2-9"
       width="33.209999"
       height="22.5"
       x="143.97751"
       y="-47.250008" /><rect
       style="opacity:0.97000002;fill:#ff6600;fill-opacity:1;stroke:none;stroke-width:3.84899998;stroke-miterlimit:4;stroke-dasharray:none;stroke-opacity:1"
       id="rect4327-5-36-0-6-2-6-7-2-3"
       width="4.9499998"
       height="4.9499998"
       x="44.91"
       y="290.24997" /><rect
       style="opacity:0.97000002;fill:#ff6600;fill-opacity:1;stroke:none;stroke-width:3.84899998;stroke-miterlimit:4;stroke-dasharray:none;stroke-opacity:1"
       id="rect4327-5-36-0-6-2-6-7-2-3-6"
       width="4.9499998"
       height="4.9499998"
       x="138.5775"
       y="290.24997" /><rect
       style="opacity:0.97000002;fill:#ff6600;fill-opacity:1;stroke:none;stroke-width:3.84899998;stroke-miterlimit:4;stroke-dasharray:none;stroke-opacity:1"
       id="rect4327-5-36-0-6-2-6-7-2-3-1"
       width="4.9499998"
       height="4.9499998"
       x="138.5775"
       y="-47.250008" /><rect
       style="opacity:0.97000002;fill:#ff6600;fill-opacity:1;stroke:none;stroke-width:3.84899998;stroke-miterlimit:4;stroke-dasharray:none;stroke-opacity:1"
       id="rect4327-5-36-0-6-2-6-7-2-3-0"
       width="4.9499998"
       height="4.9499998"
       x="44.91"
       y="-47.250008" /><path
       style="fill:none;fill-rule:evenodd;stroke:#000000;stroke-width:1px;stroke-linecap:butt;stroke-linejoin:miter;stroke-opacity:1"
       d="M -55.832345 160.65039 L -55.872499 56.250017 L -55.422499 33.750022 L -50.472499 33.750022 L -50.022489 56.250022 L -16.812499 56.250022 L -16.812499 11.250021 L -83.119999 11.250022 L -83.119999 44.460021 L -116.33 44.460021 L -116.33 11.250022 L -182.75 11.250021 L -182.75 56.250022 L -149.54 56.250022 L -149.09 33.750022 L -144.14 33.750022 L -143.69 56.250017 L -143.69 160.6504 "
       id="path5046"
       transform="translate(0,-81.000009)" /><path
       style="fill:none;fill-rule:evenodd;stroke:#000000;stroke-width:1px;stroke-linecap:butt;stroke-linejoin:miter;stroke-opacity:1"
       d="M -55.791851 265.94922 L -55.832 161.55078 "
       id="path5041"
       transform="translate(0,-81.000009)" /><path
       style="fill:none;fill-rule:evenodd;stroke:#000000;stroke-width:1px;stroke-linecap:butt;stroke-linejoin:miter;stroke-opacity:1"
       d="M -143.69 266.84962 L -143.69 348.75 L -182.75 348.75 L -182.75 393.75002 L -182.75 393.75002 L -149.54 393.75 L -149.09 371.25 L -144.14 371.25 L -143.69 393.75 L -55.872499 393.75 L -55.422499 371.25 L -50.472499 371.25 L -50.022489 393.75003 L -16.812499 393.75002 L -16.812499 348.75003 L -55.760009 348.75 L -55.791506 266.84961 "
       id="path5036"
       transform="translate(0,-81.000009)" /><path
       style="fill:none;fill-rule:evenodd;stroke:#000000;stroke-width:1px;stroke-linecap:butt;stroke-linejoin:miter;stroke-opacity:1"
       d="M -143.69 161.55079 L -143.69 265.94922 "
       id="path5031"
       transform="translate(0,-81.000009)" /><path
       style="fill:none;fill-rule:evenodd;stroke:#000000;stroke-width:1px;stroke-linecap:butt;stroke-linejoin:miter;stroke-opacity:1"
       d="M -366.88298 265.9492 L -366.883 161.55078 "
       id="path5012"
       transform="translate(0,-81.000009)" /><path
       style="fill:none;fill-rule:evenodd;stroke:#000000;stroke-width:1px;stroke-linecap:butt;stroke-linejoin:miter;stroke-opacity:1"
       d="M -278.98451 266.8496 L -278.95301 348.74998 L -278.6155 371.24998 L -273.6655 371.24998 L -273.21549 348.75001 L -240.0055 348.75001 L -240.0055 393.75 L -405.943 393.75 L -405.943 393.75 L -405.943 348.74998 L -372.733 348.74998 L -372.733 371.24998 L -367.333 371.24998 L -366.883 348.74998 L -366.88299 266.84959 "
       id="path5028"
       transform="translate(0,-81.000009)" /><path
       style="fill:none;fill-rule:evenodd;stroke:#000000;stroke-width:1px;stroke-linecap:butt;stroke-linejoin:miter;stroke-opacity:1"
       d="M -279.025 161.55077 L -278.98485 265.9492 "
       id="path5023"
       transform="translate(0,-81.000009)" /><path
       style="fill:none;fill-rule:evenodd;stroke:#000000;stroke-width:1px;stroke-linecap:butt;stroke-linejoin:miter;stroke-opacity:1"
       d="M -366.88301 160.65038 L -366.883 56.249997 L -405.943 56.250002 L -405.943 11.250001 L -372.733 11.250002 L -372.733 33.750002 L -367.333 33.750002 L -366.883 11.250002 L -279.0655 11.250002 L -278.6155 33.750002 L -273.6655 33.750002 L -273.21551 11.250002 L -240.0055 11.250001 L -240.0055 56.250002 L -279.0655 56.249997 L -279.02535 160.65038 "
       id="path5007"
       transform="translate(0,-81.000009)" /></g></svg>