<?xml version="1.0" encoding="UTF-8" standalone="no"?>
<!-- Generator: Adobe Illustrator 16.0.4, SVG Export Plug-In . SVG Version: 6.00 Build 0)  -->

<svg
   xmlns:dc="http://purl.org/dc/elements/1.1/"
   xmlns:cc="http://creativecommons.org/ns#"
   xmlns:rdf="http://www.w3.org/1999/02/22-rdf-syntax-ns#"
   xmlns:svg="http://www.w3.org/2000/svg"
   xmlns="http://www.w3.org/2000/svg"
   xmlns:sodipodi="http://sodipodi.sourceforge.net/DTD/sodipodi-0.dtd"
   xmlns:inkscape="http://www.inkscape.org/namespaces/inkscape"
   version="1.1"
   id="Layer_1"
   sodipodi:docname="trustedLoyalist.svg"
   inkscape:version="0.91 r13725"
   x="0px"
   y="0px"
   width="8in"
   height="4.5in"
   viewBox="0 0 719.99999 405.00001"
   enable-background="new 0 0 576 324"
   xml:space="preserve"
   inkscape:export-filename="/home/david/Sync/sovereignty/custom/trustedLoyalist.png"
   inkscape:export-xdpi="300"
   inkscape:export-ydpi="300"><metadata
     id="metadata222"><rdf:RDF><cc:Work
         rdf:about=""><dc:format>image/svg+xml</dc:format><dc:type
           rdf:resource="http://purl.org/dc/dcmitype/StillImage" /><dc:title /></cc:Work></rdf:RDF></metadata><defs
     id="defs220" /><sodipodi:namedview
     inkscape:current-layer="layer1"
     inkscape:window-maximized="0"
     inkscape:window-y="24"
     inkscape:window-x="1985"
     inkscape:document-units="in"
     inkscape:window-height="1028"
     inkscape:window-width="928"
     inkscape:pageshadow="2"
     inkscape:pageopacity="0"
     units="in"
     inkscape:cy="202.5"
     inkscape:cx="360"
     inkscape:zoom="0.53611111"
     showgrid="false"
     guidetolerance="10"
     gridtolerance="10"
     objecttolerance="10"
     borderopacity="1"
     pagecolor="#ffffff"
     bordercolor="#666666"
     id="namedview389"
     inkscape:snap-bbox="true"
     inkscape:bbox-nodes="true"
     showguides="false"
     inkscape:guide-bbox="true"
     inkscape:snap-bbox-edge-midpoints="true"
     inkscape:bbox-paths="true"
     inkscape:object-nodes="true"
     inkscape:object-paths="true"
     inkscape:snap-page="true"><sodipodi:guide
       position="11.25,393.75001"
       orientation="1,0"
       id="guide4319" /><sodipodi:guide
       position="11.25,393.75001"
       orientation="0,1"
       id="guide4321" /><sodipodi:guide
       position="708.74999,393.75001"
       orientation="1,0"
       id="guide4323" /><sodipodi:guide
       position="11.25,11.25"
       orientation="0,1"
       id="guide4325" /><sodipodi:guide
       position="177.1875,393.75001"
       orientation="1,0"
       id="guide4842" /><sodipodi:guide
       position="188.4375,393.75001"
       orientation="1,0"
       id="guide5048" /><sodipodi:guide
       position="354.375,393.75001"
       orientation="1,0"
       id="guide5050" /><sodipodi:guide
       position="365.62499,393.75001"
       orientation="1,0"
       id="guide5052" /><sodipodi:guide
       position="531.56249,393.75001"
       orientation="1,0"
       id="guide5054" /><sodipodi:guide
       position="542.81249,393.75001"
       orientation="1,0"
       id="guide5056" /><sodipodi:guide
       position="55.399039,265.51107"
       orientation="0,1"
       id="guide5702" /><sodipodi:guide
       position="53.675918,175.76376"
       orientation="0,1"
       id="guide5711" /></sodipodi:namedview><g
     id="layer1"
     inkscape:groupmode="layer"
     inkscape:label="Delete"
     transform="translate(0,81.000009)"><rect
       style="fill:#000080;fill-opacity:1;stroke:none;stroke-width:3.84899998;stroke-miterlimit:4;stroke-dasharray:none;stroke-opacity:1"
       id="rect5994"
       width="720"
       height="405"
       x="0"
       y="-81.000008" /><g
       id="g5713"><text
         sodipodi:linespacing="125%"
         id="text5986"
         y="73.924721"
         x="94.960808"
         style="font-style:normal;font-variant:normal;font-weight:normal;font-stretch:normal;font-size:22.50000191px;line-height:125%;font-family:'Kingthings Calligraphica 2';-inkscape-font-specification:'Kingthings Calligraphica 2, ';text-align:center;letter-spacing:0px;word-spacing:0px;text-anchor:middle;fill:#ffffff;fill-opacity:1;stroke:none;stroke-width:1px;stroke-linecap:butt;stroke-linejoin:miter;stroke-opacity:1"
         xml:space="preserve"><tspan
           style="font-size:22.5px;text-align:center;text-anchor:middle;fill:#ffffff"
           y="73.924721"
           x="94.960808"
           id="tspan5988"
           sodipodi:role="line">Trusted</tspan><tspan
           id="tspan5652"
           style="font-size:22.5px;text-align:center;text-anchor:middle;fill:#ffffff"
           y="102.04972"
           x="94.960808"
           sodipodi:role="line">Loyalist</tspan><tspan
           id="tspan4158"
           style="font-size:22.5px;text-align:center;text-anchor:middle;fill:#ffffff"
           y="130.17471"
           x="94.960808"
           sodipodi:role="line" /></text>
<text
         sodipodi:linespacing="125%"
         id="text5986-3"
         y="184.02568"
         x="95.206558"
         style="font-style:normal;font-variant:normal;font-weight:normal;font-stretch:normal;font-size:77.41040039px;line-height:125%;font-family:'Kingthings Calligraphica 2';-inkscape-font-specification:'Kingthings Calligraphica 2, ';text-align:center;letter-spacing:0px;word-spacing:0px;text-anchor:middle;fill:#ffffff;fill-opacity:1;stroke:none;stroke-width:1px;stroke-linecap:butt;stroke-linejoin:miter;stroke-opacity:1"
         xml:space="preserve"><tspan
           id="tspan4158-5"
           style="font-size:78.67234802px;text-align:center;text-anchor:middle;fill:#ffffff"
           y="184.02568"
           x="95.206558"
           sodipodi:role="line">+5</tspan></text>
</g><g
       transform="translate(176.12684,-2.1927065e-6)"
       id="g5713-4"><text
         sodipodi:linespacing="125%"
         id="text5986-9"
         y="73.924721"
         x="94.960808"
         style="font-style:normal;font-variant:normal;font-weight:normal;font-stretch:normal;font-size:22.50000191px;line-height:125%;font-family:'Kingthings Calligraphica 2';-inkscape-font-specification:'Kingthings Calligraphica 2, ';text-align:center;letter-spacing:0px;word-spacing:0px;text-anchor:middle;fill:#ffffff;fill-opacity:1;stroke:none;stroke-width:1px;stroke-linecap:butt;stroke-linejoin:miter;stroke-opacity:1"
         xml:space="preserve"><tspan
           style="font-size:22.5px;text-align:center;text-anchor:middle;fill:#ffffff"
           y="73.924721"
           x="94.960808"
           id="tspan5988-2"
           sodipodi:role="line">Trusted</tspan><tspan
           id="tspan5652-6"
           style="font-size:22.5px;text-align:center;text-anchor:middle;fill:#ffffff"
           y="102.04972"
           x="94.960808"
           sodipodi:role="line">Loyalist</tspan><tspan
           id="tspan4158-8"
           style="font-size:22.5px;text-align:center;text-anchor:middle;fill:#ffffff"
           y="130.17471"
           x="94.960808"
           sodipodi:role="line" /></text>
<text
         sodipodi:linespacing="125%"
         id="text5986-3-9"
         y="184.02568"
         x="95.206558"
         style="font-style:normal;font-variant:normal;font-weight:normal;font-stretch:normal;font-size:77.41040039px;line-height:125%;font-family:'Kingthings Calligraphica 2';-inkscape-font-specification:'Kingthings Calligraphica 2, ';text-align:center;letter-spacing:0px;word-spacing:0px;text-anchor:middle;fill:#ffffff;fill-opacity:1;stroke:none;stroke-width:1px;stroke-linecap:butt;stroke-linejoin:miter;stroke-opacity:1"
         xml:space="preserve"><tspan
           id="tspan4158-5-2"
           style="font-size:78.67234802px;text-align:center;text-anchor:middle;fill:#ffffff"
           y="184.02568"
           x="95.206558"
           sodipodi:role="line">+5</tspan></text>
</g><g
       transform="translate(353.31434,-2.1927065e-6)"
       id="g5713-4-6"><text
         sodipodi:linespacing="125%"
         id="text5986-9-6"
         y="73.924721"
         x="94.960808"
         style="font-style:normal;font-variant:normal;font-weight:normal;font-stretch:normal;font-size:22.50000191px;line-height:125%;font-family:'Kingthings Calligraphica 2';-inkscape-font-specification:'Kingthings Calligraphica 2, ';text-align:center;letter-spacing:0px;word-spacing:0px;text-anchor:middle;fill:#ffffff;fill-opacity:1;stroke:none;stroke-width:1px;stroke-linecap:butt;stroke-linejoin:miter;stroke-opacity:1"
         xml:space="preserve"><tspan
           style="font-size:22.5px;text-align:center;text-anchor:middle;fill:#ffffff"
           y="73.924721"
           x="94.960808"
           id="tspan5988-2-4"
           sodipodi:role="line">Trusted</tspan><tspan
           id="tspan5652-6-5"
           style="font-size:22.5px;text-align:center;text-anchor:middle;fill:#ffffff"
           y="102.04972"
           x="94.960808"
           sodipodi:role="line">Loyalist</tspan><tspan
           id="tspan4158-8-0"
           style="font-size:22.5px;text-align:center;text-anchor:middle;fill:#ffffff"
           y="130.17471"
           x="94.960808"
           sodipodi:role="line" /></text>
<text
         sodipodi:linespacing="125%"
         id="text5986-3-9-4"
         y="184.02568"
         x="95.206558"
         style="font-style:normal;font-variant:normal;font-weight:normal;font-stretch:normal;font-size:77.41040039px;line-height:125%;font-family:'Kingthings Calligraphica 2';-inkscape-font-specification:'Kingthings Calligraphica 2, ';text-align:center;letter-spacing:0px;word-spacing:0px;text-anchor:middle;fill:#ffffff;fill-opacity:1;stroke:none;stroke-width:1px;stroke-linecap:butt;stroke-linejoin:miter;stroke-opacity:1"
         xml:space="preserve"><tspan
           id="tspan4158-5-2-8"
           style="font-size:78.67234802px;text-align:center;text-anchor:middle;fill:#ffffff"
           y="184.02568"
           x="95.206558"
           sodipodi:role="line">+5</tspan></text>
</g><g
       transform="translate(530.50184,-2.1927065e-6)"
       id="g5713-4-6-7"><text
         sodipodi:linespacing="125%"
         id="text5986-9-6-1"
         y="73.924721"
         x="94.960808"
         style="font-style:normal;font-variant:normal;font-weight:normal;font-stretch:normal;font-size:22.50000191px;line-height:125%;font-family:'Kingthings Calligraphica 2';-inkscape-font-specification:'Kingthings Calligraphica 2, ';text-align:center;letter-spacing:0px;word-spacing:0px;text-anchor:middle;fill:#ffffff;fill-opacity:1;stroke:none;stroke-width:1px;stroke-linecap:butt;stroke-linejoin:miter;stroke-opacity:1"
         xml:space="preserve"><tspan
           style="font-size:22.5px;text-align:center;text-anchor:middle;fill:#ffffff"
           y="73.924721"
           x="94.960808"
           id="tspan5988-2-4-7"
           sodipodi:role="line">Trusted</tspan><tspan
           id="tspan5652-6-5-7"
           style="font-size:22.5px;text-align:center;text-anchor:middle;fill:#ffffff"
           y="102.04972"
           x="94.960808"
           sodipodi:role="line">Loyalist</tspan><tspan
           id="tspan4158-8-0-2"
           style="font-size:22.5px;text-align:center;text-anchor:middle;fill:#ffffff"
           y="130.17471"
           x="94.960808"
           sodipodi:role="line" /></text>
<text
         sodipodi:linespacing="125%"
         id="text5986-3-9-4-2"
         y="184.02568"
         x="95.206558"
         style="font-style:normal;font-variant:normal;font-weight:normal;font-stretch:normal;font-size:77.41040039px;line-height:125%;font-family:'Kingthings Calligraphica 2';-inkscape-font-specification:'Kingthings Calligraphica 2, ';text-align:center;letter-spacing:0px;word-spacing:0px;text-anchor:middle;fill:#ffffff;fill-opacity:1;stroke:none;stroke-width:1px;stroke-linecap:butt;stroke-linejoin:miter;stroke-opacity:1"
         xml:space="preserve"><tspan
           id="tspan4158-5-2-8-6"
           style="font-size:78.67234802px;text-align:center;text-anchor:middle;fill:#ffffff"
           y="184.02568"
           x="95.206558"
           sodipodi:role="line">+5</tspan></text>
</g></g></svg>