<?xml version="1.0" encoding="UTF-8" standalone="no"?>
<!-- Generated by Microsoft Visio 11.0, SVG Export, v1.0 Fox_Guardant_Passant.svg Page-1 -->

<svg
   xmlns:v="http://schemas.microsoft.com/visio/2003/SVGExtensions/"
   xmlns:dc="http://purl.org/dc/elements/1.1/"
   xmlns:cc="http://creativecommons.org/ns#"
   xmlns:rdf="http://www.w3.org/1999/02/22-rdf-syntax-ns#"
   xmlns:svg="http://www.w3.org/2000/svg"
   xmlns="http://www.w3.org/2000/svg"
   xmlns:sodipodi="http://sodipodi.sourceforge.net/DTD/sodipodi-0.dtd"
   xmlns:inkscape="http://www.inkscape.org/namespaces/inkscape"
   width="4.7216005in"
   height="3.5466609in"
   viewBox="0 0 339.95543 255.35986"
   xml:space="preserve"
   class="st13"
   id="svg2"
   version="1.1"
   inkscape:version="0.91 r13725"
   sodipodi:docname="fox.svg"
   style="font-size:12px;overflow:visible;color-interpolation-filters:sRGB;fill:none;fill-rule:evenodd;stroke-linecap:square;stroke-miterlimit:3"><metadata
     id="metadata362"><rdf:RDF><cc:Work
         rdf:about=""><dc:format>image/svg+xml</dc:format><dc:type
           rdf:resource="http://purl.org/dc/dcmitype/StillImage" /><dc:title>Fox Guardant Passant</dc:title></cc:Work></rdf:RDF></metadata><defs
     id="defs360" /><sodipodi:namedview
     pagecolor="#ffffff"
     bordercolor="#666666"
     borderopacity="1"
     objecttolerance="10"
     gridtolerance="10"
     guidetolerance="10"
     inkscape:pageopacity="0"
     inkscape:pageshadow="2"
     inkscape:window-width="1248"
     inkscape:window-height="1388"
     id="namedview358"
     showgrid="false"
     fit-margin-top="0"
     fit-margin-left="0"
     fit-margin-right="0"
     fit-margin-bottom="0"
     inkscape:zoom="2.4638537"
     inkscape:cx="212.47203"
     inkscape:cy="159.59974"
     inkscape:window-x="3232"
     inkscape:window-y="24"
     inkscape:window-maximized="0"
     inkscape:current-layer="group71-1" /><title
     id="title4">Fox Guardant Passant</title><v:documentProperties
     v:langID="1033"
     v:viewMarkup="false" /><style
     type="text/css"
     id="style6"><![CDATA[
		.st1 {fill:#ff0000;stroke:#000000;stroke-linecap:round;stroke-linejoin:round;stroke-width:3}
		.st2 {fill:#ffffff;stroke:#000000;stroke-linecap:round;stroke-linejoin:round;stroke-width:3}
		.st3 {fill:#ffffff;stroke:#000000;stroke-linecap:round;stroke-linejoin:round;stroke-width:1}
		.st4 {fill:#000000;stroke:#000000;stroke-linecap:round;stroke-linejoin:round;stroke-width:0.25}
		.st5 {fill:#ff0000;stroke:#000000;stroke-linecap:round;stroke-linejoin:round;stroke-width:1.5}
		.st6 {fill:#ff0000;stroke:#000000;stroke-linecap:round;stroke-linejoin:round;stroke-width:1}
		.st7 {fill:#ff0000;stroke:#000000;stroke-linecap:round;stroke-linejoin:round;stroke-width:2.25}
		.st8 {fill:#ffffff;stroke:#000000;stroke-linecap:round;stroke-linejoin:round;stroke-width:4.5}
		.st9 {fill:#ff0000}
		.st10 {stroke:#000000;stroke-linecap:round;stroke-linejoin:round;stroke-width:1}
		.st11 {fill:#000000;stroke:#000000;stroke-linecap:round;stroke-linejoin:round;stroke-width:1}
		.st12 {fill:#ffff00;stroke:#000000;stroke-linecap:round;stroke-linejoin:round;stroke-width:1}
		.st13 {fill:none;fill-rule:evenodd;font-size:12px;overflow:visible;stroke-linecap:square;stroke-miterlimit:3}
	]]></style><g
     v:mID="0"
     v:index="1"
     v:groupContext="foregroundPage"
     id="g8"
     transform="translate(-0.50274417,-14.380191)"><title
       id="title10">Page-1</title><v:pageProperties
       v:drawingScale="1"
       v:pageScale="1"
       v:drawingUnits="19"
       v:shadowOffsetX="9"
       v:shadowOffsetY="-9" /><g
       id="group71-1"
       transform="translate(0.997862,-1.33562)"
       v:mID="71"
       v:groupContext="group"><title
         id="title13">Fox Guardant Passant.196</title><g
         transform="translate(163.2357,-152.1)"
         v:groupContext="shape"
         v:mID="73"
         id="shape73-3"
         style="fill:#000000"><title
           id="title19">Sheet.73</title><path
           style="fill:#000000;stroke:#000000;stroke-width:3;stroke-linecap:round;stroke-linejoin:round"
           inkscape:connector-curvature="0"
           id="path21"
           class="st1"
           d="m 136.13,255.7 a 19.1806,19.1806 -4.61 0 0 -6.19,-34.32 46.4932,46.4932 -2.93 0 0 -38.25,8.44 65.9974,65.9974 0 0 1 -84.38,-12.37 20.7442,20.7442 0 1 1 27,-31.5 44.516,44.516 -180 0 0 54.57,22.5 53.6676,53.6676 0 0 1 48.93,-2.25 33.6674,33.6674 179.7 0 1 17.44,48.93 l -11.81,15.19 a 8.36987,8.36987 0 0 1 -7.31,-14.62 z" /></g><g
         v:groupContext="group"
         v:mID="74"
         transform="translate(150.3,-203.0709)"
         id="group74-5"><title
           id="title24">Sheet.74</title><g
           transform="matrix(-0.71202605,0.70215305,-0.70215305,-0.71202605,206.201,397.064)"
           v:groupContext="shape"
           v:mID="75"
           id="shape75-6"><title
             id="title27">Sheet.75</title><path
             style="fill:#ffffff;stroke:#000000;stroke-width:3;stroke-linecap:round;stroke-linejoin:round"
             inkscape:connector-curvature="0"
             id="path29"
             class="st2"
             d="m 36.36,225.56 a 10.8775,9.43817 161.03 0 1 -0.35,1.36 12.8114,11.1162 161.03 0 1 0.35,-1.36 10.8775,9.43817 -18.97 0 0 -5.24,-9.33 6.71206,5.82392 161.03 0 1 -0.98,5.82 15.5442,13.4874 -18.97 0 0 -2.1,6.5 8.22401,7.16436 -10.37 0 0 -0.12,-0.04 13.5605,11.7662 -18.97 0 0 -8.43,-8.65 6.88826,5.97681 161.03 0 1 1.67,4.46 13.7879,11.9635 -18.97 0 0 -0.9,5 8.22401,7.16436 -10.37 0 0 -1.4,1.03 13.7253,11.9568 -10.37 0 0 -4.37,-9.72 6.85699,5.97347 169.63 0 1 -0.8,-4.7 13.499,11.7596 -10.37 0 0 -2.66,12.38 15.4736,13.4798 -10.37 0 0 -5.41,-5.18 6.68158,5.82067 169.63 0 1 -3.46,-3.3 23.8784,23.8784 -180 0 0 -1.85,6.11 10.8281,9.4329 -10.37 0 0 1.7,3.32 12.7533,11.11 169.63 0 1 0.98,1.01 10.8281,9.4329 169.63 0 1 -0.98,-1.01 12.7533,11.11 -10.37 0 0 -1.93,-1.42 23.8784,23.8784 -180 0 0 4.03,15.31 23.8784,23.8784 -180 0 0 9.21,8.03 8.84652,8.84652 0 0 1 5.22,7.06 15.4185,15.4185 -37.77 0 0 4.08,12.34 6.51906,6.51906 140.76 0 1 3.32,-6.43 32.0616,32.0616 -39.24 0 0 18.57,-35.28 32.0616,32.0616 -39.24 0 0 -0.16,-0.81 234.061,234.061 149.72 0 1 -2.62,-9.27 12.8114,11.1162 -18.97 0 0 -5.37,6.77 z" /></g><g
           transform="matrix(-0.71202605,0.70215305,-0.70215305,-0.71202605,206.201,397.064)"
           v:groupContext="shape"
           v:mID="76"
           id="shape76-8"><title
             id="title32">Sheet.76</title><path
             style="fill:#ffffff;stroke:#000000;stroke-width:1;stroke-linecap:round;stroke-linejoin:round"
             inkscape:connector-curvature="0"
             id="path34"
             class="st3"
             d="m 36.36,225.56 a 10.8775,9.43817 161.03 0 1 -0.35,1.36 12.8114,11.1162 161.03 0 1 0.35,-1.36 10.8775,9.43817 -18.97 0 0 -5.24,-9.33 6.71206,5.82392 161.03 0 1 -0.98,5.82 15.5442,13.4874 -18.97 0 0 -2.1,6.5 8.22401,7.16436 -10.37 0 0 -0.12,-0.04 13.5605,11.7662 -18.97 0 0 -8.43,-8.65 6.88826,5.97681 161.03 0 1 1.67,4.46 13.7879,11.9635 -18.97 0 0 -0.9,5 8.22401,7.16436 -10.37 0 0 -1.4,1.03 13.7253,11.9568 -10.37 0 0 -4.37,-9.72 6.85699,5.97347 169.63 0 1 -0.8,-4.7 13.499,11.7596 -10.37 0 0 -2.66,12.38 15.4736,13.4798 -10.37 0 0 -5.41,-5.18 6.68158,5.82067 169.63 0 1 -3.46,-3.3 23.8784,23.8784 -180 0 0 -1.85,6.11 10.8281,9.4329 -10.37 0 0 1.7,3.32 12.7533,11.11 169.63 0 1 0.98,1.01 10.8281,9.4329 169.63 0 1 -0.98,-1.01 12.7533,11.11 -10.37 0 0 -1.93,-1.42 23.8784,23.8784 -180 0 0 4.03,15.31 23.8784,23.8784 -180 0 0 9.21,8.03 8.84652,8.84652 0 0 1 5.22,7.06 15.4185,15.4185 -37.77 0 0 4.08,12.34 6.51906,6.51906 140.76 0 1 3.32,-6.43 32.0616,32.0616 -39.24 0 0 18.57,-35.28 32.0616,32.0616 -39.24 0 0 -0.16,-0.81 234.061,234.061 149.72 0 1 -2.62,-9.27 12.8114,11.1162 -18.97 0 0 -5.37,6.77 z" /></g></g><g
         transform="translate(122.1388,-74.1118)"
         v:groupContext="shape"
         v:mID="78"
         id="shape78-11"
         style="fill:#000000"><title
           id="title40">Sheet.78</title><path
           style="fill:#000000;stroke:#000000;stroke-width:3;stroke-linecap:round;stroke-linejoin:round"
           inkscape:connector-curvature="0"
           id="path42"
           class="st1"
           d="M 39.47,267.18 A 157.603,157.603 -7.58 0 0 39.32,256.6 l 0.02,0 -2.75,-33 a 19.7222,19.7222 -100.74 0 0 -32.55,-7.4 45.177,36.5069 -2.42 0 0 1.37,32.41 l -0.31,0.17 a 16.7382,16.7382 156.04 0 1 1.44,2.81 71.2635,71.2635 -14.13 0 0 8.67,16.05 3.49761,3.49761 -165.22 0 0 -1.92,-3.85 6.64516,6.64516 14.83 0 1 6.19,6.76 6.71333,6.71333 -173.42 0 0 0.42,-7.54 4.79934,4.79934 28.51 0 1 5.62,-6.28 5.61356,5.61356 -168.51 0 0 -0.36,8.93 11.4163,11.4163 11.9 0 1 4.22,4.92 6.52507,6.52507 -156.46 0 0 1.51,-8.92 6.17756,6.17756 20.4 0 1 5.16,7.36 16.23,16.23 -169.91 0 0 3.42,-1.84 z" /></g><g
         transform="translate(96.9729,-8.55)"
         v:groupContext="shape"
         v:mID="79"
         id="shape79-13"
         style="fill:#000000"><title
           id="title45">Sheet.79</title><path
           style="fill:#000000;stroke:#000000;stroke-width:0.25;stroke-linecap:round;stroke-linejoin:round"
           inkscape:connector-curvature="0"
           id="path47"
           class="st4"
           d="m 63.15,224.43 a 7.67611,7.67611 18.51 0 1 9.55,3.79 22.0775,22.0775 -11.92 0 0 -9.37,-15.21 14.2696,14.2696 175.69 0 1 11.93,5.07 32.5844,32.5844 -20.87 0 0 -10.63,-15.94 157.603,157.603 -5.96 0 0 0.01,-0.52 16.23,16.23 6.35 0 1 -3.42,1.84 6.17756,6.17756 -163.04 0 0 -5.16,-7.36 6.52507,6.52507 6.72 0 1 -1.52,8.91 11.4163,11.4163 -173.28 0 0 -4.21,-4.91 5.61356,5.61356 6.81 0 1 0.35,-8.93 4.79934,4.79934 -152.91 0 0 -5.61,6.28 6.71333,6.71333 5.6 0 1 -0.42,7.53 6.64516,6.64516 -164.78 0 0 -6.2,-6.75 3.49761,3.49761 15.2 0 1 1.93,3.85 71.2635,71.2635 -13.07 0 0 1.05,1.42 9.52316,9.52316 173.87 0 1 0.02,6.02 54.0707,54.0707 -6.73 0 0 1.17,21.41 19.6308,19.5086 107.1 0 1 -12.13,13.45 18.8741,18.7567 107.1 0 1 -8.7,3.15 7.03169,6.98792 107.1 0 1 -0.65,-5.19 7.64536,7.59777 -72.9 0 0 -6.95,-5.8 4.86563,4.83534 -72.9 0 0 -4.8,6.79 8.45528,8.40264 -72.9 0 0 5.65,3.62 9.16601,9.10895 107.1 0 1 -7.79,-0.72 5.20167,5.16929 -72.9 0 0 -4.8,9.2 7.68606,7.63822 -72.9 0 0 9.01,0.47 102.734,102.094 107.1 0 1 14.81,-3.19 16.384,16.282 107.1 0 1 -10.54,4.5 4.19752,4.17139 -72.9 0 0 -3.14,7.51 6.89354,6.85062 -72.9 0 0 10.93,-0.72 16.0848,15.9846 107.1 0 1 8.66,-7.06 16.0848,15.9846 107.1 0 1 1.22,-0.36 31.2306,31.0362 107.1 0 1 -2.05,2.28 31.2306,31.0362 107.1 0 1 -4.09,3.47 4.69525,4.66602 -72.9 0 0 5.48,7.54 8.64369,8.58989 -72.9 0 0 3.54,-1.44 8.64369,8.58989 -72.9 0 0 3.37,-4.73 6.68594,6.68594 175.32 0 1 1.75,-5.49 7.06086,7.06086 -4.57 0 0 -1.68,5.25 8.64369,8.58989 -72.9 0 0 0.26,-1.93 3.61722,3.5947 107.1 0 1 4.05,-2 4.32715,4.30021 -72.9 0 0 3.1,-6.68 15.8529,15.7542 -72.9 0 0 7.43,-13 20.7864,20.657 107.1 0 1 6.91,-12.31 13.8627,13.7764 -72.9 0 0 2.41,-1.58 28.5365,28.5365 -26.93 0 0 -0.09,-0.2 28.5365,28.5365 -27.93 0 0 -0.64,-1.33 z" /></g><g
         v:groupContext="group"
         v:mID="80"
         transform="matrix(0.95579301,0.29404033,-0.29404033,0.95579301,166.7134,-0.0408187)"
         id="group80-15"><title
           id="title50">Sheet.80</title><g
           transform="matrix(0.17364818,-0.98480775,0.98480775,0.17364818,-252.056,196.118)"
           v:groupContext="shape"
           v:mID="81"
           id="shape81-16"><title
             id="title53">Sheet.81</title><path
             style="fill:#ffffff;stroke:#000000;stroke-width:1;stroke-linecap:round;stroke-linejoin:round"
             inkscape:connector-curvature="0"
             id="path55"
             class="st3"
             d="M 0,257.16 A 11.9909,11.9208 0 0 1 9.6,268.29 3.07169,3.05372 0 1 1 3.7,266.6 9.20824,9.15438 -180 0 0 0,257.16 Z" /></g><g
           transform="matrix(-0.50301995,-0.8642748,0.8642748,-0.50301995,-221.49,390.316)"
           v:groupContext="shape"
           v:mID="82"
           id="shape82-18"><title
             id="title58">Sheet.82</title><path
             style="fill:#ffffff;stroke:#000000;stroke-width:1;stroke-linecap:round;stroke-linejoin:round"
             inkscape:connector-curvature="0"
             id="path60"
             class="st3"
             d="M 0,257.12 A 11.9879,11.951 0 0 1 9.6,268.29 3.07092,3.06148 0 1 1 3.7,266.59 9.20594,9.17763 -180 0 0 0,257.12 Z" /></g><g
           transform="matrix(-0.70957074,-0.70463421,0.70463421,-0.70957074,-161.752,453.008)"
           v:groupContext="shape"
           v:mID="83"
           id="shape83-20"><title
             id="title63">Sheet.83</title><path
             style="fill:#ffffff;stroke:#000000;stroke-width:1;stroke-linecap:round;stroke-linejoin:round"
             inkscape:connector-curvature="0"
             id="path65"
             class="st3"
             d="M 0,257.1 A 11.9744,11.9749 0 0 1 9.59,268.28 3.06746,3.0676 0 1 1 3.7,266.59 9.19558,9.19598 -180 0 0 0,257.1 Z" /></g><g
           transform="matrix(-0.99978068,0.02094242,-0.02094242,-0.99978068,50.7442,526.202)"
           v:groupContext="shape"
           v:mID="84"
           id="shape84-22"><title
             id="title68">Sheet.84</title><path
             style="fill:#ffffff;stroke:#000000;stroke-width:1;stroke-linecap:round;stroke-linejoin:round"
             inkscape:connector-curvature="0"
             id="path70"
             class="st3"
             d="m 0,257.08 a 11.9161,11.9906 0 0 1 9.54,11.2 3.05252,3.07163 0 1 1 -5.86,-1.7 9.15079,9.20806 -180 0 0 -3.68,-9.5 z" /></g></g><g
         v:groupContext="group"
         v:mID="86"
         transform="translate(224.07447,-15.47936)"
         id="group86-25"
         style="fill:#000000"><title
           id="title76">Sheet.86</title><g
           transform="translate(22.37,-42.2725)"
           v:groupContext="shape"
           v:mID="87"
           id="shape87-26"
           style="fill:#000000"><title
             id="title79">Sheet.87</title><path
             style="fill:#000000;stroke:#000000;stroke-width:3;stroke-linecap:round;stroke-linejoin:round"
             inkscape:connector-curvature="0"
             id="path81"
             class="st1"
             d="m 20.41,263.9 a 6.17756,6.17756 149.71 0 1 2.15,-1.54 6.52507,6.52507 -35.28 0 0 3.77,8.22 11.4163,11.4163 145.53 0 1 2.8,-5.84 5.61356,5.61356 -30 0 0 -2.66,-8.54 4.79934,4.79934 135 0 1 7.05,4.62 6.71333,6.71333 -22.27 0 0 2.36,7.17 6.64516,6.64516 148.72 0 1 4.23,-8.13 3.49761,3.49761 -30 0 0 -0.43,4.87 28.5365,28.5365 151.07 0 1 1.83,3.5 13.8627,13.7764 -72.9 0 0 3.14,-3.62 22.7483,22.6067 -72.9 0 0 2.23,-7.26 4.00048,3.97558 -72.9 0 0 -3.53,-3.39 14.0983,14.0106 107.1 0 1 -7.56,-15.31 44.1047,42.2685 -24.74 0 0 7.87,-19.4 9.24446,8.52159 -162.9 0 0 0.99,0.16 l 0.49,-11.11 a 60.89,56.1287 17.1 0 1 -0.4,0.38 65.9701,62.9145 -23.41 0 0 -7.69,-18.09 94.5879,93.9991 107.1 0 1 -4.23,-6.47 77.6933,71.6181 -162.9 0 0 -27.12,18.08 31.8257,31.6276 -72.9 0 0 -5.45,22.17 8.04613,7.99604 107.1 0 1 7.9,-4.06 16.5242,16.4213 -72.9 0 0 -3.86,16.61 10.3377,10.2734 107.1 0 1 8.66,-5.5 17.0644,16.9582 -72.9 0 0 -3.73,16.85 10.9878,10.9194 107.1 0 1 7.99,-4.34 13.4011,13.3176 -72.9 0 0 1.2,14.7 19.6308,19.5086 107.1 0 1 2,5.27 z" /></g><g
           v:groupContext="shape"
           v:mID="88"
           id="shape88-28"
           style="fill:#000000"><title
             id="title84">Sheet.88</title><path
             style="fill:#000000;stroke:#000000;stroke-width:0.25;stroke-linecap:round;stroke-linejoin:round"
             inkscape:connector-curvature="0"
             id="path86"
             class="st4"
             d="m 42.78,221.62 a 19.6308,19.5086 107.1 0 1 -12.29,22.76 18.8741,18.7567 107.1 0 1 -8.7,3.15 l 0.03,0.04 a 18.2673,18.1536 107.1 0 1 -6.69,-0.59 18.8741,18.7567 -72.9 0 0 6.66,0.55 7.03169,6.98792 107.1 0 1 -0.65,-5.19 7.64536,7.59777 -72.9 0 0 -6.95,-5.8 4.86563,4.83534 -72.9 0 0 -4.8,6.79 8.45528,8.40264 -72.9 0 0 5.65,3.62 9.16601,9.10895 107.1 0 1 -7.79,-0.72 5.20167,5.16929 -72.9 0 0 -4.8,9.2 7.68606,7.63822 -72.9 0 0 9.01,0.47 102.734,102.094 107.1 0 1 14.81,-3.19 16.384,16.282 107.1 0 1 -10.54,4.5 4.19752,4.17139 -72.9 0 0 -3.14,7.51 6.89354,6.85062 -72.9 0 0 10.93,-0.72 16.0848,15.9846 107.1 0 1 9.88,-7.42 31.2306,31.0362 107.1 0 1 -6.14,5.75 4.69525,4.66602 -72.9 0 0 5.48,7.54 8.64369,8.58989 -72.9 0 0 7.24,-8.34 3.61722,3.5947 107.1 0 1 4.05,-2 4.32715,4.30021 -72.9 0 0 3.1,-6.68 15.8529,15.7542 -72.9 0 0 7.43,-13 20.7864,20.657 107.1 0 1 6.91,-12.31 13.8627,13.7764 -72.9 0 0 2.41,-1.58 28.5365,28.5365 -28.93 0 0 -1.83,-3.5 3.49761,3.49761 150 0 1 0.43,-4.87 6.64516,6.64516 -31.28 0 0 -4.23,8.12 6.71333,6.71333 157.73 0 1 -2.36,-7.16 4.79934,4.79934 -45 0 0 -7.05,-4.62 5.61356,5.61356 150 0 1 2.66,8.54 11.4163,11.4163 -34.47 0 0 -2.8,5.83 6.52507,6.52507 144.72 0 1 -3.77,-8.21 6.17756,6.17756 -30.29 0 0 -2.15,1.53 z" /></g></g><g
         v:groupContext="group"
         v:mID="89"
         transform="matrix(0.95579301,0.29404033,-0.29404033,0.95579301,293.5565,-5.6767987)"
         id="group89-30"><title
           id="title89">Sheet.89</title><g
           transform="matrix(0.17364818,-0.98480775,0.98480775,0.17364818,-252.056,196.118)"
           v:groupContext="shape"
           v:mID="90"
           id="shape90-31"><title
             id="title92">Sheet.90</title><path
             style="fill:#ffffff;stroke:#000000;stroke-width:1;stroke-linecap:round;stroke-linejoin:round"
             inkscape:connector-curvature="0"
             id="path94"
             class="st3"
             d="M 0,257.16 A 11.9909,11.9208 0 0 1 9.6,268.29 3.07169,3.05372 0 1 1 3.7,266.6 9.20824,9.15438 -180 0 0 0,257.16 Z" /></g><g
           transform="matrix(-0.50301995,-0.8642748,0.8642748,-0.50301995,-221.49,390.316)"
           v:groupContext="shape"
           v:mID="91"
           id="shape91-33"><title
             id="title97">Sheet.91</title><path
             style="fill:#ffffff;stroke:#000000;stroke-width:1;stroke-linecap:round;stroke-linejoin:round"
             inkscape:connector-curvature="0"
             id="path99"
             class="st3"
             d="M 0,257.12 A 11.9879,11.951 0 0 1 9.6,268.29 3.07092,3.06148 0 1 1 3.7,266.59 9.20594,9.17763 -180 0 0 0,257.12 Z" /></g><g
           transform="matrix(-0.70957074,-0.70463421,0.70463421,-0.70957074,-161.752,453.008)"
           v:groupContext="shape"
           v:mID="92"
           id="shape92-35"><title
             id="title102">Sheet.92</title><path
             style="fill:#ffffff;stroke:#000000;stroke-width:1;stroke-linecap:round;stroke-linejoin:round"
             inkscape:connector-curvature="0"
             id="path104"
             class="st3"
             d="M 0,257.1 A 11.9744,11.9749 0 0 1 9.59,268.28 3.06746,3.0676 0 1 1 3.7,266.59 9.19558,9.19598 -180 0 0 0,257.1 Z" /></g><g
           transform="matrix(-0.99978068,0.02094242,-0.02094242,-0.99978068,50.7442,526.202)"
           v:groupContext="shape"
           v:mID="93"
           id="shape93-37"><title
             id="title107">Sheet.93</title><path
             style="fill:#ffffff;stroke:#000000;stroke-width:1;stroke-linecap:round;stroke-linejoin:round"
             inkscape:connector-curvature="0"
             id="path109"
             class="st3"
             d="m 0,257.08 a 11.9161,11.9906 0 0 1 9.54,11.2 3.05252,3.07163 0 1 1 -5.86,-1.7 9.15079,9.20806 -180 0 0 -3.68,-9.5 z" /></g><g
           transform="translate(17.7946,-27.903)"
           v:groupContext="shape"
           v:mID="94"
           id="shape94-39"><title
             id="title112">Sheet.94</title><path
             style="fill:#ffffff;stroke:#000000;stroke-width:1;stroke-linecap:round;stroke-linejoin:round"
             inkscape:connector-curvature="0"
             id="path114"
             class="st3"
             d="M 6.53,269.14 A 18.7567,18.8741 0 0 1 0,270.58 18.1536,18.2673 -180 0 0 6.56,269.18 L 6.53,269.14 Z" /></g></g><g
         id="shape95-41"
         v:mID="95"
         v:groupContext="shape"
         transform="matrix(0.64278761,-0.76604444,0.76604444,0.64278761,60.6211,6.55079)"
         style="fill:#000000"><title
           id="title117">Sheet.95</title><path
           d="M 27.82,268.88 A 7.22814,7.8904 0 0 1 16.89,259.12 43.6943,47.6977 -180 0 0 0,239.59 a 26.1247,28.5184 0 0 1 25.83,10.85 9.45135,8.65807 90 1 1 1.99,18.44 z"
           class="st5"
           id="path119"
           inkscape:connector-curvature="0"
           style="fill:#000000;stroke:#000000;stroke-width:1.5;stroke-linecap:round;stroke-linejoin:round" /></g><g
         id="shape96-43"
         v:mID="96"
         v:groupContext="shape"
         transform="translate(239.209,-38.397)"
         style="fill:#000000"><title
           id="title122">Sheet.96</title><path
           d="M 6.66,270.45 A 18.8741,18.7567 107.1 0 1 0,269.9 a 18.2673,18.1536 -72.9 0 0 6.68,0.59 l -0.02,-0.04 z"
           class="st6"
           id="path124"
           inkscape:connector-curvature="0"
           style="fill:#000000;stroke:#000000;stroke-width:1;stroke-linecap:round;stroke-linejoin:round" /></g><g
         transform="translate(38.9165,-79.6131)"
         v:groupContext="shape"
         v:mID="98"
         id="shape98-46"
         style="fill:#000000"><title
           id="title130">Sheet.98</title><path
           style="fill:#000000;stroke:#000000;stroke-width:1;stroke-linecap:round;stroke-linejoin:round"
           inkscape:connector-curvature="0"
           id="path132"
           class="st6"
           d="M 4.29,270.58 A 31.8518,30.1128 0 0 1 0,269.47 a 25.1237,23.752 -180 0 0 4.29,1.11 z" /></g><g
         transform="translate(295.67,-31.92)"
         v:groupContext="shape"
         v:mID="99"
         id="shape99-48"
         style="fill:#000000"><title
           id="title135">Sheet.99</title><path
           style="fill:#000000;stroke:#000000;stroke-width:1;stroke-linecap:round;stroke-linejoin:round"
           inkscape:connector-curvature="0"
           id="path137"
           class="st6"
           d="M 6.53,269.02 A 18.7567,20.4752 0 0 1 0,270.58 18.1536,19.8169 -180 0 0 6.56,269.06 l -0.03,-0.04 z" /></g><g
         transform="translate(282.16,-11.55745)"
         v:groupContext="shape"
         v:mID="100"
         id="shape100-50"
         style="fill:#000000"><title
           id="title140">Sheet.100</title><path
           style="fill:#000000;stroke:#000000;stroke-width:0.25;stroke-linecap:round;stroke-linejoin:round"
           inkscape:connector-curvature="0"
           id="path142"
           class="st4"
           d="m 32.08,214.38 a 19.5086,21.2961 0 0 1 -4.65,28.24 18.7567,20.4752 0 0 1 -7.39,6.04 l 0.03,0.03 a 18.1536,19.8169 0 0 1 -6.56,1.52 18.7567,20.4752 -180 0 0 6.53,-1.55 6.98792,7.62817 0 0 1 -2.16,-5.17 7.59777,8.2939 -180 0 0 -8.35,-3.8 4.83534,5.27837 -180 0 0 -2.58,8.57 8.40264,9.17252 -180 0 0 6.46,1.95 9.10895,9.94354 0 0 1 -7.65,1.74 5.16929,5.64291 -180 0 0 -1.89,11.07 7.63822,8.33806 -180 0 0 8.75,-2.39 102.094,111.448 0 0 1 13.22,-8.03 16.282,17.7738 0 0 1 -8.75,8.03 4.17139,4.55358 -180 0 0 -0.8,8.79 6.85062,7.4783 -180 0 0 10.24,-4.23 15.9846,17.4492 0 0 1 7.26,-10.85 31.0362,33.8799 0 0 1 -4.18,7.92 4.66602,5.09354 -180 0 0 7.46,6.07 8.58989,9.37692 -180 0 0 4.47,-10.95 3.5947,3.92406 0 0 1 3.28,-3.37 4.30021,4.69421 -180 0 0 0.99,-7.92 15.7542,17.1977 -180 0 0 3.28,-15.84 20.657,22.5497 0 0 1 2.99,-14.97 13.7764,15.0387 -180 0 0 1.81,-2.36 28.5365,28.5365 -28.93 0 0 -0.95,-1.67 3.49761,3.49761 150 0 1 0.43,-4.88 6.64516,6.64516 -31.28 0 0 -4.24,8.13 6.71333,6.71333 157.73 0 1 -2.35,-7.16 4.79934,4.79934 -45 0 0 -7.05,-4.62 5.61356,5.61356 150 0 1 2.66,8.54 11.4163,11.4163 -34.47 0 0 -2.8,5.83 6.52507,6.52507 144.72 0 1 -3.77,-8.21 6.17756,6.17756 -30.29 0 0 -3.74,5.5 z" /></g><g
         transform="translate(10.0026,-52.65)"
         v:groupContext="shape"
         v:mID="101"
         id="shape101-52"
         style="fill:#000000"><title
           id="title145">Sheet.101</title><path
           style="fill:#000000;stroke:#000000;stroke-width:0.25;stroke-linecap:round;stroke-linejoin:round"
           inkscape:connector-curvature="0"
           id="path147"
           class="st4"
           d="m 78.51,228.75 a 18.2237,17.2288 -180 0 0 -1.3,0.78 l -24.59,11.93 a 31.8518,30.1128 0 0 1 -19.41,2.15 25.1237,23.752 0 0 1 -4.3,-1.1 31.8518,30.1128 -180 0 0 4.3,1.1 25.1237,23.752 -180 0 0 3.9,0.37 13.5345,12.7956 0 0 1 -0.89,-10.89 6.5186,6.16271 -180 0 0 -9.3,-8.59 5.71631,5.40422 -180 0 0 0.66,6.7 8.19871,7.75109 0 0 1 -1.32,7.54 18.5283,17.5168 0 0 1 -2.88,-11.73 6.8258,6.45314 -180 0 0 -13.3,-0.83 8.29871,7.84563 -180 0 0 5.76,8.79 13.7377,12.9877 0 0 1 4.88,8.8 9.99139,9.4459 0 0 1 -8.2,-5.87 6.3358,5.98989 -180 0 0 -9.08,-4.19 6.46979,6.11656 -180 0 0 3.1,11.52 11.4729,10.8465 0 0 1 11.08,2.52 10.4923,9.91946 0 0 1 -8.42,1.25 4.84023,4.57597 -180 0 0 -7.09,1.68 9.52802,9.00783 -180 0 0 14.18,9.22 19.0679,18.0269 0 0 1 15.06,0 4.86286,4.59737 -180 0 0 8.86,0.2 16.3306,15.439 0 0 1 -0.88,10.48 21.8102,20.6194 -180 0 0 13.95,-11.1 18.6086,17.5926 0 0 1 13.07,10.89 17.5282,16.5712 -180 0 0 -1.1,-14.87 27.5053,26.0036 -180 0 0 15.5,6.28 32.3752,30.6076 -180 0 0 -8.19,-9.63 367.817,347.735 -180 0 0 16.83,8.37 10.3354,9.77115 -180 0 0 -3.54,-10.05 l 10.09,1.09 -0.01,-0.04 4.25,0.49 -0.07,-0.14 a 16.23,16.23 91.13 0 1 -5.35,-4.64 6.17756,6.17756 -77.68 0 0 5.77,-6.89 6.52507,6.52507 101.85 0 1 -9,0.85 11.4163,11.4163 -180 0 0 3.65,-5.35 5.61356,5.61356 0 0 1 8.72,-1.97 4.79934,4.79934 -73.18 0 0 -7.52,-3.79 6.71333,6.71333 81.79 0 1 -7.38,1.54 6.64516,6.64516 -180 0 0 4.92,-7.73 3.49761,3.49761 0 0 1 -4.01,2.81 28.5365,28.5365 -180 0 0 -11.4,2.05 z" /></g><g
         transform="translate(71.1173,-65.0404)"
         v:groupContext="shape"
         v:mID="102"
         id="shape102-54"
         style="fill:#000000"><title
           id="title150">Sheet.102</title><path
           style="fill:#000000;stroke:#000000;stroke-width:2.25;stroke-linecap:round;stroke-linejoin:round"
           inkscape:connector-curvature="0"
           id="path152"
           class="st7"
           d="m 17.25,241.2 a 17.516,16.5597 0 0 1 11.25,-2.22 18.2237,17.2288 -180 0 0 -11.11,2.16 28.5365,28.5365 0 0 1 11.41,-2.05 3.49761,3.49761 -180 0 0 4,-2.81 6.64516,6.64516 0 0 1 -4.92,7.73 6.71333,6.71333 -97.09 0 0 7.39,-1.54 4.79934,4.79934 104.85 0 1 7.52,3.79 5.61356,5.61356 -180 0 0 -8.72,1.97 11.4163,11.4163 0 0 1 -3.66,5.35 6.52507,6.52507 -83.81 0 0 9,-0.85 6.17756,6.17756 96.46 0 1 -5.76,6.89 16.23,16.23 -89.43 0 0 5.34,4.64 l 0.08,0.14 1.17,0.14 a 5.42579,5.12956 -180 0 0 4.83,-1.17 8.48,7.34413 -180 0 0 1.24,-2.6 44.3415,38.4021 -180 0 0 0.51,-0.42 5.42579,5.12956 -180 0 0 0.06,-0.53 5.42579,5.12956 -180 0 0 0.01,-0.1 0.445486,0.421164 0 0 1 0,0.10472 5.39346,5.099 0 0 1 -0.06,0.51528 44.3415,38.4021 -180 0 0 12.82,-20.36 81.2604,81.2604 -180 0 0 77.92,-12.7 106.397,106.397 0 0 1 72.57,-2.53 31.6276,34.5254 -180 0 0 2.48,9.29 7.99604,8.72867 0 0 1 6.37,-6.73 16.4213,17.9259 -180 0 0 1.19,18.44 10.2734,11.2147 0 0 1 6.66,-8.46 16.9582,18.5119 -180 0 0 1.39,18.66 10.9194,11.9199 0 0 1 6.36,-7.05 13.3176,14.5378 -180 0 0 5.47,14.87 19.5086,21.2961 0 0 1 3.07,4.09 6.17756,6.17756 149.71 0 1 3.73,-5.5 6.52507,6.52507 -35.28 0 0 3.77,8.22 11.4163,11.4163 145.53 0 1 2.8,-5.84 5.61356,5.61356 -30 0 0 -2.66,-8.54 4.79934,4.79934 135 0 1 7.05,4.62 6.71333,6.71333 -22.27 0 0 2.36,7.17 6.64516,6.64516 148.72 0 1 4.23,-8.13 3.49761,3.49761 -30 0 0 -0.43,4.87 28.5365,28.5365 151.07 0 1 0.95,1.67 13.7764,15.0387 -180 0 0 1.97,-4.8 22.6067,24.6779 -180 0 0 0,-8.25 3.97558,4.33984 -180 0 0 -4.38,-2.39 14.0106,15.2943 0 0 1 -11.73,-13.45 85.6396,85.6396 -180 0 0 2.82,-22.79 63.8046,63.8046 -180 0 0 -71.04,-57.75 724.7,724.7 0 0 1 -87.75,13.5 78.1941,78.1941 0 0 1 -46.97,-13.5 43.4696,43.4696 -180 0 0 -47.25,0 74.208,74.208 -180 0 0 18.88,59.54 18.705,17.6838 -180 0 0 -5.6,11.27 13.3025,12.5762 0 0 1 12.41,-4.72 74.208,74.208 -180 0 0 1.08,0.89 18.16,17.1685 -180 0 0 -14.27,15.87 57.1586,54.0379 0 0 1 14.74,-6.91 29.853,28.2231 -180 0 0 -11.34,8.5 l 0.41,-0.07 a 28.5365,28.5365 0 0 1 0.34,-0.14 z" /></g><g
         v:groupContext="group"
         v:mID="103"
         transform="translate(277.875,-1.65)"
         id="group103-56"><title
           id="title155">Sheet.103</title><g
           transform="matrix(0.17364818,-0.98480775,0.98480775,0.17364818,-252.025,193.597)"
           v:groupContext="shape"
           v:mID="104"
           id="shape104-57"><title
             id="title158">Sheet.104</title><path
             style="fill:#ffffff;stroke:#000000;stroke-width:1;stroke-linecap:round;stroke-linejoin:round"
             inkscape:connector-curvature="0"
             id="path160"
             class="st3"
             d="M 0,257.13 A 12.9749,11.9489 0 0 1 10.39,268.29 3.3241427,3.0613017 0 1 1 4,266.6 9.96387,9.17602 -180 0 0 0,257.13 Z" /></g><g
           transform="matrix(-0.50301995,-0.8642748,0.8642748,-0.50301995,-221.258,389.362)"
           v:groupContext="shape"
           v:mID="105"
           id="shape105-59"><title
             id="title163">Sheet.105</title><path
             style="fill:#ffffff;stroke:#000000;stroke-width:1;stroke-linecap:round;stroke-linejoin:round"
             inkscape:connector-curvature="0"
             id="path165"
             class="st3"
             d="M 0,256.85 A 12.7315,12.1923 0 0 1 10.2,268.24 3.2625306,3.1243335 0 1 1 3.93,266.51 9.77701,9.36288 -180 0 0 0,256.85 Z" /></g><g
           transform="matrix(-0.70957074,-0.70463421,0.70463421,-0.70957074,-161.366,452.613)"
           v:groupContext="shape"
           v:mID="106"
           id="shape106-61"><title
             id="title168">Sheet.106</title><path
             style="fill:#ffffff;stroke:#000000;stroke-width:1;stroke-linecap:round;stroke-linejoin:round"
             inkscape:connector-curvature="0"
             id="path170"
             class="st3"
             d="M 0,256.54 A 12.4581,12.4657 0 0 1 9.98,268.19 3.19137,3.19332 0 1 1 3.85,266.42 9.56702,9.57287 -180 0 0 0,256.54 Z" /></g><g
           transform="matrix(-0.99978068,0.02094242,-0.02094242,-0.99978068,50.7204,524.939)"
           v:groupContext="shape"
           v:mID="107"
           id="shape107-63"><title
             id="title173">Sheet.107</title><path
             style="fill:#ffffff;stroke:#000000;stroke-width:1;stroke-linecap:round;stroke-linejoin:round"
             inkscape:connector-curvature="0"
             id="path175"
             class="st3"
             d="M 0,255.93 A 11.9165,13.0073 0 0 1 9.54,268.09 3.05263,3.33206 0 1 1 3.68,266.24 9.1511,9.98879 -180 0 0 0,255.93 Z" /></g><g
           transform="translate(17.7946,-30.27)"
           v:groupContext="shape"
           v:mID="108"
           id="shape108-65"><title
             id="title178">Sheet.108</title><path
             style="fill:#ffffff;stroke:#000000;stroke-width:1;stroke-linecap:round;stroke-linejoin:round"
             inkscape:connector-curvature="0"
             id="path180"
             class="st3"
             d="M 6.53,269.02 A 18.7567,20.4752 0 0 1 0,270.58 18.1536,19.8169 -180 0 0 6.56,269.06 l -0.03,-0.04 z" /></g></g><g
         v:groupContext="group"
         v:mID="109"
         transform="translate(0,-61.5321)"
         id="group109-67"><title
           id="title183">Sheet.109</title><g
           transform="translate(34.2642,-32.6977)"
           v:groupContext="shape"
           v:mID="110"
           id="shape110-68"><title
             id="title186">Sheet.110</title><path
             style="fill:#ffffff;stroke:#000000;stroke-width:1;stroke-linecap:round;stroke-linejoin:round"
             inkscape:connector-curvature="0"
             id="path188"
             class="st3"
             d="M 0,256.45 A 13.279,12.554 0 0 1 10.63,268.17 3.40165,3.21593 0 1 1 4.1,266.39 10.1974,9.64065 -180 0 0 0,256.45 Z" /></g><g
           transform="matrix(0.8660254,-0.5,0.5,0.8660254,-115.121,6.32008)"
           v:groupContext="shape"
           v:mID="111"
           id="shape111-70"><title
             id="title191">Sheet.111</title><path
             style="fill:#ffffff;stroke:#000000;stroke-width:1;stroke-linecap:round;stroke-linejoin:round"
             inkscape:connector-curvature="0"
             id="path193"
             class="st3"
             d="M 0,256.24 A 13.0977,12.7352 0 0 1 10.49,268.14 3.3566262,3.2637272 0 1 1 4.04,266.33 10.0582,9.77984 -180 0 0 0,256.24 Z" /></g><g
           transform="matrix(0.70710678,-0.70710678,0.70710678,0.70710678,-181.043,60.6898)"
           v:groupContext="shape"
           v:mID="112"
           id="shape112-72"><title
             id="title196">Sheet.112</title><path
             style="fill:#ffffff;stroke:#000000;stroke-width:1;stroke-linecap:round;stroke-linejoin:round"
             inkscape:connector-curvature="0"
             id="path198"
             class="st3"
             d="M 0,256.04 A 12.9165,12.9165 0 0 1 10.34,268.1 3.30879,3.30879 0 1 1 3.99,266.27 9.91903,9.91903 -180 0 0 0,256.04 Z" /></g><g
           transform="matrix(-0.01745241,-0.9998477,0.9998477,-0.01745241,-252.817,275.038)"
           v:groupContext="shape"
           v:mID="113"
           id="shape113-74"><title
             id="title201">Sheet.113</title><path
             style="fill:#ffffff;stroke:#000000;stroke-width:1;stroke-linecap:round;stroke-linejoin:round"
             inkscape:connector-curvature="0"
             id="path203"
             class="st3"
             d="M 0,255.63 A 12.5542,13.2787 0 0 1 10.05,268.04 3.2165714,3.402205 0 1 1 3.87,266.15 9.64082,10.1972 -180 0 0 0,255.63 Z" /></g></g><g
         v:groupContext="shape"
         v:mID="115"
         id="shape115-77"
         transform="translate(41.1729,-137.7)"
         style="fill:#000000"><title
           id="title209">Sheet.115</title><path
           style="fill:#000000;stroke:#000000;stroke-width:4.5;stroke-linecap:round;stroke-linejoin:round"
           inkscape:connector-curvature="0"
           id="path211"
           class="st8"
           d="m 59.33,255.43 0,0.04 a 4.17548,4.17548 90.94 0 1 -0.77,-3.37 10.2627,10.2627 91.2 0 1 0.77,3.33 z m 1.72,-2.26 a 5.99473,5.99473 -180 0 0 -0.01,0.25 l -2.38,9.05 a 3.77027,3.77027 0 0 1 -2.63,2.41 9.64618,9.64618 -90.14 0 0 0.97,-0.75 20.5716,20.5716 -90 0 0 2.35,-8.17 10.2627,10.2627 91.2 0 1 0,0.19 7.87903,7.87903 96.26 0 1 0.07,-0.56 23.1446,23.1446 -54.74 0 0 1.63,-2.42 z m 1.69,-3.68 a 5.99473,5.99473 -180 0 0 -1.45,2.43 2.57223,2.57223 66.28 0 1 1.45,-2.43 z m -0.68,-0.68 a 4.17548,4.17548 90.94 0 1 1.42,0.04 5.99473,5.99473 -180 0 0 -0.61,0.51 11.7413,11.7413 90 0 1 -0.81,-0.55 z m -21.99,3.11 a 5.99473,5.99473 -90 0 0 -1.45,-2.43 2.57223,2.57223 113.72 0 1 1.45,2.43 z m 1.94,4.04 a 20.5716,20.5716 -90 0 0 2.35,8.17 9.64029,9.64029 -89.86 0 0 0.96,0.74 3.75285,3.75285 0 0 1 -2.61,-2.4 l -2.38,-9.05 a 5.99473,5.99473 -90 0 0 -0.02,-0.25 23.1446,23.1446 -125.26 0 0 1.63,2.42 7.87903,7.87903 83.74 0 1 0.07,0.56 10.2627,10.2627 88.8 0 1 0,-0.19 z m 0.79,-3.86 a 4.17548,4.17548 89.06 0 1 -0.77,3.37 l 0,-0.04 a 10.2627,10.2627 88.8 0 1 0.77,-3.33 z m -4.31,-2.74 a 5.99473,5.99473 -90 0 0 -0.61,-0.51 4.17548,4.17548 89.06 0 1 1.42,-0.04 11.7413,11.7413 90 0 1 -0.81,0.55 z m 11.62,17.16 a 9.64029,9.64029 -89.86 0 0 0.15,0 l -0.04,4.02 a 9.37424,9.23654 -180 0 0 3.71,-0.42 6.72846,6.72846 -180 0 0 6.75,-3.84 11.6845,11.6845 -180 0 0 0.48,-8.58 4.6621,4.6621 0 0 1 3.45,-6.66 12.0911,12.0911 -180 0 0 8.06,-4.32 3.19336,3.19336 0 0 1 0.59,3.89 6.16032,6.16032 -180 0 0 4.29,-7.86 9.04064,9.04064 0 0 1 -1.31,8.81 26.1676,26.1676 -180 0 0 10.36,-10.95 7.47567,7.47567 0 0 1 -7.03,-2.39 12.4684,12.4684 -180 0 0 12.39,-4.76 6.175,6.175 0 0 1 -7.74,-0.95 8.50148,8.50148 -180 0 0 8.45,-11.91 1.46339,1.46339 0 0 1 -2.38,1.19 2.75545,2.75545 0 0 1 2.14,-4.05 8.07173,8.07173 -180 0 0 8.93,-3.09 10.4796,10.4796 0 0 1 -8.21,0.24 8.35448,8.35448 -180 0 0 -2.28,-0.55 8.74321,8.74321 -180 0 0 -9.15,8.17 8.35448,8.35448 0 0 1 9.15,-8.17 8.74321,8.74321 0 0 1 1.92,0.31 5.04452,5.04452 -180 0 0 2.5,-9.77 3.57593,3.57593 0 0 1 -4.05,5.72 7.42654,7.42654 -180 0 0 -6.43,-1.67 9.76134,9.76134 -180 0 0 -4.02,2.12 3.01406,3.01406 149.97 0 1 0.14,-0.43 21.827,21.827 -180 0 0 6.45,-11.24 21.827,21.827 -90 0 0 0.59,-3.42 19.5695,19.5695 90 0 1 0.4,-5.85 19.5695,19.5695 0 0 1 0.77,-2.36 9.38977,9.38977 -179.3 0 0 0.33,-1.21 9.38977,9.38977 -91.01 0 0 -1.5,-8.12 136.074,136.074 -90 0 0 -25.64,15.54 l -11.65,0.76 -11.64,-0.76 a 136.074,136.074 -90 0 0 -25.65,-15.54 9.38977,9.38977 -88.99 0 0 -1.84,5.11 9.38977,9.38977 -0.7 0 0 0.45,4.22 19.5695,19.5695 0 0 1 1.33,8.89 21.827,21.827 -180 0 0 6.88,13.98 3.01406,3.01406 30.03 0 1 0.07,0.18 9.76134,9.76134 -180 0 0 -3.73,-1.87 7.42654,7.42654 -180 0 0 -6.43,1.67 3.57593,3.57593 90 0 1 -4.05,-5.72 5.04452,5.04452 -90 0 0 2.5,9.77 8.74321,8.74321 0 0 1 1.92,-0.31 8.35448,8.35448 90 0 1 9.16,8.17 8.74321,8.74321 -180 0 0 -9.16,-8.17 8.35448,8.35448 -90 0 0 -2.27,0.55 10.4796,10.4796 90 0 1 -8.22,-0.24 8.07173,8.07173 -90 0 0 8.93,3.09 2.75545,2.75545 90 0 1 2.14,4.05 1.46339,1.46339 90 0 1 -2.38,-1.19 8.50148,8.50148 -90 0 0 8.46,11.91 6.175,6.175 90 0 1 -7.74,0.95 12.4684,12.4684 -90 0 0 12.38,4.76 7.47567,7.47567 90 0 1 -7.03,2.39 26.1676,26.1676 -90 0 0 10.36,10.95 9.04064,9.04064 90 0 1 -1.31,-8.81 6.16032,6.16032 -90 0 0 4.29,7.86 3.19336,3.19336 0 0 1 0.59,-3.89 12.0911,12.0911 -180 0 0 8.06,4.32 4.6621,4.6621 0 0 1 3.46,6.66 11.6845,11.6845 -180 0 0 0.47,8.58 6.72846,6.72846 -180 0 0 5.85,3.87 9.37424,9.23654 0 0 0 3.62,0.39 l -0.04,-4.02 z M 23.32,224.53 a 63.6575,63.6575 -90 0 0 3.84,15.17 13.9375,13.9375 -90 0 0 6,7.65 14.6204,14.6204 0 0 1 -2.32,-1.51 31.7349,31.7349 0 0 1 -7.52,-21.31 z m 44.88,22.82 a 13.9375,13.9375 -90 0 0 6.01,-7.65 63.6575,63.6575 -90 0 0 3.84,-15.17 31.7349,31.7349 0 0 1 -7.53,21.31 14.6204,14.6204 0 0 1 -2.32,1.51 z" /></g><g
         id="shape117-80"
         v:mID="117"
         v:groupContext="shape"
         transform="translate(52.7151,-141.74118)"
         style="fill:#000000"><title
           id="title217">Sheet.117</title><path
           d="m 39.08,270.58 0.06,0 0.06,0 a 9.64618,9.64618 -90.14 0 0 6.26,-2.41 20.5716,20.5716 -90 0 0 2.4,-9.22 7.87903,7.87903 -87.54 0 0 -0.07,0.56 4.17548,4.17548 90.95 0 1 4.77,-6.44 13.9375,13.9375 -90 0 0 10.1,-9.33 63.6575,63.6575 -90 0 0 4.33,-23.76 6.97878,6.97878 90 0 1 2.56,-5.99 21.827,21.827 -90 0 0 6.88,-13.99 19.5695,19.5695 90 0 1 1.33,-8.88 9.38977,9.38977 -91.01 0 0 -1.33,-8.66 A 136.074,136.074 -90 0 0 50.78,198 L 39.14,198.76 27.49,198 a 136.074,136.074 -90 0 0 -25.64,-15.54 9.38977,9.38977 -88.99 0 0 -1.33,8.66 19.5695,19.5695 90 0 1 1.33,8.88 21.827,21.827 -90 0 0 6.88,13.99 6.97878,6.97878 90 0 1 2.55,5.99 63.6575,63.6575 -90 0 0 4.33,23.76 13.9375,13.9375 -90 0 0 10.11,9.33 4.17548,4.17548 89.05 0 1 4.77,6.44 7.87903,7.87903 -92.46 0 0 -0.07,-0.56 20.5716,20.5716 -90 0 0 2.4,9.22 9.64029,9.64029 -89.86 0 0 6.26,2.41 l 0,0 z"
           class="st9"
           id="path219"
           inkscape:connector-curvature="0"
           style="fill:#000000" /><path
           d="m 39.08,270.58 0.06,0 0.06,0 a 9.64618,9.64618 -90.14 0 0 6.26,-2.41 20.5716,20.5716 -90 0 0 2.4,-9.22 7.87903,7.87903 -87.54 0 0 -0.07,0.56 4.17548,4.17548 90.95 0 1 4.77,-6.44 13.9375,13.9375 -90 0 0 10.1,-9.33 63.6575,63.6575 -90 0 0 4.33,-23.76 6.97878,6.97878 90 0 1 2.56,-5.99 21.827,21.827 -90 0 0 6.88,-13.99 19.5695,19.5695 90 0 1 1.33,-8.88 9.38977,9.38977 -91.01 0 0 -1.33,-8.66 A 136.074,136.074 -90 0 0 50.78,198 L 39.14,198.76 27.49,198 a 136.074,136.074 -90 0 0 -25.64,-15.54 9.38977,9.38977 -88.99 0 0 -1.33,8.66 19.5695,19.5695 90 0 1 1.33,8.88 21.827,21.827 -90 0 0 6.88,13.99 6.97878,6.97878 90 0 1 2.55,5.99 63.6575,63.6575 -90 0 0 4.33,23.76 13.9375,13.9375 -90 0 0 10.11,9.33 4.17548,4.17548 89.05 0 1 4.77,6.44 7.87903,7.87903 -92.46 0 0 -0.07,-0.56 20.5716,20.5716 -90 0 0 2.4,9.22 9.64029,9.64029 -89.86 0 0 6.26,2.41"
           class="st10"
           id="path221"
           inkscape:connector-curvature="0"
           style="stroke:#000000;stroke-width:1;stroke-linecap:round;stroke-linejoin:round;fill:#000000" /></g><g
         id="group118-83"
         transform="translate(52.6556,-192.6418)"
         v:mID="118"
         v:groupContext="group"
         style="fill:#000000"><title
           id="title224">Sheet.118</title><g
           id="shape119-84"
           v:mID="119"
           v:groupContext="shape"
           transform="matrix(-1,0,0,1,27.8189,0)"
           style="fill:#000000"><title
             id="title227">Sheet.119</title><path
             d="m 19.54,268.56 a 3.01406,3.01406 149.54 0 1 -0.45,-2.99 21.827,21.827 -180 0 0 6.88,-13.99 19.5695,19.5695 0 0 1 1.33,-8.88 9.38977,9.38977 -179.3 0 0 -1.33,-8.66 136.074,136.074 -180 0 0 -4.68,2.28 14.7821,14.7821 -180 0 0 -8.64,11.49 6.04433,2.67605 122.97 0 1 -3.65,7.16 15.4005,13.5514 -180 0 0 -9,-0.84 23.7885,23.7885 164.86 0 1 6.11,0.67 13.1698,13.1698 -169.9 0 0 7.87,3 2.48196,2.48196 -180 0 0 -2.55,4 4.6663,4.6663 0 0 1 4.99,3.77 2.95483,2.95483 0 0 1 -4.1,2.22 3.95572,3.95572 -45.81 0 0 7.22,0.77 z"
             class="st11"
             id="path229"
             inkscape:connector-curvature="0"
             style="fill:#000000;stroke:#000000;stroke-width:1;stroke-linecap:round;stroke-linejoin:round" /></g><g
           id="group120-86"
           transform="matrix(-1,0,0,1,17.3953,-10.9351)"
           v:mID="120"
           v:groupContext="group"
           style="fill:#000000"><title
             id="title232">Sheet.120</title><g
             id="shape121-87"
             v:mID="121"
             v:groupContext="shape"
             transform="translate(0,-5.94702)"
             style="fill:#000000"><title
               id="title235">Sheet.121</title><path
               d="m 0,270.58 a 12.1233,11.812 -93.54 0 0 7,-9.32 8.58047,8.36012 102.59 0 1 9.89,-7 13.2053,12.8662 -84.12 0 0 -7.29,9.24 10.7466,11.0299 0 0 1 -9.6,7.08 z"
               class="st3"
               id="path237"
               inkscape:connector-curvature="0"
               style="fill:#000000;stroke:#000000;stroke-width:1;stroke-linecap:round;stroke-linejoin:round" /></g><g
             id="shape122-89"
             v:mID="122"
             v:groupContext="shape"
             transform="translate(0,-5.30537)"
             style="fill:#000000"><title
               id="title240">Sheet.122</title><path
               d="m 0,269.43 a 11.109,11.109 -1.14 0 0 9.17,-5.7 9.91451,9.91451 0.54 0 1 7.38,-7.19 36.2141,36.2141 -0.44 0 0 -4.42,8.85 A 8.53724,8.53724 177.69 0 1 0,269.43 Z"
               class="st3"
               id="path242"
               inkscape:connector-curvature="0"
               style="fill:#000000;stroke:#000000;stroke-width:1;stroke-linecap:round;stroke-linejoin:round" /></g><g
             id="shape123-91"
             v:mID="123"
             v:groupContext="shape"
             transform="translate(0,-3.04552)"
             style="fill:#000000"><title
               id="title245">Sheet.123</title><path
               d="m 0,267.42 a 9.28574,9.28574 -154.55 0 0 8.97,-1.01 30.2943,30.2943 -175.58 0 0 6.57,-5.56 12.9477,12.9477 2.9 0 1 -4.55,7.84 A 7.38817,7.38817 23.16 0 1 0,267.42 Z"
               class="st3"
               id="path247"
               inkscape:connector-curvature="0"
               style="fill:#000000;stroke:#000000;stroke-width:1;stroke-linecap:round;stroke-linejoin:round" /></g><g
             id="shape124-93"
             v:mID="124"
             v:groupContext="shape"
             transform="matrix(0.96592583,0.25881905,-0.25881905,0.96592583,69.028,7.4227)"
             style="fill:#000000"><title
               id="title250">Sheet.124</title><path
               d="m 0,266.7 a 10.2168,8.9981 -82.28 0 0 8.76,0.07 32.7875,28.8766 -98.12 0 0 5.35,-6.84 13.9442,12.2809 84.23 0 1 -3.44,8.83 A 8.22177,7.24107 93.45 0 1 0,266.7 Z"
               class="st3"
               id="path252"
               inkscape:connector-curvature="0"
               style="fill:#000000;stroke:#000000;stroke-width:1;stroke-linecap:round;stroke-linejoin:round" /></g></g></g><g
         id="group125-95"
         transform="matrix(-1,0,0,1,130.8307,-192.6418)"
         v:mID="125"
         v:groupContext="group"
         style="fill:#000000"><title
           id="title255">Sheet.125</title><g
           id="shape126-96"
           v:mID="126"
           v:groupContext="shape"
           transform="matrix(-1,0,0,1,27.8189,0)"
           style="fill:#000000"><title
             id="title258">Sheet.126</title><path
             d="m 19.54,268.56 a 3.01406,3.01406 149.54 0 1 -0.45,-2.99 21.827,21.827 -180 0 0 6.88,-13.99 19.5695,19.5695 0 0 1 1.33,-8.88 9.38977,9.38977 -179.3 0 0 -1.33,-8.66 136.074,136.074 -180 0 0 -4.68,2.28 14.7821,14.7821 -180 0 0 -8.64,11.49 6.04433,2.67605 122.97 0 1 -3.65,7.16 15.4005,13.5514 -180 0 0 -9,-0.84 23.7885,23.7885 164.86 0 1 6.11,0.67 13.1698,13.1698 -169.9 0 0 7.87,3 2.48196,2.48196 -180 0 0 -2.55,4 4.6663,4.6663 0 0 1 4.99,3.77 2.95483,2.95483 0 0 1 -4.1,2.22 3.95572,3.95572 -45.81 0 0 7.22,0.77 z"
             class="st11"
             id="path260"
             inkscape:connector-curvature="0"
             style="fill:#000000;stroke:#000000;stroke-width:1;stroke-linecap:round;stroke-linejoin:round" /></g><g
           id="group127-98"
           transform="matrix(-1,0,0,1,17.3953,-10.9351)"
           v:mID="127"
           v:groupContext="group"
           style="fill:#000000"><title
             id="title263">Sheet.127</title><g
             id="shape128-99"
             v:mID="128"
             v:groupContext="shape"
             transform="translate(0,-5.94702)"
             style="fill:#000000"><title
               id="title266">Sheet.128</title><path
               d="m 0,270.58 a 12.1233,11.812 -93.54 0 0 7,-9.32 8.58047,8.36012 102.59 0 1 9.89,-7 13.2053,12.8662 -84.12 0 0 -7.29,9.24 10.7466,11.0299 0 0 1 -9.6,7.08 z"
               class="st3"
               id="path268"
               inkscape:connector-curvature="0"
               style="fill:#000000;stroke:#000000;stroke-width:1;stroke-linecap:round;stroke-linejoin:round" /></g><g
             id="shape129-101"
             v:mID="129"
             v:groupContext="shape"
             transform="translate(0,-5.30537)"
             style="fill:#000000"><title
               id="title271">Sheet.129</title><path
               d="m 0,269.43 a 11.109,11.109 -1.14 0 0 9.17,-5.7 9.91451,9.91451 0.54 0 1 7.38,-7.19 36.2141,36.2141 -0.44 0 0 -4.42,8.85 A 8.53724,8.53724 177.69 0 1 0,269.43 Z"
               class="st3"
               id="path273"
               inkscape:connector-curvature="0"
               style="fill:#000000;stroke:#000000;stroke-width:1;stroke-linecap:round;stroke-linejoin:round" /></g><g
             id="shape130-103"
             v:mID="130"
             v:groupContext="shape"
             transform="translate(0,-3.04552)"
             style="fill:#000000"><title
               id="title276">Sheet.130</title><path
               d="m 0,267.42 a 9.28574,9.28574 -154.55 0 0 8.97,-1.01 30.2943,30.2943 -175.58 0 0 6.57,-5.56 12.9477,12.9477 2.9 0 1 -4.55,7.84 A 7.38817,7.38817 23.16 0 1 0,267.42 Z"
               class="st3"
               id="path278"
               inkscape:connector-curvature="0"
               style="fill:#000000;stroke:#000000;stroke-width:1;stroke-linecap:round;stroke-linejoin:round" /></g><g
             id="shape131-105"
             v:mID="131"
             v:groupContext="shape"
             transform="matrix(0.96592583,0.25881905,-0.25881905,0.96592583,69.028,7.4227)"
             style="fill:#000000"><title
               id="title281">Sheet.131</title><path
               d="m 0,266.7 a 10.2168,8.9981 -82.28 0 0 8.76,0.07 32.7875,28.8766 -98.12 0 0 5.35,-6.84 13.9442,12.2809 84.23 0 1 -3.44,8.83 A 8.22177,7.24107 93.45 0 1 0,266.7 Z"
               class="st3"
               id="path283"
               inkscape:connector-curvature="0"
               style="fill:#000000;stroke:#000000;stroke-width:1;stroke-linecap:round;stroke-linejoin:round" /></g></g></g><g
         id="group132-107"
         transform="translate(40.848205,-138.44657)"
         v:mID="132"
         v:groupContext="group"><title
           id="title286">Sheet.132</title><g
           id="shape133-108"
           v:mID="133"
           v:groupContext="shape"
           transform="translate(52.5824,0)"><title
             id="title289">Sheet.133</title><path
             d="m 20.09,247.14 a 3.19336,3.19336 0 0 1 0.59,3.89 6.16032,6.16032 -180 0 0 4.29,-7.86 9.04064,9.04064 0 0 1 -1.31,8.81 26.1676,26.1676 -180 0 0 10.36,-10.95 7.47567,7.47567 0 0 1 -7.03,-2.38 12.4684,12.4684 -180 0 0 12.38,-4.77 6.175,6.175 0 0 1 -7.74,-0.95 8.50148,8.50148 -180 0 0 8.46,-11.91 1.46339,1.46339 0 0 1 -2.38,1.19 2.75545,2.75545 0 0 1 2.14,-4.04 8.07173,8.07173 -180 0 0 8.93,-3.1 10.4796,10.4796 0 0 1 -8.22,0.24 8.35448,8.35448 -180 0 0 -2.27,-0.55 8.74321,8.74321 -180 0 0 -9.16,8.17 8.35448,8.35448 0 0 1 9.16,-8.17 8.74321,8.74321 0 0 1 1.92,0.31 5.04452,5.04452 -180 0 0 2.5,-9.76 3.57593,3.57593 0 0 1 -4.05,5.71 7.42654,7.42654 -180 0 0 -6.43,-1.67 9.76134,9.76134 -180 0 0 -7.15,11.44 31.7349,31.7349 0 0 1 -7.14,25.48 14.6204,14.6204 0 0 1 -3.06,1.85 5.99473,5.99473 -180 0 0 -6.43,5.72 l -2.38,9.05 a 3.77027,3.77027 0 0 1 -5.95,1.67 L 0,270.27 a 6.72846,6.72846 -180 0 0 8.1,-3.57 11.6845,11.6845 -180 0 0 0.47,-8.57 4.6621,4.6621 0 0 1 3.46,-6.67 12.0911,12.0911 -180 0 0 8.06,-4.32 z"
             class="st3"
             id="path291"
             inkscape:connector-curvature="0"
             style="fill:#ffffff;stroke:#000000;stroke-width:1;stroke-linecap:round;stroke-linejoin:round" /></g><g
           id="shape134-110"
           v:mID="134"
           v:groupContext="shape"
           transform="matrix(-1,0,0,1,48.7801,0)"><title
             id="title294">Sheet.134</title><path
             d="m 20.09,247.14 a 3.19336,3.19336 0 0 1 0.59,3.89 6.16032,6.16032 -180 0 0 4.29,-7.86 9.04064,9.04064 0 0 1 -1.31,8.81 26.1676,26.1676 -180 0 0 10.36,-10.95 7.47567,7.47567 0 0 1 -7.03,-2.38 12.4684,12.4684 -180 0 0 12.38,-4.77 6.175,6.175 0 0 1 -7.74,-0.95 8.50148,8.50148 -180 0 0 8.46,-11.91 1.46339,1.46339 0 0 1 -2.38,1.19 2.75545,2.75545 0 0 1 2.14,-4.04 8.07173,8.07173 -180 0 0 8.93,-3.1 10.4796,10.4796 0 0 1 -8.22,0.24 8.35448,8.35448 -180 0 0 -2.27,-0.55 8.74321,8.74321 -180 0 0 -9.16,8.17 8.35448,8.35448 0 0 1 9.16,-8.17 8.74321,8.74321 0 0 1 1.92,0.31 5.04452,5.04452 -180 0 0 2.5,-9.76 3.57593,3.57593 0 0 1 -4.05,5.71 7.42654,7.42654 -180 0 0 -6.43,-1.67 9.76134,9.76134 -180 0 0 -7.15,11.44 31.7349,31.7349 0 0 1 -7.14,25.48 14.6204,14.6204 0 0 1 -3.06,1.85 5.99473,5.99473 -180 0 0 -6.43,5.72 l -2.38,9.05 a 3.77027,3.77027 0 0 1 -5.95,1.67 L 0,270.27 a 6.72846,6.72846 -180 0 0 8.1,-3.57 11.6845,11.6845 -180 0 0 0.47,-8.57 4.6621,4.6621 0 0 1 3.46,-6.67 12.0911,12.0911 -180 0 0 8.06,-4.32 z"
             class="st3"
             id="path296"
             inkscape:connector-curvature="0"
             style="fill:#ffffff;stroke:#000000;stroke-width:1;stroke-linecap:round;stroke-linejoin:round" /></g></g><g
         id="shape135-112"
         v:mID="135"
         v:groupContext="shape"
         transform="translate(85.6061,-137.7)"
         style="fill:#000000"><title
           id="title299">Sheet.135</title><path
           d="m 0.96,269.71 a 9.37424,9.23654 0 0 0 4.76,0.83 l -0.07,-7.17 a 9.15288,9.01843 -180 0 0 -3.5,0.55 3.73752,3.68262 0 0 0 -1.19,5.79 z m 9.59,0 a 3.73752,3.68262 -180 0 0 -1.19,-5.79 9.15288,9.01843 -180 0 0 -3.5,-0.55 l -0.07,7.17 a 9.37424,9.23654 -180 0 0 4.76,-0.83 z"
           class="st11"
           id="path301"
           inkscape:connector-curvature="0"
           style="fill:#000000;stroke:#000000;stroke-width:1;stroke-linecap:round;stroke-linejoin:round" /></g><g
         id="group136-114"
         transform="translate(72.2706,-175.7013)"
         v:mID="136"
         v:groupContext="group"
         style="fill:#000000"><title
           id="title304">Sheet.136</title><g
           id="group137-115"
           v:mID="137"
           v:groupContext="group"
           style="fill:#000000"><title
             id="title307">Sheet.137</title><g
             id="shape138-116"
             v:mID="138"
             v:groupContext="shape"
             style="fill:#000000"><title
               id="title310">Sheet.138</title><path
               d="m 0.22,260.52 a 8.19278,8.19278 -90 0 0 12.88,8.43 9.11379,9.11379 -90 0 0 -10.22,-8.66 10.2861,10.2861 0 0 1 -2.66,0.23 z"
               class="st3"
               id="path312"
               inkscape:connector-curvature="0"
               style="fill:#000000;stroke:#000000;stroke-width:1;stroke-linecap:round;stroke-linejoin:round" /></g><g
             id="shape139-118"
             v:mID="139"
             v:groupContext="shape"
             transform="translate(26.1898,0)"
             style="fill:#000000"><title
               id="title315">Sheet.139</title><path
               d="M 12.88,260.52 A 10.2861,10.2861 0 0 1 10.21,260.29 9.11379,9.11379 -180 0 0 0,268.95 8.19278,8.19278 -180 0 0 12.88,260.52 Z"
               class="st3"
               id="path317"
               inkscape:connector-curvature="0"
               style="fill:#000000;stroke:#000000;stroke-width:1;stroke-linecap:round;stroke-linejoin:round" /></g></g><g
           id="group140-120"
           transform="translate(2.37522,-1.23366)"
           v:mID="140"
           v:groupContext="group"
           style="fill:#000000"><title
             id="title320">Sheet.140</title><g
             id="shape141-121"
             v:mID="141"
             v:groupContext="shape"
             transform="translate(25.3129,0)"
             style="fill:#000000"><title
               id="title323">Circle.109</title><v:userDefs><v:ud
                 v:nameU="visVersion"
                 v:val="VT0(14):26" /></v:userDefs><path
               d="m 0,266.02 a 4.55188,4.55188 0 1 1 9.1,0 4.55188,4.55188 0 0 1 -9.1,0 z"
               class="st12"
               id="path325"
               inkscape:connector-curvature="0"
               style="fill:#000000;stroke:#000000;stroke-width:1;stroke-linecap:round;stroke-linejoin:round" /></g><g
             id="shape142-123"
             v:mID="142"
             v:groupContext="shape"
             style="fill:#000000"><title
               id="title328">Circle.8</title><v:userDefs><v:ud
                 v:nameU="visVersion"
                 v:val="VT0(14):26" /></v:userDefs><path
               d="m 0,266.02 a 4.55188,4.55188 0 1 1 9.1,0 4.55188,4.55188 0 0 1 -9.1,0 z"
               class="st12"
               id="path330"
               inkscape:connector-curvature="0"
               style="fill:#000000;stroke:#000000;stroke-width:1;stroke-linecap:round;stroke-linejoin:round" /></g></g><g
           id="group143-125"
           transform="translate(5.16541,-4.02385)"
           v:mID="143"
           v:groupContext="group"
           style="fill:#000000"><title
             id="title333">Sheet.143</title><g
             id="shape144-126"
             v:mID="144"
             v:groupContext="shape"
             transform="translate(25.3129,0)"
             style="fill:#000000"><title
               id="title336">Circle.5</title><v:userDefs><v:ud
                 v:nameU="visVersion"
                 v:val="VT0(14):26" /></v:userDefs><path
               d="m 0,268.81 a 1.76169,1.76169 0 0 1 3.52,0 1.76169,1.76169 0 1 1 -3.52,0 z"
               class="st11"
               id="path338"
               inkscape:connector-curvature="0"
               style="fill:#000000;stroke:#000000;stroke-width:1;stroke-linecap:round;stroke-linejoin:round" /></g><g
             id="shape145-128"
             v:mID="145"
             v:groupContext="shape"
             style="fill:#000000"><title
               id="title341">Circle.28</title><v:userDefs><v:ud
                 v:nameU="visVersion"
                 v:val="VT0(14):26" /></v:userDefs><path
               d="m 0,268.81 a 1.76169,1.76169 0 0 1 3.52,0 1.76169,1.76169 0 1 1 -3.52,0 z"
               class="st11"
               id="path343"
               inkscape:connector-curvature="0"
               style="fill:#000000;stroke:#000000;stroke-width:1;stroke-linecap:round;stroke-linejoin:round" /></g></g></g><g
         id="group146-130"
         transform="translate(69.3052,-152.1284)"
         v:mID="146"
         v:groupContext="group"
         style="fill:#000000"><title
           id="title346">Sheet.146</title><g
           id="shape147-131"
           v:mID="147"
           v:groupContext="shape"
           style="fill:#000000"><title
             id="title349">Sheet.147</title><path
             d="m 10.29,263.83 a 2.57223,2.57223 112.35 0 1 1.54,3.15 23.1446,23.1446 -125.26 0 0 1.98,3.03 7.87903,7.87903 83.42 0 1 0.07,0.57 10.2627,10.2627 88.8 0 1 2.66,-7 186.161,186.161 87.91 0 1 1.33,-18.76 11.5893,11.5893 -92.13 0 0 -11.43,-10.33 16.7573,16.7573 -90 0 0 -6.44,1.78 10.3355,10.3355 -180 0 0 3.22,0.67 l 0,0 a 10.2861,10.2861 -180 0 0 2.66,-0.22 9.11379,9.11379 90 0 1 10.22,8.65 8.19278,8.19278 90 0 1 -12.88,-8.43 10.2861,10.2861 0 0 1 -3.22,-0.67 10.5245,10.5245 0 0 1 1.55,2.67 10.0427,10.0427 -180 0 0 12.44,8.43 11.7413,11.7413 90 0 1 -3.7,16.46 z"
             class="st11"
             id="path351"
             inkscape:connector-curvature="0"
             style="fill:#000000;stroke:#000000;stroke-width:1;stroke-linecap:round;stroke-linejoin:round" /></g><g
           id="shape148-133"
           v:mID="148"
           v:groupContext="shape"
           transform="matrix(-1,0,0,1,45.098,0)"
           style="fill:#000000"><title
             id="title354">Sheet.148</title><path
             d="m 10.29,263.83 a 2.57223,2.57223 112.35 0 1 1.54,3.15 23.1446,23.1446 -125.26 0 0 1.98,3.03 7.87903,7.87903 83.42 0 1 0.07,0.57 10.2627,10.2627 88.8 0 1 2.66,-7 186.161,186.161 87.91 0 1 1.33,-18.76 11.5893,11.5893 -92.13 0 0 -11.43,-10.33 16.7573,16.7573 -90 0 0 -6.44,1.78 10.3355,10.3355 -180 0 0 3.22,0.67 l 0,0 a 10.2861,10.2861 -180 0 0 2.66,-0.22 9.11379,9.11379 90 0 1 10.22,8.65 8.19278,8.19278 90 0 1 -12.88,-8.43 10.2861,10.2861 0 0 1 -3.22,-0.67 10.5245,10.5245 0 0 1 1.55,2.67 10.0427,10.0427 -180 0 0 12.44,8.43 11.7413,11.7413 90 0 1 -3.7,16.46 z"
             class="st11"
             id="path356"
             inkscape:connector-curvature="0"
             style="fill:#000000;stroke:#000000;stroke-width:1;stroke-linecap:round;stroke-linejoin:round" /></g></g></g></g></svg>