<?xml version="1.0" encoding="UTF-8" standalone="no"?>
<svg
   xmlns:dc="http://purl.org/dc/elements/1.1/"
   xmlns:cc="http://creativecommons.org/ns#"
   xmlns:rdf="http://www.w3.org/1999/02/22-rdf-syntax-ns#"
   xmlns:svg="http://www.w3.org/2000/svg"
   xmlns="http://www.w3.org/2000/svg"
   xmlns:sodipodi="http://sodipodi.sourceforge.net/DTD/sodipodi-0.dtd"
   xmlns:inkscape="http://www.inkscape.org/namespaces/inkscape"
   width="149.38208mm"
   height="153.65486mm"
   id="svg2543"
   sodipodi:version="0.32"
   inkscape:version="0.91 r13725"
   inkscape:output_extension="org.inkscape.output.svg.inkscape"
   sodipodi:docname="horse.svg"
   version="1.1">
  <metadata
     id="metadata2570">
    <rdf:RDF>
      <cc:Work
         rdf:about="">
        <dc:format>image/svg+xml</dc:format>
        <dc:type
           rdf:resource="http://purl.org/dc/dcmitype/StillImage" />
        <dc:title />
      </cc:Work>
    </rdf:RDF>
  </metadata>
  <defs
     id="defs2568">
    <inkscape:perspective
       sodipodi:type="inkscape:persp3d"
       inkscape:vp_x="-50 : 600 : 1"
       inkscape:vp_y="0 : 1000 : 0"
       inkscape:vp_z="700 : 600 : 1"
       inkscape:persp3d-origin="300 : 400 : 1"
       id="perspective2572" />
  </defs>
  <sodipodi:namedview
     inkscape:window-height="1388"
     inkscape:window-width="1248"
     inkscape:pageshadow="2"
     inkscape:pageopacity="0.0"
     guidetolerance="10.0"
     gridtolerance="10.0"
     objecttolerance="10.0"
     borderopacity="1.0"
     bordercolor="#666666"
     pagecolor="#ffffff"
     id="base"
     showgrid="false"
     inkscape:zoom="1.9780597"
     inkscape:cx="264.65328"
     inkscape:cy="272.22319"
     inkscape:window-x="3232"
     inkscape:window-y="24"
     inkscape:current-layer="svg2543"
     fit-margin-top="0"
     fit-margin-left="0"
     fit-margin-right="0"
     fit-margin-bottom="0"
     inkscape:window-maximized="0" />
  <!-- EMR_GDICOMMENT -->
  <!-- EMR_SETMAPMODE -->
  <!-- EMR_SETVIEWPORTEXTEX -->
  <!-- EMR_SETWINDOWEXTEX -->
  <!-- EMR_SETWINDOWEXTEX -->
  <!-- EMR_SETWINDOWEXTEX -->
  <!-- EMR_SETWINDOWEXTEX -->
  <g
     id="g4144"
     transform="translate(691.28678,25.813908)"
     style="fill:#000000">
    <path
       inkscape:connector-curvature="0"
       id="path2549"
       d="m -366.80978,517.90386 -3.18189,-0.76677 -3.06689,-0.80511 -2.99021,-0.88179 -2.95188,-0.88178 -2.83687,-0.95847 -2.79853,-0.9968 -2.7602,-1.03514 0.15335,-0.57508 0.23001,-0.61342 0.23002,-0.61342 0.30669,-0.61341 0.38336,-0.61342 0.38336,-0.65176 0.46003,-0.61341 0.49837,-0.65176 0.49837,-0.65176 0.5367,-0.65175 0.61338,-0.65176 0.61338,-0.65175 1.26509,-1.30351 1.34176,-1.30352 1.3801,-1.26517 1.41844,-1.22683 1.38009,-1.1885 1.3801,-1.11182 2.49185,-2.07028 2.07015,-1.6869 0.99673,-2.6837 0.88173,-2.30032 0.72839,-1.87859 0.69005,-1.57188 0.30669,-0.65175 0.30669,-0.61342 0.30669,-0.4984 0.34502,-0.4984 0.30669,-0.38339 0.34502,-0.38339 0.38336,-0.3067 0.38336,-0.26837 0.4217,-0.23004 0.46003,-0.19169 0.53671,-0.19169 0.5367,-0.15336 0.61338,-0.11501 0.65172,-0.11502 0.72838,-0.11501 0.76672,-0.11502 1.8018,-0.19169 2.14682,-0.26837 2.49184,-0.30671 2.91355,-0.46006 1.72512,-1.15016 1.72512,-1.1885 1.72513,-1.18849 1.76346,-1.15016 1.72512,-1.1885 1.72512,-1.18849 1.76346,-1.1885 1.76346,-1.15016 2.07015,-0.80511 2.07015,-0.80511 1.99347,-0.88178 1.99348,-0.92013 1.99348,-0.95846 1.99347,-0.99681 1.95514,-0.9968 1.95514,-1.03514 0.88173,-0.76677 0.76672,-0.80511 0.80506,-0.84345 0.76672,-0.84345 0.8434,-0.88179 0.88173,-0.92013 0.9584,-0.9968 1.07341,-1.03514 2.53018,-1.95527 2.7602,-1.9936 2.83687,-2.10863 2.83687,-2.14696 1.41843,-1.07348 1.41844,-1.11182 1.38009,-1.15015 1.34177,-1.15016 1.26509,-1.15016 1.26509,-1.18849 1.15008,-1.22684 1.07341,-1.22683 0.72839,-0.57508 0.65171,-0.57508 0.61338,-0.57508 0.49837,-0.61342 0.46003,-0.65175 0.38336,-0.65176 0.34502,-0.65175 0.26836,-0.6901 0.23001,-0.69009 0.19168,-0.6901 0.11501,-0.69009 0.0767,-0.72844 0,-0.72843 0,-0.69009 -0.0767,-0.72844 -0.0767,-0.72843 -0.15334,-0.72843 -0.19169,-0.6901 -0.19168,-0.72843 -0.23001,-0.69009 -0.30669,-0.72844 -0.26835,-0.69009 -0.34503,-0.65176 -0.34502,-0.69009 -0.34503,-0.65176 -0.42169,-0.61342 -0.38336,-0.65175 -0.4217,-0.57508 -0.4217,-0.61342 -0.46003,-0.53674 -0.46003,-0.53674 -0.46004,-0.53674 -1.26509,-0.88179 -1.26509,-0.80511 -1.26509,-0.80511 -1.26509,-0.80511 -2.53018,-1.45686 -2.45351,-1.41853 -2.49184,-1.34185 -2.45351,-1.34185 -2.49185,-1.26517 -2.49184,-1.30351 -2.49185,-2.30032 -2.49184,-2.30031 -2.45351,-2.30032 -2.45351,-2.30031 -2.37684,-2.33866 -2.37684,-2.30031 -2.3385,-2.33866 -2.30016,-2.37699 -2.22349,-2.33865 -2.2235,-2.37699 -2.14682,-2.41533 -2.10848,-2.377 -2.07015,-2.45367 -1.99347,-2.45367 -1.95514,-2.45366 -1.87847,-2.49201 -0.76672,-2.07029 -0.72839,-2.03194 -0.57504,-1.99361 -0.49837,-1.95526 -0.38336,-1.91693 -0.30669,-1.87859 -0.23002,-1.87859 -0.115,-1.80192 -0.0767,-1.80191 0.0383,-1.76358 0.15334,-1.76357 0.19169,-1.6869 0.26835,-1.72523 0.34502,-1.64856 0.38336,-1.64856 0.49837,-1.64856 0.53671,-1.61022 0.61337,-1.61022 0.65172,-1.57188 0.72838,-1.57189 0.76672,-1.57188 0.80506,-1.57188 0.88173,-1.53354 0.92007,-1.53355 0.92006,-1.53354 0.99674,-1.53354 1.03508,-1.53355 1.07341,-1.53354 2.22349,-3.06709 2.3385,-3.06708 0,-0.57508 0,-0.57508 0,-0.57508 0,-0.4984 -1.07341,-0.53674 -0.65171,-0.26837 -0.30669,-0.0767 -0.30669,0 -0.34503,-0.0383 -0.46003,0 -1.87847,2.26198 -1.76346,2.1853 -1.64845,2.14696 -1.53344,2.07028 -0.72839,1.07348 -0.69005,1.03515 -0.65171,1.03514 -0.65171,1.03514 -0.65172,1.03514 -0.57504,1.03514 -0.57504,1.07348 -0.57504,1.03514 -0.5367,1.11182 -0.49837,1.07348 -0.46004,1.11182 -0.49836,1.11182 -0.4217,1.15016 -0.4217,1.15016 -0.4217,1.18849 -0.38336,1.22684 -0.34502,1.22683 -0.34503,1.26517 -0.30668,1.30352 -0.30669,1.34185 -0.30669,1.38019 -0.26835,1.41852 -0.26836,1.45687 -0.23001,1.4952 -2.41518,-0.38338 -2.37683,-0.38339 -2.41518,-0.38338 -2.37683,-0.38339 -2.41518,-0.38339 -2.37683,-0.38338 -2.37684,-0.38339 -2.41517,-0.34504 -2.37684,-0.38339 -2.41517,-0.38339 -2.37684,-0.38338 -2.37684,-0.38339 -2.37683,-0.38338 -2.37684,-0.38339 -2.37684,-0.38338 -2.37683,-0.34505 -7.51387,-1.80192 -7.55221,-1.84025 -3.75694,-0.95846 -3.75693,-0.95847 -3.7186,-0.9968 -3.75694,-1.03514 -3.7186,-1.07348 -3.75693,-1.11182 -3.68027,-1.11182 -3.7186,-1.15016 -3.68026,-1.22683 -3.64193,-1.22684 -3.64192,-1.26517 -3.64193,-1.34185 -3.56526,-1.34185 -3.60359,-1.41853 -3.52692,-1.4952 -3.52692,-1.49521 -3.48858,-1.57188 -3.45025,-1.64856 -3.41191,-1.64856 -3.37357,-1.76357 -3.33524,-1.80191 -3.33524,-1.84026 -3.25856,-1.95526 -3.22024,-1.99361 -3.18189,-2.07028 -3.10522,-2.14696 -3.10522,-2.1853 -3.02855,-2.30032 -0.0383,-0.4984 -0.0383,-0.4984 0,-0.46006 0.0383,-0.49841 0.0383,-0.46006 0.0383,-0.46006 0.11501,-0.46007 0.0767,-0.46006 0.26835,-0.92012 0.34503,-0.88179 0.34502,-0.84345 0.4217,-0.88179 0.9584,-1.6869 1.03508,-1.68689 1.03507,-1.6869 0.9584,-1.72524 0.53671,-1.53354 0.38336,-1.22683 0.34502,-0.99681 0.26836,-0.92012 0.23001,-0.92013 0.26835,-1.07348 0.30669,-1.30351 0.34503,-1.6869 -0.0767,-0.15335 -0.11501,-0.15336 -0.11501,-0.11501 -0.15334,-0.11502 -0.34503,-0.11501 -0.30669,-0.0767 -0.57504,0.0383 -0.30669,0 -1.68679,3.52715 -1.57177,3.33545 -0.80506,1.61022 -0.76672,1.53355 -0.8434,1.57188 -0.84339,1.4952 -0.88173,1.49521 -0.92007,1.45686 -0.99673,1.45687 -1.03508,1.45687 -1.11175,1.41852 -1.22675,1.45687 -1.26509,1.41853 -1.41843,1.45686 -2.99022,0.0767 -3.02855,-0.0383 -2.99021,-0.15335 -2.99022,-0.26837 -2.95188,-0.38339 -2.95187,-0.46006 -2.95188,-0.53674 -2.95188,-0.61342 -2.95188,-0.65175 -2.91354,-0.76678 -2.95188,-0.80511 -2.91354,-0.84345 -2.91354,-0.88178 -2.91354,-0.92013 -2.91354,-0.92012 -2.87521,-0.95847 -5.78875,-1.95527 -5.78875,-1.91693 -2.8752,-0.95846 -2.91354,-0.92013 -2.87521,-0.88178 -2.8752,-0.84345 -2.91355,-0.76677 -2.8752,-0.76678 -2.87521,-0.65175 -2.8752,-0.61342 -2.91355,-0.53674 -2.8752,-0.42172 -2.91354,-0.34505 -2.91355,-0.26837 -0.49836,0.4984 -0.49837,0.4984 0.19168,2.95207 0.19168,2.60703 0.15334,2.26197 0.15335,2.03195 0.115,1.76357 0.11501,1.61022 0.11501,1.45687 0.11501,1.34185 0.11501,1.26517 0.11501,1.26518 0.115,1.26517 0.11501,1.34185 0.15335,1.41853 0.19168,1.53354 0.19168,1.76357 0.23001,1.95527 1.11175,-1.11182 1.11175,-1.18849 1.15008,-1.1885 1.15008,-1.15016 0.61338,-0.4984 0.65171,-0.4984 0.65171,-0.42172 0.69005,-0.38339 0.34503,-0.19169 0.34502,-0.15336 0.38336,-0.11501 0.38336,-0.15336 0.38337,-0.0767 0.38336,-0.0767 0.42169,-0.0767 0.4217,0 0,1.45687 0,1.45686 0.0383,1.49521 0.0383,1.45686 0,1.49521 0.0383,1.45687 0.0383,1.45686 0.0767,1.49521 0.49837,-0.15336 0.46003,-0.11501 0.38336,-0.0767 0.4217,-0.0383 1.15008,-0.0383 1.87847,0.0767 0.0767,0.80511 0.0383,0.76677 -0.0383,0.84345 -0.11501,0.80511 -0.11501,0.84345 -0.19168,0.88179 -0.19168,0.84344 -0.23002,0.84345 -0.5367,1.72524 -0.57504,1.72524 -0.61338,1.72523 -0.5367,1.64856 0.23001,0 0.19168,-0.0383 0.19168,-0.0383 0.19168,-0.0767 0.38336,-0.1917 0.38337,-0.23003 0.76672,-0.57508 0.84339,-0.65175 0.4217,-0.30671 0.46003,-0.30671 0.49837,-0.26837 0.5367,-0.26837 0.57505,-0.15335 0.65171,-0.15336 0.34502,0 0.34503,-0.0383 0.34502,0 0.38336,0.0383 0,1.72524 0,1.6869 -0.0383,1.64855 -0.0383,1.6869 -0.0383,1.6869 -0.11501,1.6869 -0.15335,1.72523 -0.15334,1.72524 0.4217,0.61342 0.42169,0.69009 0.4217,0.76677 0.46003,0.88179 0.4217,0.92013 0.4217,0.95846 0.38336,1.03514 0.38336,1.07348 1.61011,0.0383 1.61012,0 1.61011,0.0383 1.64845,0 1.61012,0.0383 1.64845,0.0383 1.64845,0.0383 1.64845,0.0383 0.26836,0.92013 0.19168,0.9968 0.15334,1.07348 0.0767,1.15016 0.0383,1.1885 -0.0383,1.26517 -0.0767,1.30351 -0.15334,1.34185 -0.19168,1.41853 -0.23002,1.41853 -0.26835,1.45686 -0.30669,1.49521 -0.34503,1.4952 -0.38336,1.53355 -0.42169,1.4952 -0.4217,1.57188 -0.9584,3.06709 -0.99674,3.02875 -1.03507,2.95207 -1.07342,2.79871 -1.03507,2.68371 -1.03507,2.45366 -0.95841,2.22364 -0.92006,1.95527 -0.92007,1.26517 -0.92006,1.26518 -0.92007,1.30351 -0.92006,1.34185 -0.76673,0 -0.72838,0 -0.72839,0 -0.69005,0 -1.53344,-2.72204 -1.49511,-2.60702 -0.72838,-1.26518 -0.72839,-1.22683 -0.76672,-1.22684 -0.72838,-1.15015 -0.76673,-1.15016 -0.80505,-1.11182 -0.80506,-1.11182 -0.84339,-1.07348 -0.88173,-1.03514 -0.88173,-0.9968 -0.95841,-0.99681 -0.99673,-0.95846 -2.33851,-0.34505 -2.03181,-0.34505 -0.84339,-0.15335 -0.80506,-0.19169 -0.69005,-0.23004 -0.65171,-0.19169 -0.57504,-0.23003 -0.49837,-0.26837 -0.4217,-0.26837 -0.38336,-0.26837 -0.30669,-0.30671 -0.26835,-0.34505 -0.19168,-0.38338 -0.19168,-0.38339 -0.11501,-0.46006 -0.0767,-0.46006 -0.0767,-0.49841 0,-0.53674 0.0383,-1.22683 0.11501,-1.38019 0.15335,-1.61022 0.19168,-1.80191 0.19168,-2.07029 0.15334,-2.30031 -0.72839,-1.72524 -0.69004,-1.57188 -0.65172,-1.41853 -0.69005,-1.30351 -0.69005,-1.18849 -0.72838,-1.07348 -0.72839,-1.03515 -0.72838,-0.92012 -0.80506,-0.92013 -0.84339,-0.84345 -0.88173,-0.84345 -0.92007,-0.88178 -2.10849,-1.72524 -2.37683,-1.91693 -1.57178,-0.80511 -1.41844,-0.84345 -1.30343,-0.80511 -1.18841,-0.88178 -1.03508,-0.88179 -0.92006,-0.88179 -0.80506,-0.92013 -0.72839,-0.92012 -0.61337,-0.95847 -0.49837,-0.95846 -0.4217,-0.9968 -0.30669,-1.03515 -0.26835,-1.03514 -0.15335,-1.03514 -0.115,-1.07348 -0.0383,-1.11182 0.0383,-1.11182 0.0767,-1.11182 0.11501,-1.15015 0.19168,-1.1885 0.19168,-1.1885 0.26835,-1.22683 0.26835,-1.22683 0.30669,-1.26518 0.65171,-2.56868 0.69005,-2.6837 0.65172,-2.76038 0.65171,-2.83706 -0.0383,-1.84025 -0.115,-1.84025 -0.15335,-1.84025 -0.19168,-1.84025 -0.26835,-1.84026 -0.30669,-1.84025 -0.30669,-1.84025 -0.38336,-1.84025 -0.38336,-1.80191 -0.4217,-1.84026 -0.46003,-1.76357 -0.4217,-1.76358 -0.46003,-1.76357 -0.46003,-1.6869 -0.46004,-1.6869 -0.46003,-1.68689 0.0767,-0.92013 0.11501,-0.88179 0.0767,-0.88178 0.15335,-0.88179 0.15334,-0.80511 0.15335,-0.80511 0.19168,-0.80511 0.19168,-0.76677 0.23001,-0.72844 0.23002,-0.72843 0.23002,-0.72843 0.26835,-0.72844 0.57504,-1.38019 0.61338,-1.34185 0.69005,-1.30351 0.72838,-1.34185 0.76672,-1.30351 0.80506,-1.34185 1.76346,-2.76038 1.87847,-2.99041 0.76672,-0.61341 0.76672,-0.53674 0.80506,-0.46007 0.80506,-0.42172 0.80506,-0.38339 0.84339,-0.30671 0.88173,-0.26837 0.8434,-0.19169 0.88173,-0.19169 0.88173,-0.11502 0.88173,-0.11501 0.92006,-0.0383 0.92007,0 0.92006,0 0.92007,0.0383 0.9584,0.0767 1.87847,0.23003 1.9168,0.26837 1.91681,0.34505 1.95514,0.42173 1.95514,0.42172 1.95514,0.42173 1.95514,0.38338 1.9168,0.34505 0.9584,0.15335 1.34177,0.1917 1.68678,0.26837 1.91681,0.3067 2.14682,0.30671 2.26183,0.30671 2.41517,0.26837 2.41517,0.26837 1.22676,0.0767 1.22675,0.0767 1.18842,0.0767 1.18842,0.0383 1.11174,0 1.11175,0 1.07341,-0.0383 0.99674,-0.0767 0.9584,-0.11502 0.88173,-0.15335 0.84339,-0.1917 0.72839,-0.23003 0.65171,-0.26837 0.57504,-0.34505 0.46004,-0.34504 0.34502,-0.46007 -0.49837,-0.23003 -0.49837,-0.26837 -0.46003,-0.23003 -0.4217,-0.26837 -0.26835,-1.91693 -0.26835,-1.91693 -0.26836,-1.91693 -0.26835,-1.91693 -0.23001,-1.87859 -0.26836,-1.87859 -0.23001,-1.87859 -0.23002,-1.87859 -0.23002,-1.87859 -0.19168,-1.87859 -0.15334,-1.84025 -0.15334,-1.87859 -0.11501,-1.84025 -0.0767,-1.84025 -0.0767,-1.8786 0,-1.84025 0.11501,-0.53674 0.15335,-0.4984 0.15334,-0.53674 0.23002,-0.53674 0.46003,-0.9968 0.49837,-0.99681 1.15008,-1.91692 1.15008,-1.80192 0.49837,-0.88179 0.4217,-0.84344 0.19168,-0.42173 0.15334,-0.42172 0.11501,-0.42173 0.11501,-0.38338 0.0383,-0.42173 0.0383,-0.38338 0,-0.38339 -0.0767,-0.38338 -0.11501,-0.38339 -0.15334,-0.34505 -0.19168,-0.38338 -0.23002,-0.34505 -0.4217,0 -0.42169,0 -0.4217,0 -0.4217,0 -1.41843,1.45687 -1.22676,1.34185 -0.57504,0.65175 -0.49837,0.61342 -0.46003,0.61342 -0.4217,0.61341 -0.38336,0.57508 -0.34502,0.61342 -0.30669,0.57508 -0.30669,0.57508 -0.26835,0.57508 -0.23002,0.57507 -0.19168,0.57508 -0.15334,0.61342 -0.15335,0.57508 -0.15334,0.61342 -0.11501,0.65175 -0.0767,0.65176 -0.11501,1.34185 -0.0767,1.45686 -0.0767,3.33546 0.0383,3.94888 0.30669,2.64536 0.34502,2.64536 0.34503,2.6837 0.34502,2.6837 0.34503,2.6837 0.30669,2.6837 0.34502,2.6837 0.34503,2.6837 -1.72513,0.0383 -2.03181,0.0383 -2.22349,0 -2.30017,-0.0383 -1.11174,-0.0383 -1.11175,-0.0767 -1.03507,-0.0767 -0.9584,-0.11502 -0.88173,-0.15335 -0.80506,-0.19169 -0.34503,-0.11502 -0.30669,-0.11502 -0.26835,-0.11501 -0.26835,-0.15336 -0.80506,-3.29711 -0.80506,-3.29712 -0.84339,-3.29712 -0.88173,-3.25878 -0.88173,-3.29712 -0.92006,-3.25878 -0.92007,-3.25878 -0.92007,-3.22044 -0.9584,-3.22044 -0.99674,-3.22044 -0.9584,-3.1821 -0.99674,-3.1821 -0.99673,-3.14377 -0.99674,-3.14376 -1.03508,-3.10543 -0.99673,-3.10542 -0.99674,-1.84025 -0.76672,-1.41853 -0.61338,-1.07348 -0.49837,-0.88179 -0.46003,-0.69009 -0.46004,-0.65176 -0.49836,-0.69009 -0.65172,-0.80511 -1.64845,-0.4984 -1.57178,-0.46007 -1.49511,-0.42172 -1.38009,-0.34505 -1.34177,-0.30671 -1.22675,-0.23003 -1.18842,-0.19169 -1.11175,-0.15336 -1.03507,-0.11501 -0.95841,-0.0383 -0.92006,0.0383 -0.88173,0.0767 -0.8434,0.11501 -0.76672,0.19169 -0.72838,0.23004 -0.72839,0.3067 -0.65171,0.34505 -0.65171,0.42173 -0.61338,0.46006 -0.61338,0.53674 -0.61338,0.61342 -0.57504,0.65175 -0.5367,0.72844 -0.57504,0.80511 -0.57504,0.84344 -0.57505,0.92013 -0.57504,0.9968 -0.61337,1.03515 -1.22676,2.30031 -1.34176,2.56868 -1.18842,0.6901 -1.26509,0.72843 -0.65171,0.34505 -0.61338,0.34505 -0.61338,0.38338 -0.57504,0.42173 -0.5367,0.42172 -0.49837,0.42173 -0.46004,0.4984 -0.38336,0.4984 -0.15334,0.30671 -0.15335,0.26837 -0.115,0.30671 -0.11501,0.30671 -0.0767,0.3067 -0.0767,0.34505 -0.0383,0.34505 0,0.34505 0.76672,0.23003 0.9584,0.23003 0.99674,0.23003 1.07341,0.23003 1.07341,0.23003 1.03507,0.26837 0.49837,0.15336 0.49837,0.19169 0.46003,0.15335 0.4217,0.1917 0.38336,0.19169 0.34503,0.23003 0.26835,0.23003 0.26835,0.26837 0.15335,0.26837 0.15334,0.26837 0.0383,0.30671 0,0.34505 -0.11501,0.34505 -0.19168,0.38338 -0.23002,0.38339 -0.38336,0.42172 -0.4217,0.46007 -0.57504,0.4984 -0.65171,0.4984 -0.76672,0.53674 -1.15008,0.46006 -1.07341,0.46006 -1.07342,0.49841 -1.03507,0.4984 -0.99674,0.57508 -0.9584,0.61341 -0.46003,0.34505 -0.46003,0.34505 -0.46004,0.38338 -0.42169,0.42173 1.80179,0 1.64845,-0.0767 0.76672,-0.0383 0.76673,0 0.76672,0 0.72838,0.0383 0.72839,0.0767 0.72838,0.11501 0.72839,0.1917 0.76672,0.23003 0.76672,0.30671 0.80506,0.42172 0.80506,0.4984 0.88173,0.61342 0,0.34505 0,0.38338 -0.0383,0.34505 -0.0767,0.34505 -0.11501,0.30671 -0.11501,0.30671 -0.15334,0.26837 -0.19168,0.3067 -0.19168,0.26837 -0.23002,0.23004 -0.23002,0.26837 -0.26835,0.23003 -0.57504,0.46006 -0.57504,0.42172 -1.30343,0.76678 -1.34176,0.76677 -0.61338,0.38338 -0.61337,0.38339 -0.53671,0.38339 -0.46003,0.42172 -0.0767,0.76677 -0.11501,0.6901 -0.11501,0.61341 -0.19168,0.57508 -0.19168,0.4984 -0.23002,0.49841 -0.26835,0.42172 -0.26835,0.42172 -0.34503,0.38339 -0.38336,0.34505 -0.38336,0.30671 -0.46003,0.34504 -0.49837,0.30671 -0.53671,0.30671 -0.57504,0.30671 -0.65171,0.30671 -0.76672,0.76677 -0.92007,0.88179 -0.9584,0.92012 -0.99674,0.99681 -0.46003,0.4984 -0.4217,0.53674 -0.38336,0.53674 -0.34502,0.53674 -0.26836,0.53674 -0.23001,0.57508 -0.0767,0.30671 -0.0767,0.26837 0,0.3067 -0.0383,0.26837 1.07341,1.11182 0.9584,0.95847 0.4217,0.46006 0.38336,0.42172 0.34502,0.46007 0.34503,0.42172 0.30668,0.46007 0.26836,0.53674 0.23001,0.53674 0.23002,0.57507 0.19168,0.6901 0.15334,0.72843 0.15335,0.80511 0.11501,0.92013 -0.38336,0.80511 -0.38336,0.76677 -0.46004,0.72843 -0.46003,0.72844 -0.53671,0.69009 -0.5367,0.69009 -0.57504,0.65176 -0.61338,0.65176 -0.65171,0.61341 -0.69005,0.57508 -0.69005,0.57508 -0.72839,0.57508 -0.72838,0.53674 -0.76672,0.4984 -0.76672,0.4984 -0.80506,0.46007 -0.80506,0.4984 -0.84339,0.42172 -0.80506,0.42173 -0.8434,0.42172 -1.68678,0.76677 -1.68679,0.6901 -1.68679,0.65175 -1.68678,0.57508 -1.61012,0.53674 -1.57178,0.46006 -1.64845,0.0383 -1.53344,-0.0383 -0.69005,-0.0383 -0.69005,-0.0383 -0.69005,-0.0767 -0.61338,-0.11502 -0.61338,-0.0767 -0.61337,-0.15336 -0.57504,-0.11501 -0.53671,-0.1917 -1.07341,-0.34504 -1.03507,-0.42173 -0.99674,-0.4984 -0.9584,-0.53674 -0.92007,-0.61342 -0.9584,-0.65175 -1.99348,-1.45687 -2.14682,-1.61022 0.0383,-0.57508 0.0383,-0.53674 0.0383,-0.53674 0.0767,-0.57508 0.19168,-1.07348 0.26836,-1.11182 0.57504,-2.14696 0.65171,-2.14696 0.26835,-1.03514 0.23002,-1.03514 0.19168,-0.9968 0.0767,-0.99681 0.0383,-0.46006 0,-0.4984 -0.0383,-0.46006 -0.0383,-0.46007 -0.11501,-0.42172 -0.11501,-0.46006 -0.15335,-0.42173 -0.19168,-0.42172 0.0767,-0.6901 0.0767,-0.65175 0.15334,-0.65176 0.11501,-0.65175 0.34503,-1.26518 0.38336,-1.22683 0.42169,-1.22684 0.46004,-1.18849 0.49837,-1.1885 0.49836,-1.1885 0.49837,-1.18849 0.46004,-1.1885 0.46003,-1.15015 0.4217,-1.1885 0.38336,-1.1885 0.30669,-1.22683 0.115,-0.61342 0.11501,-0.61342 0.0767,-0.61341 0.0767,-0.61342 -0.57505,-2.91373 -0.57504,-2.6837 -0.26835,-1.26518 -0.23002,-1.22683 -0.19168,-1.1885 -0.15334,-1.22683 -0.11501,-1.15016 -0.0383,-1.1885 0.0383,-1.18849 0.0767,-1.15016 0.0767,-0.61342 0.115,-0.61341 0.11501,-0.61342 0.15335,-0.61342 0.15334,-0.61342 0.19168,-0.65175 0.19168,-0.65176 0.26835,-0.65175 1.07341,-1.38019 1.07341,-1.34185 1.11175,-1.34185 1.07341,-1.34185 2.26183,-2.56869 2.26183,-2.53034 2.3385,-2.45367 2.3385,-2.41533 2.37684,-2.377 2.41517,-2.33865 2.45351,-2.30032 2.45351,-2.26197 2.49184,-2.26198 2.56852,-2.26197 2.53018,-2.26198 2.60685,-2.26198 2.60686,-2.26197 2.64519,-2.26198 1.84013,-2.30031 1.80179,-2.22364 1.72513,-2.14696 1.68678,-2.03195 0.8434,-0.9968 0.84339,-0.95846 0.8434,-0.92013 0.88173,-0.88179 0.84339,-0.84345 0.88173,-0.80511 0.92007,-0.80511 0.88172,-0.72843 0.95841,-0.69009 0.9584,-0.6901 0.99674,-0.61342 0.99673,-0.57508 1.07341,-0.4984 1.11175,-0.4984 1.11175,-0.42172 1.18842,-0.38339 1.22675,-0.34505 1.26509,-0.26837 1.34177,-0.23003 1.3801,-0.15335 1.41843,-0.11502 1.53344,-0.0383 1.57178,0 1.61012,0.0767 1.68679,1.30351 1.72512,1.30351 1.72512,1.34185 1.72513,1.41853 1.76346,1.45687 1.76346,1.4952 1.76345,1.61022 1.76346,1.72524 1.26509,2.60702 1.22676,2.64537 1.22675,2.60702 1.22676,2.64536 1.26509,2.60702 1.30343,2.60703 0.69004,1.26517 0.72839,1.22684 0.72839,1.26517 0.72838,1.1885 0.80506,1.18849 0.80506,1.1885 0.84339,1.15015 0.88173,1.11182 0.92007,1.11182 0.9584,1.03514 0.99674,1.03515 1.07341,0.9968 1.07341,0.95846 1.15008,0.88179 1.22675,0.88179 1.26509,0.84345 1.30343,0.76677 1.3801,0.72843 1.45677,0.6901 1.49511,0.65175 0.15334,-0.0383 0.15335,-0.0767 0.15334,-0.15336 0.19168,-0.23003 0.4217,-0.53674 0.49837,-0.72843 0.49837,-0.88179 0.5367,-0.95846 0.57504,-1.03515 0.53671,-1.11182 1.07341,-2.18529 0.9584,-1.99361 0.69005,-1.57188 0.42169,-0.84345 1.64846,-2.45367 1.68678,-2.33865 0.88173,-1.11182 0.88173,-1.07348 0.92007,-0.99681 0.9584,-0.95846 0.49837,-0.46006 0.49837,-0.42173 0.5367,-0.42172 0.53671,-0.42173 0.5367,-0.38338 0.57505,-0.34505 0.57504,-0.34505 0.61337,-0.30671 0.61338,-0.3067 0.65171,-0.26837 0.65172,-0.23004 0.69005,-0.23003 0.72838,-0.19169 0.69005,-0.15335 0.76672,-0.15336 0.76672,-0.11501 0.4217,-2.72204 0.4217,-2.53035 0.46003,-2.41533 0.46003,-2.26198 0.46004,-2.14696 0.5367,-2.07028 0.57504,-1.99361 0.65172,-1.95527 0.72838,-1.91692 0.76672,-1.87859 0.88173,-1.91693 0.95841,-1.95527 1.07341,-1.99361 1.18841,-2.03194 1.30343,-2.14696 1.45677,-2.26198 3.83361,-4.02555 3.41191,-3.56549 2.95188,-3.10542 2.60685,-2.76038 2.22349,-2.37699 1.95514,-2.10863 1.68679,-1.76357 1.41844,-1.57188 1.22675,-1.34185 1.07341,-1.15016 0.9584,-1.03514 0.88173,-0.95847 0.80506,-0.88178 0.76672,-0.84345 0.80506,-0.84345 0.88173,-0.920134 0.49837,-1.41852 0.49837,-1.38019 0.49837,-1.34185 0.49837,-1.38019 3.06688,0 3.02855,-0.07668 1.53344,-0.07668 1.49511,-0.11501 1.53344,-0.11502 1.53345,-0.11501 1.53344,-0.1917 1.53344,-0.19169 1.53345,-0.23003 1.53344,-0.30671 1.57178,-0.30671 1.57178,-0.34505 1.61011,-0.38338 1.61012,-0.46007 0.9584,-0.46006 1.07341,-0.57508 1.15008,-0.65175 1.22676,-0.72844 1.30342,-0.80511 1.30343,-0.84344 1.26509,-0.92013 1.26509,-0.9968 0.61338,-0.49841 0.61338,-0.4984 0.57504,-0.53674 0.5367,-0.53674 0.53671,-0.53674 0.49837,-0.53674 0.46003,-0.57508 0.4217,-0.53674 0.38336,-0.57508 0.38336,-0.57507 0.26835,-0.57508 0.26835,-0.57508 0.19168,-0.61342 0.15335,-0.57508 0.11501,-0.57508 0.0383,-0.61341 -0.46003,-0.30671 -0.4217,-0.23003 -0.38336,-0.1917 -0.38336,-0.15335 -0.38336,-0.11502 -0.34502,-0.03834 -0.34503,-0.03833 -0.34502,0.03833 -0.30669,0.07668 -0.30669,0.11502 -0.30669,0.11501 -0.26835,0.1917 -0.30669,0.19169 -0.26835,0.23003 -0.26836,0.26837 -0.23001,0.26837 -0.53671,0.61342 -0.46003,0.65175 -0.49837,0.72844 -0.49837,0.72843 -0.46003,0.76677 -0.49837,0.72843 -0.49837,0.6901 -0.5367,0.61342 -0.92007,0.69009 -0.88173,0.61342 -0.92007,0.61342 -0.9584,0.53674 -0.9584,0.4984 -0.9584,0.46006 -0.99674,0.46006 -0.99674,0.38339 -1.03507,0.38338 -0.99674,0.30671 -1.03507,0.30671 -1.03508,0.26837 -1.03507,0.26837 -1.03508,0.23003 -1.07341,0.1917 -1.07341,0.15335 -2.10848,0.30671 -2.10848,0.19169 -2.14683,0.15336 -2.10848,0.11501 -2.07015,0.03834 -2.07015,0 -2.03181,0.03834 -1.99347,0 -1.30343,-0.72843 -1.30343,-0.72844 -1.26509,-0.69009 -1.30342,-0.72843 -1.30343,-0.72844 -1.26509,-0.69009 -1.30343,-0.72843 -1.26509,-0.72844 -3.33524,0.88179 -3.33524,0.88179 -3.33523,0.80511 -3.29691,0.80511 -3.25856,0.76677 -3.22023,0.69009 -3.1819,0.65176 -3.14356,0.57508 -0.9584,1.6869 -0.99674,1.61022 -0.49837,0.76677 -0.5367,0.76677 -0.53671,0.76677 -0.57504,0.6901 -0.57504,0.72843 -0.57504,0.69009 -0.61338,0.65176 -0.61337,0.61342 -0.61338,0.61341 -0.65172,0.57508 -0.65171,0.536744 -0.69005,0.53674 -0.69005,0.46007 -0.69005,0.46006 -0.72838,0.38338 -0.76672,0.38339 -0.76673,0.34505 -0.76672,0.26837 -0.80505,0.26837 -0.8434,0.19169 -0.84339,0.15336 -0.8434,0.11501 -0.88173,0.0767 -0.92006,0.0383 -0.92007,-0.0383 -0.92006,-0.0767 -0.9584,-0.15335 -0.99674,-0.1917 -0.8434,-0.65175 -0.69005,-0.57508 -0.57504,-0.46006 -0.49837,-0.42173 -0.38336,-0.42172 -0.30669,-0.42173 -0.26835,-0.460064 -0.26835,-0.4984 -0.84339,-0.19169 -0.80506,-0.15336 -0.80506,-0.11501 -0.84339,-0.15336 -0.80506,-0.11501 -0.80506,-0.15336 -0.80506,-0.11501 -0.76672,-0.15336 -0.0767,-1.34185 0.0767,-1.26517 0.19168,-1.22684 0.26836,-1.11182 0.38336,-1.03514 0.46003,-0.95846 0.5367,-0.92013 0.61338,-0.84345 0.72839,-0.80511 0.76672,-0.72843 0.84339,-0.65176 0.88173,-0.65175 0.9584,-0.57508 0.99674,-0.57508 1.07341,-0.4984 1.07341,-0.4984 1.11175,-0.46007 1.15008,-0.42172 1.15008,-0.42172 1.18842,-0.38339 2.37684,-0.76677 2.37684,-0.76677 2.3385,-0.76678 2.26182,-0.80511 1.07341,-0.46006 1.03508,-0.46006 0.99674,-0.46006 0.9584,-0.53674 0,-0.57508 -0.0383,-0.42173 -0.0767,-0.38338 -0.0767,-0.30671 -0.15335,-0.23003 -0.15334,-0.26837 -0.23002,-0.23004 -0.26835,-0.26837 -1.07341,-0.07667 -1.07341,0 -1.03507,0.07667 -1.07341,0.15336 -1.07341,0.19169 -1.07341,0.23003 -1.03508,0.30671 -1.07341,0.34505 -2.07015,0.72843 -2.10848,0.84345 -2.07015,0.84345 -2.03181,0.80511 -0.99674,0.38339 -0.99674,0.34504 -0.99674,0.30671 -0.9584,0.26837 -0.9584,0.23003 -0.9584,0.1917 -0.9584,0.07667 -0.92007,0.03834 -0.92006,0 -0.92007,-0.15335 -0.88173,-0.1917 -0.88173,-0.3067 -0.88173,-0.38339 -0.84339,-0.53674 -0.8434,-0.61342 -0.80506,-0.72843 -1.41843,-0.11502 -1.26509,-0.07667 -1.07341,-0.07668 -0.92007,-0.15335 -0.42169,-0.07668 -0.38336,-0.07668 -0.34503,-0.11501 -0.30669,-0.11502 -0.26835,-0.11502 -0.26835,-0.15335 -0.19168,-0.15335 -0.19168,-0.15336 -0.19168,-0.19169 -0.15335,-0.23003 -0.11501,-0.23003 -0.115,-0.26837 -0.0767,-0.26837 -0.0767,-0.30671 -0.0383,-0.34505 -0.0383,-0.34505 -0.0383,-0.84345 0.0383,-0.92012 0.0383,-1.07348 0.0767,-1.22684 0.84339,-1.61022 0.88173,-1.57188 0.9584,-1.57188 0.92007,-1.53355 0.84339,-1.53354 0.80506,-1.4952 0.38336,-0.72844 0.30669,-0.72843 0.30669,-0.72843 0.26835,-0.72844 -0.34502,-2.87539 -0.26836,-2.07028 -0.0767,-0.76677 0,-0.65176 0,-0.30671 0.0383,-0.26837 0.0383,-0.26837 0.0767,-0.23003 0.0767,-0.23003 0.15334,-0.19169 0.11501,-0.23004 0.19168,-0.23003 0.4217,-0.42172 0.5367,-0.46006 1.49511,-1.188501 2.14682,-1.61022 1.41843,-0.345048 1.41844,-0.383385 1.41843,-0.421725 1.45678,-0.421724 1.41843,-0.460063 1.41844,-0.460063 1.45677,-0.498402 1.41843,-0.53674 2.83687,-1.07348 2.83687,-1.188496 2.83687,-1.226835 2.79853,-1.303512 2.79854,-1.34185 2.79853,-1.418527 2.7602,-1.418528 2.72186,-1.456866 2.72186,-1.456866 2.68353,-1.495205 2.64519,-1.456866 2.64519,-1.495205 1.03507,-0.728433 0.99674,-0.728433 0.9584,-0.80511 0.88173,-0.766772 1.76346,-1.571881 1.72512,-1.571882 0.88173,-0.766772 0.88173,-0.766771 0.92007,-0.728434 0.92006,-0.690094 0.99674,-0.690094 1.03508,-0.613418 1.07341,-0.575079 1.18841,-0.53674 1.30343,0.03834 1.30343,0.03834 1.30342,0.03834 1.30343,0.07668 1.30343,0.03834 1.30342,0.07668 1.30343,0.07668 1.30343,0.07668 1.22675,-0.345047 1.18842,-0.383386 1.15008,-0.345047 1.11175,-0.421724 1.07341,-0.421725 1.03507,-0.460063 1.03508,-0.498401 0.99674,-0.53674 0.9584,-0.575079 0.9584,-0.613417 0.9584,-0.690095 0.92007,-0.7284334 0.92006,-0.80511 0.9584,-0.881788 0.92007,-0.958464 0.9584,-0.996803 -0.15334,-4.715646 -0.0767,-3.795519 0.0383,-0.843449 0.0383,-0.766772 0.0383,-0.690094 0.11501,-0.690095 0.11501,-0.613417 0.15335,-0.613417 0.19168,-0.53674 0.23001,-0.536741 0.26835,-0.460063 0.30669,-0.460063 0.38336,-0.421724 0.38336,-0.383386 0.49837,-0.383386 0.53671,-0.3450466 0.57504,-0.306708 0.65171,-0.306709 0.72839,-0.26837 0.80506,-0.26837 0.84339,-0.26837 0.9584,-0.26837 0.99674,-0.230032 1.11175,-0.230031 1.18841,-0.230032 1.30343,-0.191693 1.34176,0.191693 1.30343,0.26837 1.26509,0.306709 1.26509,0.345047 1.30343,0.421724 1.30342,0.536741 1.3801,0.575078 1.45677,0.6900946 1.53345,-1.4952046 1.3801,-1.34185 1.34176,-1.188496 1.30343,-1.111819 0.65171,-0.53674 0.69005,-0.498402 0.69005,-0.53674 0.72838,-0.498402 1.57178,-1.035141 1.8018,-1.035142 0.4217,-1.150157 0.38336,-0.920126 0.30668,-0.766772 0.30669,-0.651756 0.30669,-0.690094 0.38336,-0.766772 0.49837,-0.958465 0.65171,-1.188496 0.30669,0 0.34503,0 0.38336,0 0.4217,0 1.11174,1.571882 1.15008,1.571882 1.15009,1.571882 1.11174,1.61022 1.15009,1.571882 1.15008,1.610221 1.18842,1.571882 1.15008,1.61022 1.64845,0 1.68679,0.07668 1.68678,0.07668 1.72513,0.07668 1.72512,0.115016 1.72512,0.153355 1.76346,0.153354 1.76346,0.115016 1.76346,0.153354 1.8018,0.153354 1.76346,0.115016 1.84013,0.115016 1.8018,0.115015 1.80179,0.07668 1.84013,0.03834 1.84014,0.03834 0.30668,0.53674 0.23002,0.53674 0.11501,0.345047 0.0767,0.3833856 0.0383,0.498402 0,0.613417 -1.26509,0.843449 -1.26509,0.80511 -1.26509,0.766772 -1.30343,0.728433 -1.26509,0.651756 -1.26509,0.651755 -1.22676,0.575079 -1.22675,0.575079 0.15334,0.076677 0.30669,0.038339 0.4217,0 0.46003,-0.038339 1.22676,-0.191693 1.38009,-0.26837 1.41844,-0.306709 1.3801,-0.306708 1.15008,-0.26837 0.84339,-0.191693 2.56852,0.038338 3.25857,0.115016 1.84013,0.115016 1.9168,0.115016 1.99348,0.153354 1.99348,0.191693 1.95514,0.230031 1.95514,0.230032 1.84013,0.306709 1.76346,0.345047 0.80505,0.191693 0.80506,0.191693 0.72839,0.230031 0.69005,0.230032 0.65171,0.230031 0.61338,0.26837 0.49837,0.230032 0.46003,0.30670804 0,0.306709 0,0.383386 0,0.345047 0,0.421724 -1.15008,0.76677196 -1.07341,0.766772 -1.07341,0.80511 -0.99674,0.843449 -0.99674,0.843448 -0.9584,0.843449 -0.92007,0.843449 -0.92006,0.843449 -1.8018,1.725236 -1.76346,1.6868984 -0.88173,0.843448 -0.92006,0.805111 -0.92007,0.80511 -0.9584,0.80511 0.15334,0.230031 0.19168,0.230032 0.19168,0.191693 0.23002,0.191693 0.26835,0.191693 0.23002,0.153354 0.30669,0.153354 0.26835,0.115016 0.61338,0.26837 0.69005,0.191693 0.69005,0.153354 0.76672,0.115016 0.76672,0.115016 0.80506,0.07668 0.80505,0.03834 0.80506,0.03834 1.64845,0 1.53345,0 2.49184,-0.958464 2.30017,-0.881788 2.10848,-0.843449 1.9168,-0.766771 1.84014,-0.651756 1.72512,-0.575079 0.84339,-0.230031 0.8434,-0.230032 0.84339,-0.153354 0.80506,-0.153354 0.84339,-0.07668 0.80506,-0.07668 0.84339,-0.03834 0.8434,0.03834 0.88173,0.07668 0.88173,0.07668 0.88173,0.153354 0.9584,0.230031 0.9584,0.230032 0.99674,0.306709 1.03507,0.383385 1.07341,0.421725 1.11175,0.460063 1.18842,0.53674 1.22675,0.613417 1.26509,0.651756 1.3801,-0.03834 1.34176,-0.03834 1.3801,-0.03834 1.3801,-0.03834 1.34176,-0.03834 1.41844,-0.03834 1.3801,-0.07668 1.3801,-0.03834 -0.15335,0.843449 -0.23001,0.80511 -0.26836,0.728433 -0.34502,0.690094 -0.38336,0.651756 -0.4217,0.613418 -0.49837,0.53674 -0.5367,0.53674 -0.57504,0.498401 -0.61338,0.421725 -0.65172,0.421724 -0.69004,0.383386 -0.72839,0.345047 -0.76672,0.345048 -0.76672,0.306708 -0.76672,0.26837 -0.80506,0.230032 -0.80506,0.230031 -0.84339,0.230032 -0.8434,0.153354 -1.68678,0.345047 -1.64846,0.26837 -3.22023,0.498402 -2.83687,0.421724 -1.22675,0.421725 -1.11175,0.421724 -1.03507,0.421724 -0.9584,0.460063 -0.88173,0.421725 -0.88173,0.460063 -0.80506,0.460063 -0.76672,0.460063 -1.57178,0.996803 -1.53344,1.111819 -1.68679,1.150157 -1.87847,1.303512 2.72186,-0.230031 2.68353,-0.306709 1.30342,-0.153354 1.26509,-0.07668 1.2651,-0.07668 1.30342,-0.03834 0.61338,0 0.65171,0.03834 0.61338,0.07668 0.65171,0.07668 0.65172,0.07668 0.65171,0.115015 0.61338,0.153355 0.65171,0.191693 0.69005,0.191693 0.65171,0.230031 0.65172,0.26837 0.69005,0.306709 0.65171,0.345047 0.69005,0.383386 0.69005,0.421724 0.72838,0.460063 1.26509,0.421725 1.30343,0.421724 1.34176,0.421724 1.34177,0.421725 -0.0767,0.383386 -0.115,0.345047 -0.19168,0.383386 -0.19169,0.383386 -0.26835,0.345047 -0.26835,0.383386 -0.30669,0.345047 -0.34502,0.383386 -0.80506,0.728433 -0.84339,0.728433 -0.95841,0.690094 -0.99673,0.690095 -2.07015,1.303511 -1.99348,1.188496 -1.80179,1.035142 -1.45678,0.881788 0.65172,0.191692 0.61337,0.115016 0.65172,0.115016 0.61338,0.115016 0.61337,0.03834 0.65172,0.07668 0.61337,0 0.61338,0.03834 1.26509,-0.07668 1.22676,-0.115016 1.26509,-0.153354 1.26509,-0.230032 1.30342,-0.306708 1.26509,-0.306709 1.30343,-0.345047 1.34176,-0.383386 2.68353,-0.843449 2.83687,-0.843449 1.53344,0.07668 1.49511,0.115015 1.45677,0.115016 1.41843,0.115016 1.3801,0.191693 1.34177,0.230031 0.69005,0.153354 0.65171,0.153355 0.61338,0.191693 0.65171,0.191693 0.61338,0.230031 0.61337,0.230032 0.61338,0.26837 0.61338,0.306708 0.61338,0.306709 0.57504,0.345047 0.61337,0.383386 0.57504,0.383386 0.57505,0.460063 0.57504,0.460059 0.57504,0.49841 0.57504,0.53674 0.57504,0.61341 0.57504,0.61342 0.53671,0.65176 0.57504,0.69009 -0.11501,0.30671 -0.11501,0.30671 -0.15334,0.26837 -0.15335,0.23003 -0.34502,0.46006 -0.38336,0.38339 -0.4217,0.30671 -0.46003,0.30671 -0.46004,0.23003 -0.5367,0.19169 -0.53671,0.15335 -0.5367,0.11502 -0.53671,0.11502 -0.57504,0.11501 -1.11174,0.15336 -1.07341,0.19169 -0.8434,0.57508 -0.84339,0.61341 -0.80506,0.57508 -0.80506,0.61342 -0.80505,0.57508 -0.80506,0.61342 -0.80506,0.61341 -0.80506,0.65176 -1.84013,0.4984 -1.84013,0.42173 -1.84013,0.38338 -1.8018,0.34505 -1.80179,0.26837 -1.84013,0.23003 -1.76346,0.23003 -1.8018,0.19169 -1.76346,0.15336 -1.76346,0.19169 -1.76346,0.1917 -1.76346,0.19169 -1.72512,0.19169 -1.72512,0.26837 -1.72513,0.26837 -1.72512,0.34505 0,0.4984 0,0.4984 1.45677,0.4984 1.53344,0.46007 1.64845,0.42172 1.68679,0.42172 1.76346,0.38339 1.8018,0.38339 1.84013,0.34504 1.84013,0.34505 0,0.4984 0,0.53674 0,0.53674 0,0.53674 -1.26509,0.76677 -1.22676,0.65176 -1.22675,0.53674 -1.18842,0.4984 -1.15008,0.46006 -1.18842,0.38339 -1.18842,0.38339 -1.18842,0.38338 -0.0767,0.23003 -0.0383,0.26837 0,0.26837 0,0.23004 2.41517,-0.26837 2.3385,-0.26837 1.15008,-0.15336 1.15008,-0.11501 1.15009,-0.07668 1.15008,-0.03834 1.15008,-0.03834 1.18842,0.03834 1.18842,0.07668 1.18842,0.15335 1.22675,0.19169 1.26509,0.26837 1.26509,0.34505 1.34176,0.46006 3.41192,1.72524 3.06688,1.57188 1.41844,0.6901 1.3801,0.65175 1.41843,0.61342 1.3801,0.53674 1.3801,0.53674 1.45677,0.4984 1.53344,0.42173 1.57178,0.38338 1.68679,0.38339 1.80179,0.30671 1.95514,0.26837 2.10849,0.26837 -0.0767,0.92012 -0.19168,0.84345 -0.30669,0.76677 -0.38336,0.6901 -0.49837,0.65175 -0.61338,0.53674 -0.69005,0.49841 -0.76672,0.46006 -0.84339,0.38338 -0.88173,0.30671 -0.95841,0.30671 -0.99673,0.23003 -1.07341,0.1917 -1.07341,0.15335 -1.11175,0.11502 -1.15008,0.07667 -1.15009,0.03834 -1.15008,0 -1.18842,0 -1.15008,0 -2.22349,-0.11501 -2.14682,-0.11502 -1.99348,-0.15335 -1.72512,-0.15336 -1.45677,-0.07668 -1.11175,-0.07667 -0.92006,0.23003 -0.8434,0.19169 -0.80506,0.19169 -0.72838,0.23004 -0.72839,0.23003 -0.69005,0.26837 -0.69005,0.23003 -0.65171,0.26837 -1.30343,0.61342 -1.30342,0.65175 -1.34176,0.72844 -1.45678,0.76677 0.80506,0.53674 0.80506,0.46006 0.84339,0.42172 0.80506,0.421732 0.84339,0.38338 0.8434,0.34505 0.84339,0.30671 0.88173,0.26837 0.8434,0.26837 0.88173,0.23003 0.88173,0.23003 0.88173,0.1917 0.88172,0.15335 0.88173,0.15335 0.92007,0.11502 0.92007,0.11502 1.84013,0.19169 1.84013,0.11502 1.9168,0.11501 1.91681,0.0383 1.95514,0.0383 1.95514,0 1.99347,0.0383 1.99348,0.0383 0.15334,0.15335 0.11501,0.15335 0.0767,0.15336 0.0767,0.23003 0.115,0.80511 0.11501,1.41853 -1.76346,1.15015 -1.3801,0.92013 -1.15008,0.72843 -0.92006,0.65176 -0.92007,0.65176 -0.9584,0.69009 -1.11175,0.84345 -1.41843,1.07348 -1.64845,0.61342 -1.68679,0.53674 -1.68679,0.46006 -1.64845,0.42172 -1.68679,0.30671 -1.68678,0.30671 -1.64846,0.23003 -1.68678,0.15336 -1.64845,0.15335 -1.68679,0.15336 -1.64845,0.0767 -1.64845,0.0767 -3.29691,0.11502 -3.25856,0.11501 0,0.4984 0,0.4984 1.07341,0.6901 1.18841,0.65176 1.22676,0.69009 1.26509,0.65176 1.34176,0.65175 1.3801,0.65176 1.41844,0.65175 1.41843,0.65176 0.0767,0.76677 0.11501,0.72843 0.11501,0.76678 0.11501,0.76677 -1.57178,0.38338 -1.49511,0.4984 -1.45677,0.49841 -1.3801,0.53674 -1.3801,0.57507 -1.34176,0.57508 -1.3801,0.61342 -1.41843,0.57508 -0.0767,0.15335 -0.0767,0.1917 -0.0383,0.19169 -0.0383,0.23003 0.53671,0.15336 0.57504,0.15335 0.57504,0.11502 0.57504,0.0767 1.15008,0.15336 1.22676,0.11501 2.53018,0.0767 2.68352,0.0383 1.34176,0 1.3801,0.0383 1.41844,0.0383 1.3801,0.11501 1.41843,0.11502 1.45677,0.19169 1.41844,0.23003 1.41843,0.30671 0.53671,0.65176 0.5367,0.57507 0.61338,0.49841 0.61338,0.46006 0.65171,0.42172 0.69005,0.34505 0.69005,0.34505 0.76672,0.30671 0.76672,0.26837 0.80506,0.23003 0.80506,0.26837 0.84339,0.19169 1.8018,0.46006 1.87846,0.46007 0.19169,0.42172 0.115,0.38339 -0.0383,0.38338 -0.0767,0.38339 -0.15335,0.38339 -0.26835,0.38338 -0.30669,0.34505 -0.38336,0.38338 -0.4217,0.34505 -0.49837,0.34505 -0.5367,0.30671 -0.61338,0.34504 -0.61338,0.30671 -0.65171,0.30671 -0.65171,0.30671 -0.69005,0.26837 -1.45677,0.53674 -1.41844,0.4984 -1.3801,0.42173 -1.30342,0.38338 -2.2235,0.57508 -1.30342,0.30671 -1.68679,0 -1.68679,-0.0383 -1.64845,-0.0767 -1.64845,-0.0767 -3.25857,-0.15336 -3.18189,-0.23003 -3.10522,-0.19169 -3.10523,-0.19169 -1.4951,-0.0767 -1.53345,-0.0383 -1.4951,-0.0383 -1.49511,0 0.4217,0.6901 0.42169,0.72843 0.4217,0.72843 0.4217,0.76677 2.26183,0.61342 2.91354,0.72843 1.64845,0.42173 1.64845,0.4984 1.72512,0.4984 1.68679,0.61342 0.80506,0.30671 0.84339,0.34504 0.76672,0.34505 0.76673,0.38339 0.76672,0.42172 0.69005,0.42173 0.65171,0.42172 0.65171,0.4984 0.57504,0.46006 0.49837,0.53674 0.49837,0.53675 0.38336,0.57507 0.34503,0.61342 0.26835,0.61342 0.23002,0.65175 0.11501,0.6901 -0.88173,0.65175 -0.92007,0.57508 -0.9584,0.53674 -0.9584,0.46007 -0.99674,0.46006 -0.99674,0.38339 -0.99674,0.34504 -1.03507,0.30671 -1.03508,0.26837 -1.07341,0.23003 -1.07341,0.1917 -1.07341,0.15335 -1.11174,0.11502 -1.07341,0.11501 -1.11175,0.0767 -1.11175,0.0383 -1.11174,0 -1.11175,0 -1.11174,0 -1.11175,-0.0383 -2.22349,-0.11502 -2.18516,-0.15335 -2.18516,-0.19169 -2.10848,-0.1917 -2.07015,-0.23003 -2.03181,-0.15335 0.26835,0.38338 0.26835,0.34505 0.26836,0.34505 0.30669,0.30671 0.30668,0.3067 0.30669,0.26837 0.34503,0.26837 0.30669,0.23004 1.38009,0.84344 1.30343,0.76678 0.65171,0.42172 0.57505,0.46006 0.26835,0.26837 0.26835,0.26837 0.23002,0.30671 0.23001,0.30671 0.19168,0.34505 0.19168,0.34505 0.15335,0.42172 0.15334,0.42172 0.0767,0.46007 0.0767,0.53674 0.0383,0.53674 0.0383,0.57508 -0.38336,0.42172 -0.38336,0.38339 -0.4217,0.38338 -0.4217,0.30671 -0.46003,0.26837 -0.46003,0.23003 -0.46003,0.1917 -0.49837,0.19169 -0.49837,0.11501 -0.49837,0.11502 -0.49837,0.11502 -0.53671,0.0767 -1.03507,0.0767 -1.07341,0 -1.11175,-0.0383 -1.07341,-0.11501 -1.03507,-0.0767 -1.07341,-0.11502 -0.99674,-0.11501 -0.99674,-0.0383 -0.92006,-0.0383 -0.88173,0.0383 0.23001,0.34505 0.4217,0.61341 0.49837,0.76677 0.49837,0.88179 0.26835,0.46007 0.23002,0.4984 0.19168,0.4984 0.19168,0.4984 0.11501,0.4984 0.0767,0.4984 0.0383,0.46007 -0.0383,0.46006 -0.99674,0.30671 -0.99674,0.23003 -0.9584,0.19169 -0.92006,0.15336 -0.92007,0.11501 -0.88173,0.0767 -0.88173,0.0767 -0.84339,0.0767 1.11174,0.95847 1.30343,0.9968 0.65171,0.53674 0.61338,0.57508 0.57504,0.57508 0.49837,0.61342 0.19168,0.3067 0.19168,0.30671 0.15335,0.30671 0.115,0.34505 0.0767,0.30671 0.0767,0.34505 0,0.3067 -0.0383,0.34505 -0.0767,0.34505 -0.15334,0.34505 -0.15335,0.34504 -0.23002,0.34505 -0.30668,0.38339 -0.34503,0.34504 -0.4217,0.34505 -0.49836,0.38339 -1.84014,-0.11502 -1.4951,-0.11502 -1.22676,-0.0767 -1.07341,-0.11502 -1.15008,-0.15335 -1.26509,-0.23003 -1.57178,-0.26837 -2.03181,-0.38339 0.99674,0.95846 1.03507,0.95847 0.99674,0.9968 0.99674,0.95847 1.03507,0.95846 0.99674,0.95847 0.99674,0.9968 1.03507,0.95846 2.26183,1.61022 2.30016,1.61022 2.30017,1.53355 2.37683,1.4952 2.37684,1.49521 2.37684,1.41852 2.45351,1.41853 2.45351,1.38019 2.45351,1.30351 2.49184,1.30351 2.53018,1.30352 2.53018,1.22683 2.56852,1.22684 2.56852,1.18849 2.60685,1.1885 2.56852,1.15016 2.64519,1.11181 2.60685,1.11182 2.64519,1.11182 2.68352,1.03514 5.32872,2.10863 5.36705,2.03194 5.40539,2.03194 5.44372,1.95527 5.40539,1.95527 5.44372,1.91693 2.07015,0.15335 2.10848,0.11502 2.18516,0.11502 2.18516,0.11501 2.26182,0.11502 2.2235,0.15335 2.30016,0.19169 2.26183,0.26837 2.30016,0.26837 2.30017,0.38339 1.11175,0.19169 1.15008,0.23003 1.11174,0.23004 1.11175,0.26837 1.11175,0.3067 1.11174,0.30671 1.11175,0.38339 1.07341,0.34505 1.07341,0.42172 1.07341,0.42172 1.03507,0.46007 1.03508,0.4984 2.03181,1.53354 2.03181,1.57188 2.03181,1.57189 2.07015,1.57188 2.14682,1.57188 2.22349,1.61022 2.33851,1.57188 2.41517,1.57188 0.88173,0.80511 0.92006,0.84345 0.95841,0.88179 0.92006,0.92013 1.87847,1.95526 1.9168,2.07029 1.87847,2.14696 1.91681,2.1853 1.87846,2.1853 1.87847,2.14696 0.46003,0 0.49837,-0.0383 0.49837,-0.0767 0.49837,-0.11501 0.49837,-0.11502 0.49837,-0.11502 0.49837,-0.19169 0.49837,-0.15335 0.99673,-0.42173 1.03508,-0.4984 0.99674,-0.57508 0.99673,-0.57508 0.99674,-0.65175 0.99674,-0.65176 0.9584,-0.69009 0.9584,-0.72844 1.84014,-1.38018 1.72512,-1.30352 0.76672,-0.84345 0.65171,-0.80511 0.57505,-0.80511 0.49836,-0.80511 0.38337,-0.80511 0.30668,-0.80511 0.23002,-0.80511 0.15335,-0.80511 0.0767,-0.80511 0.0383,-0.80511 -0.0767,-0.76677 -0.11501,-0.80511 -0.15334,-0.80511 -0.23002,-0.76677 -0.26835,-0.76677 -0.30669,-0.76677 -0.34502,-0.76678 -0.38336,-0.76677 -0.46004,-0.76677 -0.46003,-0.76677 -0.46003,-0.72843 -0.53671,-0.72844 -0.5367,-0.72843 -0.53671,-0.72843 -1.11174,-1.38019 -1.15009,-1.38019 -1.15008,-1.34185 -1.11175,-1.26517 -2.07014,-1.26518 -2.03182,-1.26517 -2.07014,-1.26517 -2.03182,-1.26518 -2.03181,-1.30351 -2.03181,-1.30351 -1.99348,-1.30351 -1.99347,-1.30351 -1.95514,-1.34185 -1.95514,-1.30352 -1.91681,-1.34185 -1.87846,-1.34185 -1.84014,-1.34185 -1.84013,-1.34185 -1.80179,-1.34185 -1.72513,-1.34185 -0.99673,-1.53354 -0.92007,-1.53355 -0.88173,-1.57188 -0.80506,-1.57188 -1.57178,-3.1821 -1.4951,-3.10543 -1.45677,-3.10542 -1.41844,-2.95207 -0.76672,-1.41853 -0.76672,-1.41853 -0.76672,-1.34185 -0.8434,-1.26517 -1.41843,-1.03514 -1.26509,-1.07348 -1.11175,-1.11182 -0.99674,-1.15016 -0.80506,-1.22683 -0.69004,-1.26518 -0.53671,-1.26517 -0.46003,-1.34185 -0.30669,-1.38019 -0.23002,-1.38019 -0.11501,-1.41853 -0.0383,-1.41852 0.0767,-1.45687 0.11501,-1.45687 0.19168,-1.4952 0.26835,-1.4952 0.30669,-1.49521 0.34502,-1.4952 0.38337,-1.49521 0.42169,-1.4952 0.92007,-2.99041 0.92006,-2.91373 0.92007,-2.83706 0.80506,-2.76038 0.34502,-1.30351 0.30669,-1.30351 0.23002,-1.26517 0.19168,-1.1885 -0.0383,-1.72524 -0.0383,-1.72523 -0.0383,-1.6869 -0.0383,-1.6869 -0.0383,-1.6869 -0.0383,-1.68689 -0.0383,-1.6869 -0.0767,-1.6869 0.34503,-0.26837 0.38336,-0.19169 0.38336,-0.11502 0.4217,0 0.46003,0.0767 0.46003,0.11502 0.49837,0.23003 0.49837,0.26837 0.5367,0.30671 0.53671,0.38338 0.5367,0.42173 0.53671,0.4984 1.11175,1.03514 1.15008,1.1885 1.11174,1.22683 1.07341,1.30351 1.07342,1.26517 0.99673,1.22684 0.92007,1.15016 0.80506,1.03514 0.72838,0.84345 0.57504,0.65175 1.49511,-2.10862 1.41844,-2.03194 1.41843,-1.91693 1.41843,-1.80192 1.41844,-1.68689 1.41843,-1.61022 0.72839,-0.80511 0.76672,-0.72844 0.72839,-0.76677 0.76672,-0.72843 0.76672,-0.6901 0.80506,-0.69009 0.80506,-0.6901 0.84339,-0.65175 0.84339,-0.65176 0.88173,-0.65175 0.92007,-0.65176 0.92006,-0.61342 0.95841,-0.61341 0.9584,-0.61342 1.03507,-0.61342 1.03508,-0.61342 2.22349,-1.18849 2.3385,-1.1885 1.30343,-0.46006 1.30342,-0.46006 1.30343,-0.46007 1.30343,-0.4984 1.30342,-0.46006 1.30343,-0.46006 1.30343,-0.46007 1.30342,-0.46006 2.2235,-0.15335 2.22349,-0.1917 2.22349,-0.15335 2.22349,-0.23003 2.26183,-0.1917 2.22349,-0.26837 2.26183,-0.26837 2.22349,-0.34504 2.2235,-0.34505 2.22349,-0.42172 2.22349,-0.49841 2.22349,-0.53674 1.07341,-0.30671 1.11175,-0.34504 1.11175,-0.34505 1.07341,-0.34505 1.07341,-0.38338 1.11174,-0.38339 1.07341,-0.46006 1.07341,-0.42173 0.11501,-0.26837 0.0767,-0.26837 0.0383,-0.23003 0.0383,-0.34504 0,-1.03515 -0.0383,-1.91693 -1.3801,-1.15015 -1.3801,-1.1885 -1.30342,-1.15016 -1.22676,-1.15015 -1.18842,-1.11182 -1.07341,-1.11182 -0.9584,-1.07348 -0.80506,-1.03514 -0.23001,-1.03515 -0.11501,-0.95846 -0.0767,-0.92013 0,-0.881782 0.0767,-0.80511 0.11501,-0.76677 0.15334,-0.6901 0.23002,-0.69009 0.30669,-0.61342 0.30669,-0.57508 0.38336,-0.53674 0.42169,-0.4984 0.46004,-0.4984 0.5367,-0.42173 0.53671,-0.38338 0.57504,-0.38339 0.57504,-0.34505 0.65171,-0.30671 0.65172,-0.3067 0.69004,-0.26837 0.69005,-0.23004 0.72839,-0.23003 0.72838,-0.19169 0.72839,-0.19169 1.53344,-0.38339 1.53345,-0.30671 1.53344,-0.30671 1.53344,-0.26837 0.34503,-0.46006 0.26835,-0.46006 0.23002,-0.42173 0.19168,-0.42172 0.115,-0.38339 0.0767,-0.38338 0,-0.34505 0,-0.34505 -0.0767,-0.34504 -0.115,-0.30671 -0.15335,-0.30671 -0.15334,-0.26837 -0.23002,-0.30671 -0.23001,-0.23003 -0.26836,-0.26837 -0.30669,-0.23003 -0.65171,-0.42173 -0.72838,-0.34504 -0.76673,-0.34505 -0.80505,-0.26837 -0.8434,-0.26837 -0.80506,-0.19169 -0.76672,-0.1917 -0.72838,-0.11501 0,-0.61342 0.0767,-0.57508 0.0767,-0.53674 0.0767,-0.53674 0.92007,-0.34505 0.92007,-0.26837 0.88173,-0.26837 0.88173,-0.23003 0.88173,-0.19169 0.88173,-0.15336 0.84339,-0.11501 0.84339,-0.07668 0.80506,-0.03834 0.84339,-0.03834 0.76673,0.03834 0.80505,0.07668 0.80506,0.11502 0.76672,0.15335 0.76672,0.19169 0.72839,0.23003 0.76672,0.26837 0.72839,0.30671 0.72838,0.30671 0.72839,0.38339 0.69005,0.42172 0.72838,0.46006 0.69005,0.49841 0.69005,0.53674 0.69005,0.57508 0.69005,0.61341 0.65171,0.65176 0.69005,0.69009 0.65172,0.72844 0.65171,0.80511 0.65171,0.80511 0.65172,0.84345 0,1.68689 -0.0767,1.45687 -0.0767,0.69009 -0.0767,0.65176 -0.11501,0.61342 -0.11501,0.57508 -0.15334,0.53674 -0.15335,0.4984 -0.19168,0.46006 -0.19168,0.46006 -0.23001,0.42173 -0.23002,0.38338 -0.30669,0.38339 -0.26835,0.34505 -0.34503,0.34504 -0.34502,0.34505 -0.38336,0.26837 -0.38336,0.30671 -0.46003,0.26837 -0.46004,0.26837 -0.46003,0.26837 -0.53671,0.26837 -1.15008,0.4984 -1.26509,0.4984 -1.41843,0.536742 -1.57178,0.53674 -0.69005,0.4984 -0.65172,0.49841 -0.69004,0.4984 -0.65172,0.53674 0,0.65175 0,0.53674 0.0767,0.49841 0.15335,0.42172 0.23001,0.4984 0.34503,0.53674 0.46003,0.6901 0.61338,0.84344 1.18842,0.84345 1.15008,0.84345 0.53671,0.42173 0.5367,0.46006 0.49837,0.46006 0.46003,0.4984 0.46004,0.46007 0.46003,0.4984 0.4217,0.53674 0.38336,0.4984 0.38336,0.53674 0.34502,0.53674 0.30669,0.57508 0.26835,0.57508 0.26836,0.57508 0.23001,0.61341 0.19168,0.61342 0.19168,0.65176 0.11501,0.61341 0.11501,0.6901 0.0383,0.65176 0.0383,0.72843 0,0.69009 -0.0383,0.72844 -0.11501,0.76677 -0.11501,0.76677 -0.15335,0.76677 -0.19168,0.80511 -0.26835,0.84345 -0.30669,0.84345 -0.69005,0.61342 -0.72838,0.65175 -0.80506,0.61342 -0.76672,0.57508 -0.8434,0.57508 -0.84339,0.57508 -0.88173,0.53674 -0.88173,0.53674 -1.84013,1.03514 -1.87847,0.9968 -1.95514,0.92013 -1.99347,0.88178 -1.99348,0.84345 -1.99348,0.84345 -1.99347,0.76677 -1.99348,0.72844 -1.9168,0.72843 -1.91681,0.69009 -1.80179,0.6901 -1.76346,0.65175 -1.18842,0.57508 -1.15008,0.61342 -1.18842,0.57508 -1.18842,0.61342 -1.15008,0.57507 -1.18842,0.61342 -1.18842,0.61342 -1.18842,0.65175 0,0.34505 0,0.30671 0,0.34505 0,0.34505 2.56852,-0.26837 2.56852,-0.23004 2.56852,-0.26837 2.56851,-0.23003 2.56852,-0.26837 2.56852,-0.26837 2.56851,-0.23003 2.56852,-0.26837 0.76672,-0.65176 1.07341,-0.95846 1.34177,-1.15016 1.57178,-1.38019 1.72512,-1.45686 1.87847,-1.57188 2.03181,-1.57189 2.07015,-1.57188 1.07341,-0.72843 1.07341,-0.72843 1.07341,-0.6901 1.03507,-0.69009 1.07341,-0.57508 1.07341,-0.57508 1.03508,-0.4984 0.99673,-0.42173 0.99674,-0.38338 0.9584,-0.26837 0.92007,-0.1917 0.92007,-0.11501 0.84339,0 0.80506,0.0767 0.76672,0.19169 0.69005,0.34505 0.15334,0.38338 0.19168,0.4984 -0.57504,0.95847 -0.57504,0.92012 -0.65171,0.84345 -0.65172,0.80511 -0.72838,0.76677 -0.76672,0.76678 -0.80506,0.76677 -0.84339,0.80511 -0.19169,0.80511 -0.15334,0.84345 -0.11501,0.84345 -0.0767,0.84344 -0.11501,1.76358 -0.11501,1.76357 -0.0383,0.92013 -0.11501,0.92013 -0.11501,0.95846 -0.11501,0.92013 -0.19168,0.95846 -0.26835,0.95847 -0.26835,0.95846 -0.38336,0.9968 -1.61012,1.38019 -1.61011,1.34185 -1.64846,1.30351 -1.64845,1.30352 -1.68678,1.22683 -1.72513,1.1885 -1.72512,1.15015 -1.8018,1.07348 0.65172,0 0.65171,-0.0383 0.65171,-0.0767 0.65172,-0.0767 0.61337,-0.11501 0.61338,-0.15336 0.65171,-0.15335 0.61338,-0.15336 1.22676,-0.38338 1.18841,-0.42173 1.22676,-0.46006 1.22675,-0.4984 1.22676,-0.4984 1.26509,-0.46007 1.26509,-0.46006 1.26509,-0.42172 1.34176,-0.38339 1.34177,-0.34505 0.69004,-0.11501 0.72839,-0.11502 0.69005,-0.0767 0.72838,-0.0767 0.30669,0.30671 0.19168,0.23003 0.15335,0.23003 0.0767,0.23003 0.0767,0.57508 0,0.9968 -0.92006,0.72844 -0.80506,0.65175 -0.72839,0.65176 -0.69005,0.61341 -0.61337,0.61342 -0.53671,0.61342 -0.5367,0.61342 -0.49837,0.61341 -0.46004,0.65176 -0.49836,0.69009 -0.46004,0.72844 -0.46003,0.76677 -0.99674,1.76357 -1.11174,2.07029 -1.45678,1.34185 -1.76345,1.57188 -0.95841,0.84345 -0.99673,0.88179 -0.95841,0.95846 -0.9584,0.95846 -0.92006,0.99681 -0.8434,0.9968 -0.38336,0.53674 -0.34502,0.4984 -0.30669,0.53674 -0.30669,0.53674 -0.26835,0.4984 -0.23002,0.53674 -0.19168,0.53674 -0.11501,0.53674 -0.11501,0.53674 -0.0383,0.53675 0,0.53674 0.0383,0.53674 1.30343,-0.53674 1.22675,-0.49841 1.15009,-0.46006 1.15008,-0.38339 1.07341,-0.34504 1.07341,-0.30671 1.07341,-0.26837 1.11175,-0.23003 1.07341,-0.23003 1.15008,-0.15336 1.15008,-0.19169 1.26509,-0.15336 2.68353,-0.23003 3.02855,-0.26837 0.88173,-0.57508 0.69005,-0.46006 0.69005,-0.42172 0.65171,-0.30671 0.72838,-0.30671 0.8434,-0.23003 0.99674,-0.26837 1.26509,-0.23003 -0.15335,1.41852 -0.15334,1.30352 -0.19168,1.26517 -0.19168,1.18849 -0.19168,1.11182 -0.23002,1.03515 -0.26835,0.95846 -0.26836,0.92013 -0.30668,0.84344 -0.34503,0.80511 -0.38336,0.76678 -0.38336,0.72843 -0.4217,0.65176 -0.46003,0.65175 -0.49837,0.61342 -0.5367,0.57508 -0.57505,0.53674 -0.61337,0.53674 -0.61338,0.4984 -0.69005,0.4984 -0.76672,0.46006 -0.76672,0.49841 -0.8434,0.46006 -0.84339,0.46006 -1.9168,0.95847 -2.10849,0.9968 -2.3385,1.07348 -2.56852,1.1885 -1.80179,1.26517 -1.57178,1.18849 -1.3801,1.07348 -1.18842,0.99681 -0.49837,0.4984 -0.49837,0.46006 -0.42169,0.4984 -0.4217,0.46007 -0.38336,0.4984 -0.34502,0.46006 -0.30669,0.4984 -0.30669,0.4984 -0.26835,0.53674 -0.23002,0.53674 -0.23002,0.53675 -0.23001,0.57507 -0.38336,1.26518 -0.34503,1.34185 -0.69005,3.25878 -0.84339,4.06389 0.61337,-0.46007 0.61338,-0.46006 0.57504,-0.53674 0.53671,-0.53674 0.5367,-0.53674 0.53671,-0.57508 0.49837,-0.57508 0.46003,-0.61341 0.92007,-1.22684 0.88173,-1.30351 0.80505,-1.30351 0.76673,-1.30351 1.11174,-0.92013 1.68679,-1.41853 1.03507,-0.80511 1.07341,-0.84345 1.18842,-0.80511 1.18842,-0.80511 0.57504,-0.38338 0.61338,-0.34505 0.57504,-0.30671 0.61338,-0.30671 0.57504,-0.26837 0.57504,-0.23003 0.57504,-0.15335 0.53671,-0.15336 0.5367,-0.0767 0.49837,-0.0767 0.49837,0.0383 0.4217,0.0767 0.42169,0.11502 0.38336,0.23003 0.38336,0.26837 0.30669,0.34505 -0.0767,0.57508 -0.0767,0.61341 -0.11501,0.61342 -0.0767,0.65176 -0.38336,0.76677 -0.38336,0.80511 -0.30669,0.80511 -0.30669,0.80511 -0.26835,0.80511 -0.23002,0.84345 -0.23002,0.84345 -0.19168,0.84345 -0.34502,1.72523 -0.23002,1.72524 -0.23001,1.72523 -0.19169,1.76358 -0.19168,1.76357 -0.19168,1.76358 -0.26835,1.72523 -0.26835,1.72524 -0.19168,0.84345 -0.19168,0.80511 -0.19168,0.84345 -0.23002,0.84345 -0.26835,0.80511 -0.30669,0.80511 -0.30669,0.76677 -0.38336,0.76677 -0.88173,0.65176 -1.15008,0.72843 -1.26509,0.88179 -1.22676,0.95846 -0.57504,0.46007 -0.5367,0.4984 -0.46004,0.4984 -0.38336,0.4984 -0.15334,0.26837 -0.11501,0.23003 -0.11501,0.23003 -0.0767,0.26837 -0.0767,0.23003 0,0.23004 0.0383,0.23003 0.0383,0.23003 0.72839,0.15335 0.72838,0.0767 0.69005,0.0767 0.65171,0.0383 0.61338,0 0.57504,-0.0383 0.57504,-0.0767 0.53671,-0.11502 0.5367,-0.15335 0.49837,-0.15335 0.49837,-0.15336 0.46004,-0.23003 0.92006,-0.42172 0.92007,-0.49841 0.88173,-0.53674 0.88173,-0.53674 0.92006,-0.53674 0.99674,-0.46006 0.49837,-0.23003 0.49837,-0.23003 0.57504,-0.19169 0.5367,-0.1917 0.61338,-0.15335 0.61338,-0.11502 0.65171,-0.0767 0.65172,-0.0767 0.26835,0.38338 0.23001,0.38339 0.19169,0.42172 0.19168,0.42173 0.115,0.42172 0.11501,0.46007 0.0383,0.46006 0.0383,0.46006 0.0383,0.46006 -0.0383,0.49841 -0.0383,0.46006 -0.0767,0.4984 -0.0767,0.4984 -0.115,0.46007 -0.15335,0.4984 -0.15334,0.4984 -0.34503,0.95846 -0.46003,0.95847 -0.49837,0.95846 -0.5367,0.92013 -0.57505,0.84345 -0.65171,0.84345 -0.65171,0.76677 -0.65172,0.69009 -0.88173,0.4984 -1.03507,0.53674 -1.07341,0.4984 -1.15008,0.53674 -2.37684,1.07349 -2.41517,1.07348 -1.15008,0.53674 -1.07341,0.53674 -1.03508,0.53674 -0.88173,0.57507 -0.4217,0.26837 -0.34502,0.26837 -0.34502,0.30671 -0.30669,0.26837 -0.26836,0.26837 -0.19168,0.30671 -0.19168,0.26837 -0.115,0.26837 1.15008,-0.0767 1.11174,-0.0383 1.15009,-0.0767 1.15008,-0.0383 1.15008,-0.0767 1.15008,-0.0383 1.15009,-0.0383 1.18841,-0.0383 0.8434,-0.30671 0.92006,-0.34505 0.92007,-0.34505 0.9584,-0.34504 0.49837,-0.15336 0.49837,-0.11501 0.5367,-0.11502 0.53671,-0.0767 0.5367,-0.0767 0.57505,0 0.57504,0 0.57504,0.0767 0.34502,1.1885 0.19168,1.11182 0.11501,1.07348 -0.0383,0.9968 -0.15335,0.92013 -0.23002,0.88179 -0.30668,0.84345 -0.46004,0.76677 -0.49837,0.72843 -0.57504,0.69009 -0.69005,0.65176 -0.72838,0.57508 -0.76672,0.57508 -0.8434,0.53674 -0.88173,0.53674 -0.92006,0.4984 -0.9584,0.46006 -0.99674,0.46007 -0.99674,0.42172 -1.03508,0.42172 -2.07014,0.84345 -2.03182,0.80511 -0.99673,0.42173 -0.99674,0.42172 -0.9584,0.42173 -0.88173,0.46006 -0.88173,0.46006 -0.8434,0.4984 -0.76672,0.53674 -0.69005,0.53674 0.19168,0.42173 0.23002,0.42172 0.26835,0.42173 0.26835,0.38338 0.30669,0.34505 0.30669,0.34505 0.38336,0.30671 0.38336,0.3067 0.38336,0.26837 0.4217,0.26838 0.4217,0.26837 0.46003,0.23003 0.49837,0.23003 0.46003,0.19169 0.49837,0.19169 0.53671,0.15336 1.07341,0.30671 1.11174,0.26837 1.11175,0.19169 1.18842,0.15335 1.15008,0.11502 1.18842,0.0767 1.15008,0.0383 1.15008,0.0383 0.65172,-0.38338 0.92006,-0.53674 0.53671,-0.26837 0.5367,-0.30671 0.61338,-0.23003 0.61338,-0.26837 0.61337,-0.19169 0.61338,-0.15336 0.65171,-0.11501 0.57505,-0.0383 0.30668,0.0383 0.26836,0 0.30669,0.0767 0.26835,0.0767 0.23001,0.11502 0.26836,0.15335 0.23001,0.15335 0.19168,0.1917 -0.38336,0.95846 -0.42169,0.92013 -0.46004,0.84345 -0.5367,0.88178 -0.53671,0.80511 -0.61337,0.76678 -0.61338,0.76677 -0.69005,0.72843 -0.69005,0.72843 -0.72839,0.6901 -0.76672,0.65175 -0.76672,0.65176 -0.80506,0.61342 -0.80505,0.61341 -0.8434,0.57508 -0.88173,0.57508 -1.57178,0.30671 -1.84013,0.26837 -1.99347,0.30671 -2.07015,0.30671 -1.99348,0.26837 -1.87847,0.30671 -1.64845,0.3067 -1.34176,0.26837 -0.0767,0.53674 -0.0383,0.49841 0,0.4984 0,0.4984 0.38336,0.30671 0.4217,0.30671 0.38336,0.23003 0.38336,0.23003 0.38336,0.15335 0.38336,0.15336 0.34503,0.11501 0.38336,0.11502 0.38336,0.0767 0.38336,0.0383 0.38336,0.0383 0.38336,0 0.72839,-0.0383 0.76672,-0.0767 1.61011,-0.23003 1.68679,-0.23003 0.92007,-0.11502 0.92006,-0.0383 0.9584,0 1.03508,0.0767 -0.15335,0.57508 -0.19168,0.53674 -0.23001,0.53674 -0.23002,0.53674 -0.30669,0.4984 -0.30669,0.4984 -0.34502,0.4984 -0.34503,0.4984 -0.42169,0.46007 -0.38336,0.46006 -0.46004,0.42172 -0.42169,0.46007 -0.95841,0.80511 -0.99673,0.80511 -1.07341,0.72843 -1.07341,0.72843 -1.07341,0.65176 -1.11175,0.61342 -2.14682,1.15015 -1.99348,0.99681 -1.41843,0 -1.34176,-0.0767 -1.30343,-0.0767 -1.26509,-0.15335 -1.18842,-0.15336 -1.15008,-0.23003 -1.07341,-0.23003 -1.07341,-0.26837 -1.03508,-0.34505 -0.99673,-0.34504 -0.95841,-0.34505 -0.92006,-0.42172 -0.88173,-0.46007 -0.88173,-0.46006 -0.8434,-0.4984 -0.84339,-0.53674 -0.80506,-0.57508 -0.80505,-0.57508 -0.80506,-0.65176 -0.76672,-0.61341 -1.57178,-1.38019 -1.57178,-1.49521 -1.61012,-1.57188 -1.64845,-1.64856 -1.72512,-1.76357 -1.8018,-1.84025 -0.80506,-0.1917 -0.76672,-0.11501 -0.72838,-0.11502 -0.69005,-0.0767 -0.65172,-0.0383 -0.61337,0 -0.57504,0 -0.57504,0.0767 -1.11175,0.15336 -1.07341,0.26837 -1.11175,0.26837 -1.15008,0.34504 0,2.68371 0,2.6837 0,2.72204 0,2.6837 0,2.72204 0,2.6837 0,2.72204 0,2.72203 -0.9584,2.91374 -1.03508,2.83705 -0.5367,1.41853 -0.53671,1.38019 -0.57504,1.41853 -0.61337,1.38018 -0.57505,1.38019 -0.65171,1.34185 -0.65171,1.34185 -0.65172,1.34185 -0.69004,1.34186 -0.69005,1.34185 -0.72839,1.30351 -0.76672,1.30351 -0.76672,1.26517 -0.76672,1.30351 -0.8434,1.26518 -0.84339,1.26517 -0.8434,1.22683 -0.88173,1.22684 -0.92006,1.22683 -0.9584,1.22684 -0.9584,1.18849 -0.95841,1.1885 -1.03507,1.1885 -1.03507,1.15015 -1.07342,1.15016 -1.07341,1.15016 -1.15008,1.11182 -1.15008,1.11182 -1.61012,2.10862 -1.4951,1.91693 -1.41844,1.84025 -1.30342,1.72524 -0.57504,0.84344 -0.57505,0.80512 -0.5367,0.80511 -0.49837,0.80511 -0.46003,0.80511 -0.38336,0.80511 -0.38336,0.80511 -0.34503,0.80511 -0.26835,0.80511 -0.23002,0.84345 -0.19168,0.84344 -0.11501,0.84345 -0.0767,0.88179 -0.0383,0.92013 0.0383,0.95846 0.11501,0.95847 0.15334,0.9968 0.23002,1.07348 0.26835,1.07348 0.34503,1.15016 0.42169,1.18849 0.46004,1.22684 0.57504,1.30351 0.61338,1.34185 1.4951,1.57188 1.49511,1.57188 1.45677,1.61022 1.49511,1.61022 1.45677,1.61022 1.45677,1.6869 1.41843,1.6869 1.45678,1.6869 1.38009,1.76357 1.41844,1.80192 1.3801,1.84025 1.34176,1.84025 1.34176,1.91693 1.30343,1.9936 1.26509,1.99361 1.26509,2.10862 0.0767,1.22684 -0.0383,1.18849 -0.0383,0.57508 -0.0383,0.53674 -0.0767,0.53674 -0.0767,0.4984 -0.23002,0.99681 -0.30668,0.92012 -0.34503,0.92013 -0.4217,0.88179 -0.49837,0.84344 -0.5367,0.84345 -0.57504,0.88179 -0.65171,0.84345 -1.41844,1.80191 -1.53344,1.95527 -1.15009,1.80191 -0.84339,1.38019 -0.72838,1.11182 -0.61338,0.92013 -0.61338,0.88179 -0.65171,0.92012 -0.80506,1.07348 -0.99674,1.34185 -1.9168,1.07348 -1.84013,1.03514 -1.84014,1.07348 -1.84013,1.03515 -1.76346,1.03514 -1.76346,1.07348 -1.72512,1.07348 -1.72512,1.07348 -1.68679,1.11182 -1.68679,1.15015 -1.64845,1.15016 -1.64845,1.22684 -1.61012,1.22683 -1.61011,1.30351 -1.61012,1.34185 -1.57178,1.41853 -0.92006,1.53354 -0.76672,1.38019 -0.69005,1.22684 -0.57504,1.11182 -0.46004,0.9968 -0.38336,0.95846 -0.11501,0.46007 -0.15334,0.46006 -0.0767,0.46006 -0.0767,0.42173 -0.0383,0.46006 0,0.46006 0,0.46007 0.0383,0.4984 0.0767,0.4984 0.0767,0.4984 0.0767,0.53674 0.15335,0.57508 0.30669,1.22683 0.42169,1.34186 0.49837,1.53354 0.57504,1.72523 0,0.84345 -0.0383,0.76678 -0.0767,0.69009 -0.115,0.61342 -0.15335,0.57508 -0.15334,0.46006 -0.19168,0.46006 -0.23002,0.34505 -0.26835,0.34505 -0.26835,0.26837 -0.26836,0.19169 -0.34502,0.19169 -0.34503,0.11502 -0.34502,0.0767 -0.38336,0.0383 -0.38336,0 -0.4217,-0.0383 -0.4217,-0.0767 -0.46003,-0.11502 -0.46003,-0.11501 -0.9584,-0.34505 -0.99674,-0.42173 -2.07015,-1.03514 -2.18516,-1.15015 -0.0767,1.64855 -0.0767,1.64856 -0.11501,1.64856 -0.11501,1.64856 -0.11501,0.84345 -0.115,0.84345 -0.15335,0.88179 -0.15334,0.88178 -0.19168,0.88179 -0.23002,0.92013 -0.26835,0.92012 -0.30669,0.92013 -0.38336,0.0767 -0.38336,0.0383 -0.38336,0 -0.4217,-0.0383 -0.4217,-0.0767 -0.42169,-0.11502 -0.4217,-0.11501 -0.4217,-0.15336 -0.84339,-0.38338 -0.84339,-0.46007 -0.8434,-0.4984 -0.84339,-0.57508 -1.61012,-1.15015 -1.45677,-1.15016 -0.61338,-0.4984 -0.61337,-0.42173 -0.49837,-0.38338 -0.46003,-0.26837 -0.15335,0.4984 -0.11501,0.46006 -0.11501,0.57508 -0.115,0.76677 -0.11501,1.07348 -0.19168,1.53355 -0.23002,2.03194 -0.30669,2.72204 -0.57504,-0.0767 -0.61338,-0.0383 -0.57504,-0.11501 -0.5367,-0.11502 -1.07341,-0.23003 -1.03508,-0.34505 -0.9584,-0.38338 -0.9584,-0.42173 -0.88173,-0.46006 -0.88173,-0.4984 -0.80506,-0.53674 -0.80505,-0.57508 -0.80506,-0.57508 -0.76672,-0.57508 -1.49511,-1.18849 -1.45677,-1.15016 -0.76672,0.57508 -0.72839,0.57508 -0.72838,0.61341 -0.72839,0.57508 -0.72839,0.57508 -0.72838,0.61342 -0.72839,0.57508 -0.69005,0.57508 0,1.72523 0,1.38019 0.0383,1.1885 0.0383,1.18849 0.115,1.26518 0.11501,1.53354 0.19168,1.91693 0.26836,2.49201 -0.26836,0.80511 -0.42169,0.76677 -0.49837,0.72843 -0.61338,0.6901 -0.72839,0.61341 -0.80505,0.57508 -0.8434,0.57508 -0.9584,0.4984 -1.03507,0.46007 -1.07341,0.42172 -1.11175,0.42172 -1.18842,0.34505 -1.18842,0.34505 -1.26509,0.30671 -1.26509,0.26837 -1.26509,0.26837 -1.30342,0.19169 -1.30343,0.23003 -1.30343,0.15336 -1.30342,0.19169 -2.53019,0.23003 -2.37683,0.23003 -2.22349,0.15336 -1.99348,0.11501 -1.72512,0.0767 -1.34177,0.0767 z"
       style="fill:#000000;fill-opacity:1;fill-rule:evenodd;stroke:none" />
    <path
       inkscape:connector-curvature="0"
       id="path2551"
       d="m -470.08717,483.32246 -0.72838,-0.15335 -0.72839,-0.15336 -0.76672,-0.11501 -0.92007,-0.11502 -1.22675,-0.0767 -1.64845,-0.11502 -2.10849,-0.15335 0.15335,-0.88179 0.19168,-0.80511 0.19168,-0.80511 0.19168,-0.76677 0.26835,-0.72844 0.23002,-0.72843 0.30669,-0.65176 0.26835,-0.69009 0.30669,-0.65176 0.34502,-0.61341 0.34503,-0.61342 0.34502,-0.61342 0.76672,-1.15016 0.80506,-1.11181 1.68679,-2.1853 1.80179,-2.22364 0.92007,-1.15016 0.88173,-1.22683 0.88173,-1.26518 0.88173,-1.34185 0.19168,-1.80191 0.15334,-1.53354 0.15335,-1.34185 0.19168,-1.11182 0.11501,-0.46007 0.11501,-0.46006 0.115,-0.38338 0.15335,-0.38339 0.15334,-0.30671 0.15335,-0.30671 0.23001,-0.26837 0.19168,-0.26837 0.26836,-0.23003 0.26835,-0.19169 0.30669,-0.19169 0.34502,-0.15336 0.76672,-0.30671 0.92007,-0.30671 2.37684,-0.61341 3.14355,-0.80511 2.30017,-1.34185 1.87847,-1.11182 1.64845,-1.03515 1.72512,-1.07348 1.95514,-1.26517 2.45351,-1.61022 3.14356,-2.07028 4.10196,-2.72204 2.3385,-0.6901 2.3385,-0.61341 2.37684,-0.61342 2.3385,-0.57508 2.3385,-0.57508 2.3385,-0.57508 2.3385,-0.61341 2.3385,-0.61342 2.30017,-0.65176 2.3385,-0.72843 1.15008,-0.42172 1.15008,-0.38339 1.11175,-0.46006 1.15008,-0.46007 1.15008,-0.46006 1.15008,-0.53674 1.11175,-0.53674 1.15008,-0.53674 1.11175,-0.61342 1.11175,-0.65175 1.15008,-0.65176 1.11174,-0.72843 2.95188,-2.53035 2.79854,-2.41533 1.34176,-1.15016 1.34176,-1.11182 1.30343,-1.11181 1.34176,-1.03515 1.34176,-1.03514 1.3801,-0.9968 1.41844,-0.9968 1.45677,-0.99681 1.4951,-0.95846 1.57178,-0.92013 1.64845,-0.95846 1.68679,-0.92013 0.15335,-1.87859 0.19168,-1.84025 0.23001,-1.84025 0.23002,-1.80192 0.26835,-1.80191 0.30669,-1.76357 0.30669,-1.76358 0.30669,-1.76357 0.34502,-1.72524 0.34503,-1.72524 0.38336,-1.68689 0.34502,-1.6869 0.38336,-1.72524 0.34503,-1.68689 0.34502,-1.64856 0.34503,-1.6869 -2.22349,-1.76358 -2.26183,-1.87859 -2.26183,-1.95526 -2.30017,-2.07029 -1.11174,-1.03514 -1.15008,-1.11182 -1.11175,-1.07348 -1.11175,-1.11182 -1.07341,-1.15015 -1.03507,-1.15016 -1.07341,-1.1885 -0.99674,-1.18849 -0.99674,-1.1885 -0.92006,-1.22683 -0.92007,-1.22684 -0.88173,-1.22683 -0.84339,-1.26518 -0.80506,-1.22683 -0.76672,-1.30351 -0.69005,-1.26518 -0.65171,-1.26517 -0.57505,-1.30351 -0.5367,-1.30351 -0.49837,-1.30352 -0.38336,-1.30351 -0.38336,-1.30351 -0.26835,-1.30351 -0.19168,-1.34185 2.41517,0.0383 2.49184,0.11501 2.49185,0.1917 2.53018,0.23003 2.53018,0.26837 2.56852,0.34504 2.60685,0.34505 2.60685,0.38339 2.60686,0.42172 2.64519,0.46007 2.64519,0.42172 2.68352,0.42172 2.64519,0.46007 2.68353,0.42172 2.68352,0.38339 2.64519,0.38338 0.30669,1.1885 0.34502,1.15016 0.30669,1.15015 0.38336,1.1885 0.76673,2.30031 0.84339,2.30032 0.92007,2.26198 0.9584,2.26197 1.03507,2.26198 1.11175,2.22364 1.18842,2.22363 1.22675,2.1853 1.26509,2.1853 1.34176,2.1853 1.3801,2.1853 1.45677,2.14696 1.45677,2.10862 1.53345,2.14696 1.30342,1.11182 1.34177,1.11182 1.3801,1.1885 1.41843,1.18849 1.41844,1.30352 1.41843,1.38018 0.72839,0.6901 0.69004,0.76677 0.72839,0.76677 0.69005,0.80511 0.46003,3.02875 0.46004,3.10543 0.19168,1.61022 0.19168,1.61022 0.15334,1.61022 0.15334,1.64856 0.0767,1.64855 0.0383,1.64856 -0.0383,1.64856 -0.0383,1.6869 -0.15334,1.64856 -0.19168,1.64856 -0.11501,0.80511 -0.15335,0.80511 -0.19168,0.84345 -0.19168,0.80511 -0.69005,0.76677 -0.76672,0.72843 -0.80506,0.65176 -0.84339,0.65175 -0.88173,0.61342 -0.88173,0.53674 -0.9584,0.53674 -0.9584,0.4984 -0.99674,0.46007 -1.03507,0.42172 -1.03508,0.42173 -1.07341,0.38338 -1.07341,0.34505 -1.11175,0.30671 -1.11174,0.30671 -1.11175,0.3067 -2.26183,0.53674 -2.26183,0.46007 -2.26182,0.42172 -2.2235,0.38339 -2.18515,0.38338 -2.10849,0.38339 -2.03181,0.38339 -1.95514,0.42172 -1.95514,0.95846 -1.95514,0.95847 -1.9168,0.95846 -1.91681,0.95847 -1.87846,0.95846 -1.87847,0.95847 -1.84013,0.95846 -1.87847,0.95847 -1.84013,0.9968 -1.84014,0.9968 -1.84013,0.99681 -1.84013,0.9968 -1.84013,1.03514 -1.84013,1.07348 -1.84013,1.07348 -1.84014,1.11182 -0.26835,1.87859 -0.30669,1.91693 -0.26835,1.91693 -0.26835,1.91693 -0.23002,1.91693 -0.26835,1.95526 -0.26835,1.91693 -0.23002,1.91693 -0.46003,0.19169 -0.49837,0.15336 -0.46003,0.0767 -0.49837,0.0383 -0.49837,0 -0.49837,-0.0383 -0.49837,-0.11502 -0.49837,-0.11502 -0.49837,-0.15335 -0.5367,-0.19169 -0.49837,-0.23003 -0.49837,-0.23004 -1.03508,-0.57507 -0.99673,-0.61342 -1.91681,-1.30351 -1.72512,-1.26518 -0.76672,-0.57507 -0.72839,-0.49841 -0.61338,-0.34504 -0.5367,-0.26837 0,0.88178 0,0.92013 0,0.88179 0,0.88178 0,0.88179 0,0.92013 0,0.92012 0,0.92013 -1.07341,-0.19169 -1.03507,-0.15336 -1.03508,-0.15335 -0.99674,-0.19169 -0.84339,-0.34505 -0.80506,-0.23003 -0.76672,-0.1917 -0.72839,-0.11501 -0.72838,-0.0767 -0.69005,-0.0383 -0.69005,0.0383 -0.65171,0.0383 -1.34177,0.15335 -1.34176,0.1917 -0.72838,0.11501 -0.69005,0.0767 -0.76672,0.0383 -0.76673,0 -1.80179,-0.6901 -1.41844,-0.61341 -0.61337,-0.26837 -0.53671,-0.1917 -0.5367,-0.19169 -0.49837,-0.11502 -0.46004,-0.0767 -0.49836,-0.0383 -0.46004,0.0767 -0.49837,0.0767 -0.5367,0.1917 -0.57504,0.23003 -0.65172,0.34504 -0.69005,0.38339 0.65172,1.84025 0.61337,1.87859 0.65172,1.87859 0.61338,1.87859 0.65171,1.87859 0.65171,1.87859 0.65172,1.91693 0.69004,1.87859 -1.30342,0.42173 -1.26509,0.42172 -1.30343,0.38339 -1.26509,0.38338 -1.30343,0.34505 -1.30342,0.30671 -1.26509,0.30671 -1.30343,0.26837 -2.60685,0.4984 -2.56852,0.46006 -2.60685,0.38339 -2.56852,0.30671 -2.56852,0.26837 -2.56852,0.23003 -2.56851,0.19169 -2.56852,0.1917 -2.53018,0.15335 -2.56852,0.15335 -2.49184,0.11502 -2.53018,0.15335 z"
       style="fill:#000000;fill-opacity:1;fill-rule:evenodd;stroke:none" />
  </g>
  <!-- EMR_SELECTPALETTE -->
  <!-- EMR_EXTSELECTCLIPRGN -->
</svg>
