<?xml version="1.0" encoding="UTF-8" standalone="no"?>
<!-- Generated by Microsoft Visio 11.0, SVG Export, v1.0 Owl_Guardant.svg Page-1 -->

<svg
   xmlns:v="http://schemas.microsoft.com/visio/2003/SVGExtensions/"
   xmlns:dc="http://purl.org/dc/elements/1.1/"
   xmlns:cc="http://creativecommons.org/ns#"
   xmlns:rdf="http://www.w3.org/1999/02/22-rdf-syntax-ns#"
   xmlns:svg="http://www.w3.org/2000/svg"
   xmlns="http://www.w3.org/2000/svg"
   xmlns:sodipodi="http://sodipodi.sourceforge.net/DTD/sodipodi-0.dtd"
   xmlns:inkscape="http://www.inkscape.org/namespaces/inkscape"
   width="4.55821in"
   height="4.35886in"
   viewBox="0 0 328.191 313.838"
   xml:space="preserve"
   class="st15"
   id="svg2"
   version="1.1"
   inkscape:version="0.91 r13725"
   sodipodi:docname="owl.svg"
   color-interpolation-filters="sRGB"><metadata
     id="metadata636"><rdf:RDF><cc:Work
         rdf:about=""><dc:format>image/svg+xml</dc:format><dc:type
           rdf:resource="http://purl.org/dc/dcmitype/StillImage" /><dc:title>Owl Guardant</dc:title></cc:Work></rdf:RDF></metadata><defs
     id="defs634" /><sodipodi:namedview
     pagecolor="#ffffff"
     bordercolor="#666666"
     borderopacity="1"
     objecttolerance="10"
     gridtolerance="10"
     guidetolerance="10"
     inkscape:pageopacity="0"
     inkscape:pageshadow="2"
     inkscape:window-width="2495"
     inkscape:window-height="1416"
     id="namedview632"
     showgrid="false"
     inkscape:zoom="2.3533855"
     inkscape:cx="278.22862"
     inkscape:cy="238.80535"
     inkscape:window-x="1985"
     inkscape:window-y="24"
     inkscape:window-maximized="1"
     inkscape:current-layer="group1-1" /><title
     id="title4">Owl Guardant</title><v:documentProperties
     v:langID="1033"
     v:viewMarkup="false" /><style
     type="text/css"
     id="style6"><![CDATA[
		.st1 {fill:#ffffff;stroke:#000000;stroke-linecap:round;stroke-linejoin:round;stroke-width:3}
		.st2 {stroke:#000000;stroke-linecap:round;stroke-linejoin:round;stroke-width:1.5}
		.st3 {fill:#000000;stroke:#000000;stroke-linecap:round;stroke-linejoin:round;stroke-width:1}
		.st4 {fill:#ffff00;stroke:#000000;stroke-linecap:round;stroke-linejoin:round;stroke-width:3}
		.st5 {fill:#ffff00;stroke:#000000;stroke-linecap:round;stroke-linejoin:round;stroke-width:0.24}
		.st6 {fill:#000000;stroke:#000000;stroke-linecap:round;stroke-linejoin:round;stroke-width:1.2}
		.st7 {fill:#ffffff}
		.st8 {fill:#ffffff;stroke:#000000;stroke-linecap:round;stroke-linejoin:round;stroke-width:1.5}
		.st9 {fill:#ffff00;stroke:#000000;stroke-linecap:round;stroke-linejoin:round;stroke-width:1.5}
		.st10 {fill:#000000;stroke:#000000;stroke-linecap:round;stroke-linejoin:round;stroke-width:1.5}
		.st11 {fill:#ffffff;stroke:#000000;stroke-linecap:round;stroke-linejoin:round;stroke-width:0.24}
		.st12 {fill:#000000;stroke:#000000;stroke-linecap:round;stroke-linejoin:round;stroke-width:0.24}
		.st13 {fill:#000000}
		.st14 {stroke:#000000;stroke-linecap:round;stroke-linejoin:round;stroke-width:0.24}
		.st15 {fill:none;fill-rule:evenodd;font-size:12px;overflow:visible;stroke-linecap:square;stroke-miterlimit:3}
	]]></style><g
     v:mID="0"
     v:index="1"
     v:groupContext="foregroundPage"
     id="g8"><title
       id="title10">Page-1</title><v:pageProperties
       v:drawingScale="1"
       v:pageScale="1"
       v:drawingUnits="19"
       v:shadowOffsetX="9"
       v:shadowOffsetY="-9" /><g
       id="group1-1"
       transform="translate(9.19308,-5.505)"
       v:mID="1"
       v:groupContext="group"><title
         id="title13">Owl.185</title><g
         id="group2-2"
         transform="translate(6.77887,34.2601) rotate(-40)"
         v:mID="2"
         v:groupContext="group"
         style="fill:#000000"><title
           id="title16">Sheet.2</title><g
           id="shape3-3"
           v:mID="3"
           v:groupContext="shape"
           style="fill:#000000"><title
             id="title19">Sheet.3</title><path
             d="M49.8 248.48 L49.63 248.4 A58.7 58.7 -179.56 0 0 31.15 199.72 A40.7994 40.7994 -0.53 0 0 11.91 243.94          L11.88 243.95 A66.2377 59.7893 -90 0 0 12.65 244.84 A21.7133 19.5995 90 0 1 0 278.26 A16.8196 15.1822          -90 0 0 21.41 277.18 A61.5002 55.513 -90 0 0 32.11 313.84 A61.5002 55.513 -90 0 0 42.82 277.18 A16.8196          15.1822 -90 0 0 64.22 278.26 A21.7133 19.5995 90 0 1 49.8 248.48 Z"
             class="st1"
             id="path21"
             style="fill:#000000" /></g><g
           id="shape4-5"
           v:mID="4"
           v:groupContext="shape"
           transform="translate(-282.366,313.582) rotate(-90)"
           style="fill:#000000"><title
             id="title24">Sheet.4</title><path
             d="M0 313.84 L95.95 313.84"
             class="st2"
             id="path26"
             style="fill:#000000" /></g></g><g
         id="group5-8"
         transform="translate(0,-114.422)"
         v:mID="5"
         v:groupContext="group"
         style="fill:#000000"><title
           id="title29">Sheet.5</title><g
           id="group6-9"
           transform="translate(208.449,5.68434E-014)"
           v:mID="6"
           v:groupContext="group"
           style="fill:#000000"><title
             id="title32">Sheet.6</title><g
             id="group7-10"
             v:mID="7"
             v:groupContext="group"
             style="fill:#000000"><title
               id="title35">Sheet.7</title><g
               id="shape8-11"
               v:mID="8"
               v:groupContext="shape"
               transform="translate(325.457,208.634) rotate(105.913)"
               style="fill:#000000"><title
                 id="title38">Sheet.8</title><path
                 d="M-0 312.6 A29.2607 21.7633 169.49 0 1 38.71 295.49 A195.671 145.882 2.56 0 1 80.6 312.6 A9.33282            8.93171 -84.54 0 0 89.82 296.54 A1187.99 1136.68 -97.97 0 0 45.49 279.27 A35.7851 37.3846            -180 0 0 0 312.6 Z"
                 class="st1"
                 id="path40"
                 style="fill:#000000" /></g><g
               id="shape9-13"
               v:mID="9"
               v:groupContext="shape"
               transform="translate(339.745,244.725) rotate(111.932)"
               style="fill:#000000"><title
                 id="title43">Sheet.9</title><path
                 d="M-0 312.6 A31.8542 21.812 171.94 0 1 42.23 295.49 A213.463 145.902 1.96 0 1 87.94 312.6 A9.75283            9.32545 -5.36 0 0 98.01 296.54 A1242.25 1186.03 -172.42 0 0 49.64 279.27 A39.0441 37.3846            -180 0 0 0 312.6 Z"
                 class="st1"
                 id="path45"
                 style="fill:#000000" /></g><g
               id="shape10-15"
               v:mID="10"
               v:groupContext="shape"
               transform="translate(328.321,331.479) rotate(126.119)"
               style="fill:#000000"><title
                 id="title48">Sheet.10</title><path
                 d="M-0 312.6 A37.1221 21.8586 174.4 0 1 49.32 295.49 A249.264 145.92 1.36 0 1 102.7 312.6 A11.3865            9.32827 -1.19 0 0 114.46 296.54 A1449.88 1186.76 -178.28 0 0 57.97 279.27 A45.5982 37.3846            -180 0 0 -0 312.6 Z"
                 class="st1"
                 id="path50"
                 style="fill:#000000" /></g><g
               id="shape11-17"
               v:mID="11"
               v:groupContext="shape"
               transform="translate(140.201,531.576) rotate(172.85)"
               style="fill:#000000"><title
                 id="title53">Sheet.11</title><path
                 d="M-0 312.6 A29.3155 21.7647 169.56 0 1 38.78 295.49 A196.05 145.883 2.54 0 1 80.76 312.6 A9.33299            8.94885 -84.29 0 0 90 296.54 A1188.04 1138.83 -98.33 0 0 45.58 279.27 A35.8545 37.3846 -180            0 0 0 312.6 Z"
                 class="st1"
                 id="path55"
                 style="fill:#000000" /></g><g
               id="shape12-19"
               v:mID="12"
               v:groupContext="shape"
               transform="translate(84.0379,559.786) rotate(-177.15)"
               style="fill:#000000"><title
                 id="title58">Sheet.12</title><path
                 d="M0 312.6 A29.3155 21.7647 169.56 0 1 38.78 295.49 A196.05 145.883 2.54 0 1 80.76 312.6 A9.33299            8.94885 -84.29 0 0 90 296.54 A1188.04 1138.83 -98.33 0 0 45.58 279.27 A35.8545 37.3846 -180            0 0 0 312.6 Z"
                 class="st1"
                 id="path60"
                 style="fill:#000000" /></g><g
               id="shape13-21"
               v:mID="13"
               v:groupContext="shape"
               transform="translate(262.482,447.448) rotate(146.85)"
               style="fill:#000000"><title
                 id="title63">Sheet.13</title><path
                 d="M-0 312.6 A29.3155 21.7647 169.56 0 1 38.78 295.49 A196.05 145.883 2.54 0 1 80.76 312.6 A9.33299            8.94885 -84.29 0 0 90 296.54 A1188.04 1138.83 -98.33 0 0 45.58 279.27 A35.8545 37.3846 -180            0 0 0 312.6 Z"
                 class="st1"
                 id="path65"
                 style="fill:#000000" /></g><g
               id="shape14-23"
               v:mID="14"
               v:groupContext="shape"
               transform="translate(0.271753,577.11) rotate(-162.15)"
               style="fill:#000000"><title
                 id="title68">Sheet.14</title><path
                 d="M-0 312.6 A29.3155 21.7647 169.56 0 1 38.78 295.49 A196.05 145.883 2.54 0 1 80.76 312.6 A9.33299            8.94885 -84.29 0 0 90 296.54 A1188.04 1138.83 -98.33 0 0 45.58 279.27 A35.8545 37.3846 -180            0 0 0 312.6 Z"
                 class="st1"
                 id="path70"
                 style="fill:#000000" /></g><g
               id="shape15-25"
               v:mID="15"
               v:groupContext="shape"
               transform="translate(31.88,583.859) rotate(-175)"
               style="fill:#000000"><title
                 id="title73">Sheet.15</title><path
                 d="M48.88 308.63 A1187.99 1136.68 -31.05 0 0 48.5 301.03 A37.3846 35.7851 -23.09 0 0 0 272.25 A29.2607            21.7633 56.4 0 1 30.92 301.15 A195.671 145.882 69.47 0 1 31.64 308.63 A9.73708 9.73708 -180            0 0 48.88 308.63 Z"
                 class="st1"
                 id="path75"
                 style="fill:#000000" /></g></g><g
             id="group16-27"
             transform="translate(3.2927,-7.00133)"
             v:mID="16"
             v:groupContext="group"
             style="fill:#000000"><title
               id="title78">Sheet.16</title><g
               id="shape17-28"
               v:mID="17"
               v:groupContext="shape"
               transform="translate(-27.1595,-93.1155) rotate(-5)"
               style="fill:#000000"><title
                 id="title81">Sheet.17</title><path
                 d="M32.23 279.69 L0 311.62 L1.4 313.84 A865.536 865.536 -93.21 0 0 33.93 281.16 A43.8824 43.8824            -91.44 0 0 44.06 246.86 A50.1372 50.1372 88.33 0 1 32.23 279.69 Z"
                 class="st3"
                 id="path83"
                 style="fill:#000000" /></g><g
               id="shape18-30"
               v:mID="18"
               v:groupContext="shape"
               transform="translate(9.23721,-86.7733) rotate(-1)"
               style="fill:#000000"><title
                 id="title86">Sheet.18</title><path
                 d="M33.95 277.86 L0 311.5 L1.48 313.84 A911.815 911.815 -94.88 0 0 35.75 279.42 A46.2288 46.2288            -92.34 0 0 46.41 243.28 A52.818 52.818 87.37 0 1 33.95 277.86 Z"
                 class="st3"
                 id="path88"
                 style="fill:#000000" /></g><g
               id="shape19-32"
               v:mID="19"
               v:groupContext="shape"
               transform="translate(76.134,-60.6063) rotate(12.1)"
               style="fill:#000000"><title
                 id="title91">Sheet.19</title><path
                 d="M38.87 272.65 L0 311.16 L1.69 313.84 A1043.86 1043.86 -95.34 0 0 40.92 274.43 A52.9236 52.9236            -92.55 0 0 53.14 233.06 A60.4671 60.4671 87.14 0 1 38.87 272.65 Z"
                 class="st3"
                 id="path93"
                 style="fill:#000000" /></g><g
               id="shape20-34"
               v:mID="20"
               v:groupContext="shape"
               transform="translate(284.972,96.067) rotate(62)"
               style="fill:#000000"><title
                 id="title96">Sheet.20</title><path
                 d="M32.33 279.58 L0 311.61 L1.41 313.84 A868.127 868.127 -92.9 0 0 34.03 281.07 A44.0138 44.0138            -91.33 0 0 44.19 246.66 A50.2873 50.2873 88.51 0 1 32.33 279.58 Z"
                 class="st3"
                 id="path98"
                 style="fill:#000000" /></g><g
               id="shape21-36"
               v:mID="21"
               v:groupContext="shape"
               transform="translate(303.401,156.711) rotate(72)"
               style="fill:#000000"><title
                 id="title101">Sheet.21</title><path
                 d="M32.33 279.58 L0 311.61 L1.41 313.84 A868.127 868.127 -93.19 0 0 34.03 281.07 A44.0138 44.0138            -91.44 0 0 44.19 246.66 A50.2873 50.2873 88.39 0 1 32.33 279.58 Z"
                 class="st3"
                 id="path103"
                 style="fill:#000000" /></g><g
               id="shape22-38"
               v:mID="22"
               v:groupContext="shape"
               transform="translate(198.285,-8.18272) rotate(36)"
               style="fill:#000000"><title
                 id="title106">Sheet.22</title><path
                 d="M32.33 279.58 L0 311.61 L1.41 313.84 A868.127 868.127 -92.9 0 0 34.03 281.07 A44.0138 44.0138            -91.33 0 0 44.19 246.66 A50.2873 50.2873 88.51 0 1 32.33 279.58 Z"
                 class="st3"
                 id="path108"
                 style="fill:#000000" /></g><g
               id="shape23-40"
               v:mID="23"
               v:groupContext="shape"
               transform="translate(318.183,245.635) rotate(87)"
               style="fill:#000000"><title
                 id="title111">Sheet.23</title><path
                 d="M32.33 279.58 L0 311.61 L1.41 313.84 A868.127 868.127 -93.19 0 0 34.03 281.07 A44.0138 44.0138            -91.48 0 0 44.19 246.66 A50.2873 50.2873 88.34 0 1 32.33 279.58 Z"
                 class="st3"
                 id="path113"
                 style="fill:#000000" /></g><g
               id="shape24-42"
               v:mID="24"
               v:groupContext="shape"
               transform="translate(34.1566,596.7) rotate(179)"
               style="fill:#000000"><title
                 id="title116">Sheet.24</title><path
                 d="M14.22 313.84 L16.49 313.84 A43.8824 43.8824 -135 0 0 -0 282.91 A50.1372 50.1372 45 0 1 14.22            313.84 Z"
                 class="st3"
                 id="path118"
                 style="fill:#000000" /></g></g></g><g
           id="group25-44"
           transform="translate(101.356,5.68434E-014) scale(-1,1)"
           v:mID="25"
           v:groupContext="group"
           style="fill:#000000"><title
             id="title121">Sheet.25</title><g
             id="group26-45"
             v:mID="26"
             v:groupContext="group"
             style="fill:#000000"><title
               id="title124">Sheet.26</title><g
               id="shape27-46"
               v:mID="27"
               v:groupContext="shape"
               transform="translate(325.457,208.634) rotate(105.913)"
               style="fill:#000000"><title
                 id="title127">Sheet.27</title><path
                 d="M-0 312.6 A29.2607 21.7633 169.49 0 1 38.71 295.49 A195.671 145.882 2.56 0 1 80.6 312.6 A9.33282            8.93171 -84.54 0 0 89.82 296.54 A1187.99 1136.68 -97.97 0 0 45.49 279.27 A35.7851 37.3846            -180 0 0 0 312.6 Z"
                 class="st1"
                 id="path129"
                 style="fill:#000000" /></g><g
               id="shape28-48"
               v:mID="28"
               v:groupContext="shape"
               transform="translate(339.745,244.725) rotate(111.932)"
               style="fill:#000000"><title
                 id="title132">Sheet.28</title><path
                 d="M-0 312.6 A31.8542 21.812 171.94 0 1 42.23 295.49 A213.463 145.902 1.96 0 1 87.94 312.6 A9.75283            9.32545 -5.36 0 0 98.01 296.54 A1242.25 1186.03 -172.42 0 0 49.64 279.27 A39.0441 37.3846            -180 0 0 0 312.6 Z"
                 class="st1"
                 id="path134"
                 style="fill:#000000" /></g><g
               id="shape29-50"
               v:mID="29"
               v:groupContext="shape"
               transform="translate(328.321,331.479) rotate(126.119)"
               style="fill:#000000"><title
                 id="title137">Sheet.29</title><path
                 d="M-0 312.6 A37.1221 21.8586 174.4 0 1 49.32 295.49 A249.264 145.92 1.36 0 1 102.7 312.6 A11.3865            9.32827 -1.19 0 0 114.46 296.54 A1449.88 1186.76 -178.28 0 0 57.97 279.27 A45.5982 37.3846            -180 0 0 -0 312.6 Z"
                 class="st1"
                 id="path139"
                 style="fill:#000000" /></g><g
               id="shape30-52"
               v:mID="30"
               v:groupContext="shape"
               transform="translate(140.201,531.576) rotate(172.85)"
               style="fill:#000000"><title
                 id="title142">Sheet.30</title><path
                 d="M-0 312.6 A29.3155 21.7647 169.56 0 1 38.78 295.49 A196.05 145.883 2.54 0 1 80.76 312.6 A9.33299            8.94885 -84.29 0 0 90 296.54 A1188.04 1138.83 -98.33 0 0 45.58 279.27 A35.8545 37.3846 -180            0 0 0 312.6 Z"
                 class="st1"
                 id="path144"
                 style="fill:#000000" /></g><g
               id="shape31-54"
               v:mID="31"
               v:groupContext="shape"
               transform="translate(84.0379,559.786) rotate(-177.15)"
               style="fill:#000000"><title
                 id="title147">Sheet.31</title><path
                 d="M0 312.6 A29.3155 21.7647 169.56 0 1 38.78 295.49 A196.05 145.883 2.54 0 1 80.76 312.6 A9.33299            8.94885 -84.29 0 0 90 296.54 A1188.04 1138.83 -98.33 0 0 45.58 279.27 A35.8545 37.3846 -180            0 0 0 312.6 Z"
                 class="st1"
                 id="path149"
                 style="fill:#000000" /></g><g
               id="shape32-56"
               v:mID="32"
               v:groupContext="shape"
               transform="translate(262.482,447.448) rotate(146.85)"
               style="fill:#000000"><title
                 id="title152">Sheet.32</title><path
                 d="M-0 312.6 A29.3155 21.7647 169.56 0 1 38.78 295.49 A196.05 145.883 2.54 0 1 80.76 312.6 A9.33299            8.94885 -84.29 0 0 90 296.54 A1188.04 1138.83 -98.33 0 0 45.58 279.27 A35.8545 37.3846 -180            0 0 0 312.6 Z"
                 class="st1"
                 id="path154"
                 style="fill:#000000" /></g><g
               id="shape33-58"
               v:mID="33"
               v:groupContext="shape"
               transform="translate(0.271753,577.11) rotate(-162.15)"
               style="fill:#000000"><title
                 id="title157">Sheet.33</title><path
                 d="M-0 312.6 A29.3155 21.7647 169.56 0 1 38.78 295.49 A196.05 145.883 2.54 0 1 80.76 312.6 A9.33299            8.94885 -84.29 0 0 90 296.54 A1188.04 1138.83 -98.33 0 0 45.58 279.27 A35.8545 37.3846 -180            0 0 0 312.6 Z"
                 class="st1"
                 id="path159"
                 style="fill:#000000" /></g><g
               id="shape34-60"
               v:mID="34"
               v:groupContext="shape"
               transform="translate(31.88,583.859) rotate(-175)"
               style="fill:#000000"><title
                 id="title162">Sheet.34</title><path
                 d="M48.88 308.63 A1187.99 1136.68 -31.05 0 0 48.5 301.03 A37.3846 35.7851 -23.09 0 0 0 272.25 A29.2607            21.7633 56.4 0 1 30.92 301.15 A195.671 145.882 69.47 0 1 31.64 308.63 A9.73708 9.73708 -180            0 0 48.88 308.63 Z"
                 class="st1"
                 id="path164"
                 style="fill:#000000" /></g></g><g
             id="group35-62"
             transform="translate(3.2927,-7.00133)"
             v:mID="35"
             v:groupContext="group"
             style="fill:#000000"><title
               id="title167">Sheet.35</title><g
               id="shape36-63"
               v:mID="36"
               v:groupContext="shape"
               transform="translate(-27.1595,-93.1155) rotate(-5)"
               style="fill:#000000"><title
                 id="title170">Sheet.36</title><path
                 d="M32.23 279.69 L0 311.62 L1.4 313.84 A865.536 865.536 -93.21 0 0 33.93 281.16 A43.8824 43.8824            -91.44 0 0 44.06 246.86 A50.1372 50.1372 88.33 0 1 32.23 279.69 Z"
                 class="st3"
                 id="path172"
                 style="fill:#000000" /></g><g
               id="shape37-65"
               v:mID="37"
               v:groupContext="shape"
               transform="translate(9.23721,-86.7733) rotate(-1)"
               style="fill:#000000"><title
                 id="title175">Sheet.37</title><path
                 d="M33.95 277.86 L0 311.5 L1.48 313.84 A911.815 911.815 -94.88 0 0 35.75 279.42 A46.2288 46.2288            -92.34 0 0 46.41 243.28 A52.818 52.818 87.37 0 1 33.95 277.86 Z"
                 class="st3"
                 id="path177"
                 style="fill:#000000" /></g><g
               id="shape38-67"
               v:mID="38"
               v:groupContext="shape"
               transform="translate(76.134,-60.6063) rotate(12.1)"
               style="fill:#000000"><title
                 id="title180">Sheet.38</title><path
                 d="M38.87 272.65 L0 311.16 L1.69 313.84 A1043.86 1043.86 -95.34 0 0 40.92 274.43 A52.9236 52.9236            -92.55 0 0 53.14 233.06 A60.4671 60.4671 87.14 0 1 38.87 272.65 Z"
                 class="st3"
                 id="path182"
                 style="fill:#000000" /></g><g
               id="shape39-69"
               v:mID="39"
               v:groupContext="shape"
               transform="translate(284.972,96.067) rotate(62)"
               style="fill:#000000"><title
                 id="title185">Sheet.39</title><path
                 d="M32.33 279.58 L0 311.61 L1.41 313.84 A868.127 868.127 -92.9 0 0 34.03 281.07 A44.0138 44.0138            -91.33 0 0 44.19 246.66 A50.2873 50.2873 88.51 0 1 32.33 279.58 Z"
                 class="st3"
                 id="path187"
                 style="fill:#000000" /></g><g
               id="shape40-71"
               v:mID="40"
               v:groupContext="shape"
               transform="translate(303.401,156.711) rotate(72)"
               style="fill:#000000"><title
                 id="title190">Sheet.40</title><path
                 d="M32.33 279.58 L0 311.61 L1.41 313.84 A868.127 868.127 -93.19 0 0 34.03 281.07 A44.0138 44.0138            -91.44 0 0 44.19 246.66 A50.2873 50.2873 88.39 0 1 32.33 279.58 Z"
                 class="st3"
                 id="path192"
                 style="fill:#000000" /></g><g
               id="shape41-73"
               v:mID="41"
               v:groupContext="shape"
               transform="translate(198.285,-8.18272) rotate(36)"
               style="fill:#000000"><title
                 id="title195">Sheet.41</title><path
                 d="M32.33 279.58 L0 311.61 L1.41 313.84 A868.127 868.127 -92.9 0 0 34.03 281.07 A44.0138 44.0138            -91.33 0 0 44.19 246.66 A50.2873 50.2873 88.51 0 1 32.33 279.58 Z"
                 class="st3"
                 id="path197"
                 style="fill:#000000" /></g><g
               id="shape42-75"
               v:mID="42"
               v:groupContext="shape"
               transform="translate(318.183,245.635) rotate(87)"
               style="fill:#000000"><title
                 id="title200">Sheet.42</title><path
                 d="M32.33 279.58 L0 311.61 L1.41 313.84 A868.127 868.127 -93.19 0 0 34.03 281.07 A44.0138 44.0138            -91.48 0 0 44.19 246.66 A50.2873 50.2873 88.34 0 1 32.33 279.58 Z"
                 class="st3"
                 id="path202"
                 style="fill:#000000" /></g><g
               id="shape43-77"
               v:mID="43"
               v:groupContext="shape"
               transform="translate(34.1566,596.7) rotate(179)"
               style="fill:#000000"><title
                 id="title205">Sheet.43</title><path
                 d="M14.22 313.84 L16.49 313.84 A43.8824 43.8824 -135 0 0 -0 282.91 A50.1372 50.1372 45 0 1 14.22            313.84 Z"
                 class="st3"
                 id="path207"
                 style="fill:#000000" /></g></g></g><g
           id="shape44-79"
           v:mID="44"
           v:groupContext="shape"
           transform="translate(146.419,-18.9375) scale(-1,1)"
           style="fill:#000000"><title
             id="title210">Sheet.44</title><path
             d="M5.36 251.4 A20.0304 20.0304 0 0 1 37.71 253.65 A6.71142 6.71142 -13.05 1 0 48.96 246.34 L40.52 237.9          A12.0458 12.0458 12.03 0 1 41.08 218.78 L59.93 201.34 A21.6669 21.6669 -180 0 0 57.68 177.15 A30.4569          30.4569 0 0 1 72.02 218.78 A65.0447 65.0447 0 0 1 89.18 217.65 A39.3859 39.3859 0 0 1 81.02 234.53          A21.1683 21.1683 0 0 1 99.3 236.78 A29.7218 29.7218 0 0 1 88.9 245.78 A65.6122 65.6122 0 0 1 109.15          253.09 A39.5525 39.5525 0 0 1 91.43 258.15 A18.3044 18.3044 0 0 1 109.15 266.59 A36.507 36.507 0          0 1 91.43 269.96 A17.5424 17.5424 0 0 1 106.9 280.65 A36.8215 36.8215 0 0 1 89.18 278.4 A20.7131          20.7131 0 0 1 98.18 291.34 A11.6104 11.6104 0 0 1 84.4 289.65 A18.8246 18.8246 0 0 1 90.58 305.96          A26.5752 26.5752 0 0 1 74.27 297.53 A16.5436 16.5436 0 0 1 72.02 312.15 A20.1416 20.1416 0 0 1 58.8          296.4 A42.6906 42.6906 0 0 1 57.68 313.84 A26.5938 26.5938 0 0 1 45.3 290.21 A13.7053 13.7053 -180          0 0 38.55 307.65 A17.8062 17.8062 0 0 1 32.36 287.4 L9.86 277.28 A15.2463 15.2463 0 0 1 5.36 251.4          Z"
             class="st1"
             id="path212"
             style="fill:#000000" /></g></g><g
         id="group45-81"
         transform="translate(74.5458,-9.19226)"
         v:mID="45"
         v:groupContext="group"
         style="fill:#000000"><title
           id="title215">Sheet.45</title><g
           id="group46-82"
           transform="translate(12.0896,-10.4713)"
           v:mID="46"
           v:groupContext="group"
           style="fill:#000000"><title
             id="title218">Sheet.46</title><g
             id="shape47-83"
             v:mID="47"
             v:groupContext="shape"
             transform="translate(-208.049,128.054) rotate(-50)"
             style="fill:#000000"><title
               id="title221">Sheet.47</title><path
               d="M26.87 294.49 L32.33 306.24 A5.32578 5.32578 -157.5 0 0 40.2 312.88 A5.28904 5.28904 -157.5 0 0           39.56 303.83 L33.76 291.4 A119.425 119.425 -2.95 0 0 69.07 263.15 A4.86347 4.86347 -1.97 0 0           62.67 255.94 A265.243 265.243 177.05 0 1 31.5 283.83 L27.12 267.65 A5.28904 5.28904 -157.5 0           0 19.05 261.68 A5.28904 5.28904 -157.5 0 0 20.19 270.95 L21.9 277.35 L14.76 270.45 A5.28904           5.28904 -157.5 0 0 6.44 266.21 A5.28904 5.28904 -157.5 0 0 9.46 275.83 L19.69 285.71 L9.66 284.12           A5.28904 5.28904 -180 0 0 2.26 282.77 A5.28904 5.28904 -157.5 0 0 8.18 291.53 L26.87 294.49           Z"
               class="st4"
               id="path223"
               style="fill:#000000" /></g><g
             id="shape48-85"
             v:mID="48"
             v:groupContext="shape"
             style="fill:#000000"><title
               id="title226">Sheet.48</title><path
               d="M34.81 296.76 L47.33 300.13 A5.32578 5.32578 -135 0 0 57.47 298.38 A5.28904 5.28904 -135 0 0 50.12           293.05 L36.88 289.5 A119.425 119.425 -58.67 0 0 37.93 244.3 A4.86347 4.86347 -69.24 0 0 28.3           244.56 A265.243 265.243 121.33 0 1 29.62 286.37 L14.41 279.32 A5.28904 5.28904 -135 0 0 4.66           281.66 A5.28904 5.28904 -135 0 0 12.49 286.75 L18.49 289.55 L8.62 290.59 A5.28904 5.28904 -135           0 0 0.02 294.24 A5.28904 5.28904 -135 0 0 9.33 298.1 L23.48 296.62 L15.81 303.29 A5.28904 5.28904           -135 0 0 10.02 308.09 A5.28904 5.28904 -135 0 0 20.54 309.18 L34.81 296.76 Z"
               class="st5"
               id="path228"
               style="fill:#000000" /></g></g><g
           id="group49-87"
           transform="translate(25.6303,-0.36463) rotate(5)"
           v:mID="49"
           v:groupContext="group"
           style="fill:#000000"><title
             id="title231">Sheet.49</title><g
             id="shape50-88"
             v:mID="50"
             v:groupContext="shape"
             transform="translate(1.29838,-39.0945)"
             style="fill:#000000"><title
               id="title234">Sheet.50</title><path
               d="M17.92 306.51 A13.8379 17.248 -180 0 0 -0 313.84 A19.3598 24.1306 0 0 1 15.57 310.91 A2.25495 2.81064           -180 0 0 17.92 306.51 Z"
               class="st6"
               id="path236"
               style="fill:#000000" /></g><g
             id="shape51-90"
             v:mID="51"
             v:groupContext="shape"
             transform="translate(-81.2273,-9.06994) rotate(-15)"
             style="fill:#000000"><title
               id="title239">Sheet.51</title><path
               d="M17.92 306.51 A13.8379 17.248 -180 0 0 0 313.84 A19.3598 24.1306 0 0 1 15.57 310.91 A2.25495 2.81064           -180 0 0 17.92 306.51 Z"
               class="st6"
               id="path241"
               style="fill:#000000" /></g><g
             id="shape52-92"
             v:mID="52"
             v:groupContext="shape"
             transform="translate(-204.031,91.9211) rotate(-45)"
             style="fill:#000000"><title
               id="title244">Sheet.52</title><path
               d="M17.92 306.51 A13.8379 17.248 -180 0 0 -0 313.84 A19.3598 24.1306 0 0 1 15.57 310.91 A2.25495 2.81064           -180 0 0 17.92 306.51 Z"
               class="st6"
               id="path246"
               style="fill:#000000" /></g><g
             id="shape53-94"
             v:mID="53"
             v:groupContext="shape"
             transform="translate(294.855,77.0681) rotate(45) scale(-1,1)"
             style="fill:#000000"><title
               id="title249">Sheet.53</title><path
               d="M17.92 306.51 A13.8379 17.248 -180 0 0 -0 313.84 A19.3598 24.1306 0 0 1 15.57 310.91 A2.25495 2.81064           -180 0 0 17.92 306.51 Z"
               class="st6"
               id="path251"
               style="fill:#000000" /></g></g></g><g
         id="shape54-96"
         v:mID="54"
         v:groupContext="shape"
         transform="translate(-92.1611,37.9962) rotate(-44)"
         style="fill:#000000"><title
           id="title254">Sheet.54</title><path
           d="M64 255.85 A73.1041 80.7849 -180 0 0 29.9 268.06 A23.9894 21.7086 123.76 0 1 11.81 268.98 A11.1168 10.0598         -1.44 0 0 19.33 277.42 A51.4913 46.5957 -89.79 0 0 13.47 283.67 A12.6118 13.9369 0 0 1 0 286.8 A11.2894         12.4755 -180 0 0 6.38 293.07 A7.71779 8.52866 0 0 1 0.71 300.91 A11.2806 12.4658 -180 0 0 12.06 297.77         A13.0453 14.4159 -180 0 0 8.33 313.84 A16.8632 18.635 0 0 1 25.53 301.89 A40.7205 36.849 -74.86 0 0         59.56 287.65 A8.7641 7.93084 44.66 0 1 63.82 279.36 A11.8676 11.8676 -180 0 0 64 255.85 Z"
           class="st1"
           id="path256"
           style="fill:#000000" /></g><g
         id="group55-98"
         transform="translate(60.7547,24.4318) rotate(-20)"
         v:mID="55"
         v:groupContext="group"
         style="fill:#000000"><title
           id="title259">Sheet.55</title><g
           id="group56-99"
           transform="translate(12.0896,-10.4713)"
           v:mID="56"
           v:groupContext="group"
           style="fill:#000000"><title
             id="title262">Sheet.56</title><g
             id="shape57-100"
             v:mID="57"
             v:groupContext="shape"
             transform="translate(-208.049,128.054) rotate(-50)"
             style="fill:#000000"><title
               id="title265">Sheet.57</title><path
               d="M26.87 294.49 L32.33 306.24 A5.32578 5.32578 -135 0 0 40.2 312.88 A5.28904 5.28904 -135 0 0 39.56           303.83 L33.76 291.4 A119.425 119.425 -3.92 0 0 69.07 263.15 A4.86347 4.86347 -3.92 0 0 62.67           255.94 A265.243 265.243 176.08 0 1 31.5 283.83 L27.12 267.65 A5.28904 5.28904 -135 0 0 19.05           261.68 A5.28904 5.28904 -135 0 0 20.19 270.95 L21.9 277.35 L14.76 270.45 A5.28904 5.28904 -135           0 0 6.44 266.21 A5.28904 5.28904 -135 0 0 9.46 275.83 L19.69 285.71 L9.66 284.12 A5.28904 5.28904           -180 0 0 2.26 282.77 A5.28904 5.28904 -135 0 0 8.18 291.53 L26.87 294.49 Z"
               class="st4"
               id="path267"
               style="fill:#000000" /></g><g
             id="shape58-102"
             v:mID="58"
             v:groupContext="shape"
             style="fill:#000000"><title
               id="title270">Sheet.58</title><path
               d="M34.81 296.76 L47.33 300.13 A5.32578 5.32578 -175.15 0 0 57.47 298.38 A5.28904 5.28904 -175.15 0           0 50.12 293.05 L36.88 289.5 A119.425 119.425 -52.25 0 0 37.93 244.3 A4.86347 4.86347 -59.73           0 0 28.3 244.56 A265.243 265.243 127.75 0 1 29.62 286.37 L14.41 279.32 A5.28904 5.28904 -175.15           0 0 4.66 281.66 A5.28904 5.28904 -175.15 0 0 12.49 286.75 L18.49 289.55 L8.62 290.59 A5.28904           5.28904 -175.15 0 0 0.02 294.24 A5.28904 5.28904 -175.15 0 0 9.33 298.1 L23.48 296.62 L15.81           303.29 A5.28904 5.28904 -175.15 0 0 10.02 308.09 A5.28904 5.28904 -175.15 0 0 20.54 309.18 L34.81           296.76 Z"
               class="st5"
               id="path272"
               style="fill:#000000" /></g></g><g
           id="group59-104"
           transform="translate(25.6303,-0.36463) rotate(5)"
           v:mID="59"
           v:groupContext="group"
           style="fill:#000000"><title
             id="title275">Sheet.59</title><g
             id="shape60-105"
             v:mID="60"
             v:groupContext="shape"
             transform="translate(1.29838,-39.0945)"
             style="fill:#000000"><title
               id="title278">Sheet.60</title><path
               d="M17.92 306.51 A13.8379 17.248 -180 0 0 -0 313.84 A19.3598 24.1306 0 0 1 15.57 310.91 A2.25495 2.81064           -180 0 0 17.92 306.51 Z"
               class="st6"
               id="path280"
               style="fill:#000000" /></g><g
             id="shape61-107"
             v:mID="61"
             v:groupContext="shape"
             transform="translate(-81.2273,-9.06994) rotate(-15)"
             style="fill:#000000"><title
               id="title283">Sheet.61</title><path
               d="M17.92 306.51 A13.8379 17.248 -180 0 0 0 313.84 A19.3598 24.1306 0 0 1 15.57 310.91 A2.25495 2.81064           -180 0 0 17.92 306.51 Z"
               class="st6"
               id="path285"
               style="fill:#000000" /></g><g
             id="shape62-109"
             v:mID="62"
             v:groupContext="shape"
             transform="translate(-204.031,91.9211) rotate(-45)"
             style="fill:#000000"><title
               id="title288">Sheet.62</title><path
               d="M17.92 306.51 A13.8379 17.248 -180 0 0 -0 313.84 A19.3598 24.1306 0 0 1 15.57 310.91 A2.25495 2.81064           -180 0 0 17.92 306.51 Z"
               class="st6"
               id="path290"
               style="fill:#000000" /></g><g
             id="shape63-111"
             v:mID="63"
             v:groupContext="shape"
             transform="translate(294.855,77.0681) rotate(45) scale(-1,1)"
             style="fill:#000000"><title
               id="title293">Sheet.63</title><path
               d="M17.92 306.51 A13.8379 17.248 -180 0 0 -0 313.84 A19.3598 24.1306 0 0 1 15.57 310.91 A2.25495 2.81064           -180 0 0 17.92 306.51 Z"
               class="st6"
               id="path295"
               style="fill:#000000" /></g></g></g><g
         id="shape64-113"
         v:mID="64"
         v:groupContext="shape"
         transform="translate(113.09,-55.8737)"
         style="fill:#000000"><title
           id="title298">Sheet.64</title><path
           d="M77.76 300.75 A12.4658 11.2806 134 0 1 77.75 299.7 A14.4159 13.0453 134 0 1 77.76 300.75 A12.4658 11.2806         -46 0 0 83.74 309.83 A8.52866 7.71779 134 0 1 85.1 300.25 A12.4755 11.2894 -46 0 0 94.05 300.18 A13.9369         12.6118 134 0 1 86.53 288.56 A51.4913 46.5957 -46.21 0 0 86.66 280 A11.1168 10.0598 -134.56 0 0 97.93         279.16 A23.9894 21.7086 100.24 0 1 85.55 265.93 A80.7849 73.1041 -46 0 0 72.56 237.12 A76.1186 68.7083         -90 0 0 82.43 209.81 L82.66 209.91 A17.8062 17.8062 -180 0 0 88.85 230.16 A13.7053 13.7053 0 0 1 95.6         212.73 A26.5938 26.5938 -180 0 0 107.97 236.35 A42.6906 42.6906 -180 0 0 109.1 218.91 A20.1416 20.1416         -180 0 0 122.32 234.66 A16.5436 16.5436 -180 0 0 124.57 220.04 A26.5752 26.5752 -180 0 0 140.88 228.48         A18.8246 18.8246 -180 0 0 135.08 212.52 A11.6104 11.6104 0 0 1 134.69 212.16 A18.8246 18.8246 0 0 1         135.08 212.52 A11.6104 11.6104 -180 0 0 148.47 213.85 A20.7131 20.7131 -180 0 0 139.47 200.91 A36.8215         36.8215 -180 0 0 157.19 203.16 A17.5424 17.5424 -180 0 0 142.25 192.51 A36.507 36.507 0 0 1 141.72 192.48         A17.5424 17.5424 0 0 1 142.25 192.51 A36.507 36.507 -180 0 0 159.44 189.1 A18.3044 18.3044 -180 0 0         143.67 180.53 A39.5525 39.5525 0 0 1 141.72 180.66 A18.3044 18.3044 0 0 1 143.67 180.53 A39.5525 39.5525         -180 0 0 159.44 175.6 A65.6122 65.6122 -180 0 0 139.19 168.29 A29.7218 29.7218 -180 0 0 149.6 159.29         A21.1683 21.1683 -180 0 0 131.32 157.04 A39.3859 39.3859 -180 0 0 139.47 140.16 A65.0447 65.0447 -180         0 0 122.32 141.29 A30.4569 30.4569 -180 0 0 107.97 99.66 A21.6669 21.6669 0 0 1 110.22 123.85 L91.38         141.29 A12.0458 12.0458 -167.24 0 0 90.82 160.41 L99.25 168.85 A6.71142 6.71142 167.36 1 1 88 176.16         A20.0304 20.0304 -180 0 0 79.07 168.44 A76.1186 68.7083 -90 0 0 77.6 164.51 A30.5314 27.5591 -90 0 0         41.81 150.88 A30.5314 27.5591 -90 0 0 6.03 164.51 A76.1186 68.7083 -90 0 0 18.57 247.73 L18.6 247.71         A79.8098 79.8098 -96.49 0 0 48.66 265.04 A38.4369 34.7825 -56.08 0 0 65.2 293.3 A18.635 16.8632 134         0 1 69.27 313.84 A14.4159 13.0453 -46 0 0 77.76 300.75 Z"
           class="st1"
           id="path300"
           style="fill:#000000" /></g><path
         d="m 154.8188,108.898 0,0.19 0.08,-0.09 0.09,0.09 0,-0.19 a 18.308,20.0195 0 0 0 4.5,-10.56 9.71684,10.6252 0 0 0 6.88,11.29 11.5495,12.6292 0 0 1 1.48,-11.82 15.3402,16.7742 0 0 0 8.11,12.36 11.1229,12.1627 0 0 1 1.22,-11.83 13.5827,14.8524 0 0 0 10.82,6.45 13.1645,14.3952 0 0 1 -3.93,-10.48 l 0,-11.01 a 24.7966,27.1147 0 0 0 -29.17,-30.12 24.7966,27.1147 0 0 0 -29.16,30.12 l 0,11.01 a 13.1645,14.3952 0 0 1 -3.93,10.48 13.5827,14.8524 0 0 0 10.81,-6.45 11.1229,12.1627 0 0 1 1.23,11.83 15.3402,16.7742 0 0 0 8.11,-12.36 11.5495,12.6292 0 0 1 1.48,11.82 9.71684,10.6252 0 0 0 6.88,-11.29 18.308,20.0195 0 0 0 4.5,10.56 z"
         class="st1"
         id="path308"
         inkscape:connector-curvature="0"
         style="fill:#000000;stroke:#000000;stroke-width:3;stroke-linecap:round;stroke-linejoin:round" /><path
         style="fill:#000000;stroke:#000000;stroke-width:3;stroke-linecap:round;stroke-linejoin:round"
         inkscape:connector-curvature="0"
         id="path316"
         class="st1"
         d="m 127.254,56.598 a 13.7298,13.7298 0 0 0 -0.19,17.29 15.1866,15.1866 0 0 0 -2.95,7.59 5.13975,5.13975 0 0 0 6.05,-1.69 6.69879,6.69879 0 0 0 0.84,8.72 8.41958,8.41958 0 0 1 5.34,-5.34 15.9263,15.9263 0 0 1 18.55,8.96 l 0,0.04 0.01,-0.02 0.01,0.02 0,-0.04 a 15.9263,15.9263 0 0 1 18.54,-8.96 8.41958,8.41958 0 0 1 5.35,5.34 6.69879,6.69879 0 0 0 0.84,-8.72 5.13975,5.13975 0 0 0 6.05,1.69 15.1866,15.1866 0 0 0 -2.96,-7.59 13.7298,13.7298 0 0 0 -0.18,-17.29 11.2317,11.2317 0 0 0 2.62,-0.68 l 10.47,-5.2 -6.04,-2.25 a 19.9168,19.9168 0 0 0 11.11,-12.65 19.1131,19.1131 0 0 0 -19.06,2.67 9.02201,9.02201 0 0 0 -8.43,-6.33 6.87099,6.87099 0 0 1 3.51,7.31 5.29809,5.29809 0 0 0 -8.01,-1.26 3.83946,3.83946 0 0 1 3.37,5.48 9.87795,9.87795 0 0 1 -11.32,2.39 5.82448,5.82448 0 0 0 -5.87,-1.28 5.82448,5.82448 0 0 0 -5.87,1.28 9.87795,9.87795 0 0 1 -11.32,-2.39 3.83946,3.83946 0 0 1 3.37,-5.48 5.29809,5.29809 0 0 0 -8.01,1.26 6.87099,6.87099 0 0 1 3.51,-7.31 9.02201,9.02201 0 0 0 -8.44,6.33 19.1131,19.1131 0 0 0 -19.05,-2.67 19.9168,19.9168 0 0 0 11.11,12.65 l -6.05,2.25 10.48,5.2 a 11.2317,11.2317 0 0 0 2.62,0.68 z" /><g
         transform="translate(124.098,-221.672)"
         v:groupContext="shape"
         v:mID="70"
         id="shape70-122"
         style="fill:#000000"><title
           id="title322">Sheet.70</title><path
           style="fill:#000000"
           inkscape:connector-curvature="0"
           id="path324"
           class="st7"
           d="m 30.81,269.96 -0.01,0 0,0 a 53.0062,53.0062 -90 0 0 -27.27,7.88 13.7298,13.7298 -90 0 0 -0.56,17.72 15.1866,15.1866 -90 0 0 -2.95,7.59 5.13975,5.13975 -90 0 0 6.04,-1.69 6.69879,6.69879 -180 0 0 0.85,8.72 8.41958,8.41958 90 0 1 5.34,-5.34 15.9263,15.9263 90 0 1 18.55,8.96 l 0,0.04 0,-0.02 0.01,0.02 0,-0.04 a 15.9263,15.9263 0 0 1 18.55,-8.96 8.41958,8.41958 0 0 1 5.34,5.34 6.69879,6.69879 -180 0 0 0.85,-8.72 5.13975,5.13975 -180 0 0 6.04,1.69 15.1866,15.1866 -180 0 0 -2.95,-7.59 13.7298,13.7298 -180 0 0 -0.56,-17.72 53.0041,53.0041 -180 0 0 -27.27,-7.88 l 0,0 z" /><path
           style="stroke:#000000;stroke-width:1.5;stroke-linecap:round;stroke-linejoin:round;fill:#000000"
           inkscape:connector-curvature="0"
           id="path326"
           class="st2"
           d="m 30.81,269.96 -0.01,0 0,0 a 53.0062,53.0062 -90 0 0 -27.27,7.88 13.7298,13.7298 -90 0 0 -0.56,17.72 15.1866,15.1866 -90 0 0 -2.95,7.59 5.13975,5.13975 -90 0 0 6.04,-1.69 6.69879,6.69879 -180 0 0 0.85,8.72 8.41958,8.41958 90 0 1 5.34,-5.34 15.9263,15.9263 90 0 1 18.55,8.96 l 0,0.04 0,-0.02 0.01,0.02 0,-0.04 a 15.9263,15.9263 0 0 1 18.55,-8.96 8.41958,8.41958 0 0 1 5.34,5.34 6.69879,6.69879 -180 0 0 0.85,-8.72 5.13975,5.13975 -180 0 0 6.04,1.69 15.1866,15.1866 -180 0 0 -2.95,-7.59 13.7298,13.7298 -180 0 0 -0.56,-17.72 53.0041,53.0041 -180 0 0 -27.27,-7.88" /></g><g
         transform="translate(109.094,-231.197)"
         v:groupContext="shape"
         v:mID="71"
         id="shape71-125"
         style="fill:#000000"><title
           id="title329">Sheet.71</title><path
           style="fill:#000000;stroke:#000000;stroke-width:1.5;stroke-linecap:round;stroke-linejoin:round"
           inkscape:connector-curvature="0"
           id="path331"
           class="st8"
           d="m 45.84,304.42 a 12.2017,12.2017 0 0 1 5.77,9.42 4.70543,4.70543 -180 0 0 0.91,-6.61 106.634,106.634 0 0 1 5.7,4.5 21.7714,21.7714 0 0 1 -3.52,-6.19 12.7681,12.7681 -180 0 0 6.54,0.56 9.97173,9.97173 0 0 1 -7.66,-8.86 9.9977,9.9977 0 0 1 11.95,-11.39 11.2317,11.2317 -180 0 0 10.55,1.27 l 10.47,-5.2 -6.04,-2.25 a 19.9168,19.9168 -180 0 0 11.11,-12.66 19.1131,19.1131 -180 0 0 -19.06,2.67 9.02201,9.02201 -180 0 0 -8.43,-6.33 6.87099,6.87099 0 0 1 3.51,7.32 5.29809,5.29809 -180 0 0 -8.01,-1.27 3.83946,3.83946 0 0 1 3.37,5.49 9.87795,9.87795 0 0 1 -11.32,2.39 5.82448,5.82448 -180 0 0 -5.87,-1.28 5.82448,5.82448 -90 0 0 -5.87,1.28 9.87795,9.87795 90 0 1 -11.32,-2.39 3.83946,3.83946 90 0 1 3.37,-5.49 5.29809,5.29809 -90 0 0 -8.01,1.27 6.87099,6.87099 90 0 1 3.51,-7.32 9.02201,9.02201 -90 0 0 -8.44,6.33 A 19.1131,19.1131 -90 0 0 0,267.01 19.9168,19.9168 -180 0 0 11.11,279.67 l -6.05,2.25 10.48,5.2 a 11.2317,11.2317 -180 0 0 10.55,-1.27 9.9977,9.9977 0 0 1 11.95,11.39 9.97173,9.97173 0 0 1 -7.66,8.86 12.7681,12.7681 -180 0 0 6.53,-0.56 21.7714,21.7714 0 0 1 -3.51,6.19 106.634,106.634 0 0 1 5.69,-4.5 4.70543,4.70543 -180 0 0 0.92,6.61 12.2017,12.2017 0 0 1 5.76,-9.42 l 0.07,0 z" /></g><g
         v:groupContext="group"
         v:mID="72"
         transform="translate(115.52759,-261.047)"
         id="group72-127"
         style="fill:#000000"><title
           id="title334">Sheet.72</title><g
           transform="translate(61.3125,0)"
           v:groupContext="shape"
           v:mID="73"
           id="shape73-128"
           style="fill:#000000"><title
             id="title337">Sheet.73</title><path
             style="fill:#000000;stroke:#000000;stroke-width:1;stroke-linecap:round;stroke-linejoin:round"
             inkscape:connector-curvature="0"
             id="path339"
             class="st3"
             d="M 0.56,313.84 A 5.6822,5.6822 -180 0 0 0,304.28 33.9607,33.9607 0 0 1 17.44,300.9 18.0239,18.0239 -180 0 0 5.48,305.96 11.5933,11.5933 0 0 1 0.56,313.84 Z" /></g><g
           transform="matrix(-1,0,0,1,17.4375,0)"
           v:groupContext="shape"
           v:mID="74"
           id="shape74-130"
           style="fill:#000000"><title
             id="title342">Sheet.74</title><path
             style="fill:#000000;stroke:#000000;stroke-width:1;stroke-linecap:round;stroke-linejoin:round"
             inkscape:connector-curvature="0"
             id="path344"
             class="st3"
             d="M 0.56,313.84 A 5.6822,5.6822 -180 0 0 0,304.28 33.9607,33.9607 0 0 1 17.44,300.9 18.0239,18.0239 -180 0 0 5.48,305.96 11.5933,11.5933 0 0 1 0.56,313.84 Z" /></g></g><g
         transform="translate(152.3713,-227.81262)"
         v:groupContext="shape"
         v:mID="75"
         id="shape75-132"
         style="fill:#000000"><title
           id="title347">Sheet.75</title><path
           style="fill:#000000;stroke:#000000;stroke-width:1;stroke-linecap:round;stroke-linejoin:round"
           inkscape:connector-curvature="0"
           id="path349"
           class="st3"
           d="m 0,307.6 a 7.25503,5.10434 -90 0 0 2.55,6.24 l 0.04,0 a 5.08171,7.22286 -180 0 0 2.47,-6.26 l -0.01,0 a 2.53127,3.44534 -180 0 0 0.01,-0.33 l 0,-13.08 A 2.53127,3.44534 -180 0 0 2.53,290.73 2.53127,3.44534 -180 0 0 0,294.17 l 0,13.08 a 2.53127,3.44534 -180 0 0 0.01,0.35 l -0.01,0 z" /></g><g
         v:groupContext="group"
         v:mID="76"
         transform="translate(162.9691,-243.7112)"
         id="group76-134"
         style="fill:#ffffff;stroke:#ffffff"><title
           id="title352">Sheet.76</title><g
           transform="matrix(0.99388374,0.1104315,-0.1104315,0.99388374,41.0247,-4.44755)"
           v:groupContext="shape"
           v:mID="77"
           id="shape77-135"
           style="fill:#ffffff;stroke:#ffffff"><title
             id="title355">Center drag circle.117</title><path
             style="fill:#ffffff;stroke:#ffffff;stroke-width:1.5;stroke-linecap:round;stroke-linejoin:round"
             inkscape:connector-curvature="0"
             id="path357"
             class="st9"
             d="m -6.37,313.84 a 6.37,6.37 0 0 1 12.74,0 6.37,6.37 0 1 1 -12.74,0 z" /></g><g
           v:groupContext="group"
           v:mID="78"
           transform="translate(3.42034,-2.85784)"
           id="group78-137"
           style="fill:#ffffff;stroke:#ffffff"><title
             id="title360">Sheet.78</title><g
             transform="matrix(0.86542614,0.50103653,-0.50103653,0.86542614,160.332,39.147)"
             v:groupContext="shape"
             v:mID="79"
             id="shape79-138"
             style="fill:#ffffff;stroke:#ffffff"><title
               id="title363">Center drag circle.113</title><path
               style="fill:#ffffff;stroke:#ffffff;stroke-width:1.5;stroke-linecap:round;stroke-linejoin:round"
               inkscape:connector-curvature="0"
               id="path365"
               class="st10"
               d="m -3.09,313.84 a 3.09,3.09 0 0 1 6.18,0 3.09,3.09 0 1 1 -6.18,0 z" /></g><g
             transform="matrix(0.91381147,0.40613864,-0.40613864,0.91381147,131.112,22.415)"
             v:groupContext="shape"
             v:mID="80"
             id="shape80-140"
             style="fill:#ffffff;stroke:#ffffff"><title
               id="title368">Center drag circle.114</title><path
               style="fill:#ffffff;stroke:#ffffff;stroke-width:0.23999999;stroke-linecap:round;stroke-linejoin:round"
               inkscape:connector-curvature="0"
               id="path370"
               class="st11"
               d="m -1.38,313.84 a 1.385,1.385 0 0 1 2.76,0 1.385,1.385 0 1 1 -2.76,0 z" /></g></g></g><g
         v:groupContext="group"
         v:mID="81"
         transform="translate(134.102,-243.7112)"
         id="group81-142"
         style="fill:#ffffff;stroke:#ffffff"><title
           id="title373">Sheet.81</title><g
           transform="matrix(0.99388374,0.1104315,-0.1104315,0.99388374,41.0247,-4.44755)"
           v:groupContext="shape"
           v:mID="82"
           id="shape82-143"
           style="fill:#ffffff;stroke:#ffffff"><title
             id="title376">Center drag circle</title><path
             style="fill:#ffffff;stroke:#ffffff;stroke-width:1.5;stroke-linecap:round;stroke-linejoin:round"
             inkscape:connector-curvature="0"
             id="path378"
             class="st9"
             d="m -6.37,313.84 a 6.37,6.37 0 0 1 12.74,0 6.37,6.37 0 1 1 -12.74,0 z" /></g><g
           v:groupContext="group"
           v:mID="83"
           transform="translate(3.42034,-2.85784)"
           id="group83-145"
           style="fill:#ffffff;stroke:#ffffff"><title
             id="title381">Sheet.83</title><g
             transform="matrix(0.86542614,0.50103653,-0.50103653,0.86542614,160.332,39.147)"
             v:groupContext="shape"
             v:mID="84"
             id="shape84-146"
             style="fill:#ffffff;stroke:#ffffff"><title
               id="title384">Center drag circle.113</title><path
               style="fill:#ffffff;stroke:#ffffff;stroke-width:1.5;stroke-linecap:round;stroke-linejoin:round"
               inkscape:connector-curvature="0"
               id="path386"
               class="st10"
               d="m -3.09,313.84 a 3.09,3.09 0 0 1 6.18,0 3.09,3.09 0 1 1 -6.18,0 z" /></g><g
             transform="matrix(0.91381147,0.40613864,-0.40613864,0.91381147,131.112,22.415)"
             v:groupContext="shape"
             v:mID="85"
             id="shape85-148"
             style="fill:#ffffff;stroke:#ffffff"><title
               id="title389">Center drag circle.114</title><path
               style="fill:#ffffff;stroke:#ffffff;stroke-width:0.23999999;stroke-linecap:round;stroke-linejoin:round"
               inkscape:connector-curvature="0"
               id="path391"
               class="st11"
               d="m -1.38,313.84 a 1.385,1.385 0 0 1 2.76,0 1.385,1.385 0 1 1 -2.76,0 z" /></g></g></g><g
         id="group86-150"
         transform="translate(62.3051,-79.8694)"
         v:mID="86"
         v:groupContext="group"
         style="fill:#000000"><title
           id="title394">Sheet.86</title><g
           id="group87-151"
           transform="translate(-94.3762,41.6568) rotate(-35) scale(-1,1)"
           v:mID="87"
           v:groupContext="group"
           style="fill:#000000"><title
             id="title397">Sheet.87</title><g
             id="shape88-152"
             v:mID="88"
             v:groupContext="shape"
             transform="translate(7.09124,-4.57117)"
             style="fill:#000000"><title
               id="title400">Sheet.88</title><path
               d="M5.96 303.44 A7.03605 4.4257 51.65 0 1 4.66 302.56 A7.03605 4.4257 -128.35 0 0 5.71 303.92 A7.03605           4.4257 -128.35 0 0 6.71 304.9 A7.03605 4.4257 51.65 0 1 -0 309.62 A7.03605 4.4257 -128.35 0           0 1.05 310.98 A7.03605 4.4257 -128.35 0 0 8.25 305.96 A7.03605 4.4257 -128.35 0 0 11.7 297.31           A7.03605 4.4257 -128.35 0 0 10.47 296.14 A7.03605 4.4257 51.65 0 1 6.28 303.61 A7.03605 4.4257           -128.35 0 0 5.81 303.2 A7.03605 4.4257 51.65 0 1 5.96 303.44 Z"
               class="st12"
               id="path402"
               style="fill:#000000" /></g><g
             id="shape89-154"
             v:mID="89"
             v:groupContext="shape"
             transform="translate(-197.255,93.9961) rotate(-45)"
             style="fill:#000000"><title
               id="title405">Sheet.89</title><path
               d="M0.14 304.96 A4.54608 7.14383 -180 0 0 0 306.69 A4.54608 7.14383 -180 0 0 9.09 306.69 A4.54608 7.14383           -180 0 0 8.96 304.96 A4.54608 7.14383 0 0 1 0.14 304.96 Z"
               class="st12"
               id="path407"
               style="fill:#000000" /></g><g
             id="shape90-156"
             v:mID="90"
             v:groupContext="shape"
             transform="translate(-216.047,78.1929) rotate(-45)"
             style="fill:#000000"><title
               id="title410">Sheet.90</title><path
               d="M0.14 304.96 A4.54608 7.14383 -180 0 0 0 306.69 A4.54608 7.14383 -180 0 0 9.09 306.69 A4.54608 7.14383           -180 0 0 8.96 304.96 A4.54608 7.14383 0 0 1 0.14 304.96 Z"
               class="st12"
               id="path412"
               style="fill:#000000" /></g></g><g
           id="group91-158"
           transform="translate(39.2052,-71.7773) scale(-1,1)"
           v:mID="91"
           v:groupContext="group"
           style="fill:#000000"><title
             id="title415">Sheet.91</title><g
             id="shape92-159"
             v:mID="92"
             v:groupContext="shape"
             transform="translate(262.075,71.2459) rotate(60)"
             style="fill:#000000"><title
               id="title418">Sheet.92</title><path
               d="M28.05 313.84 A3.46904 3.67699 -180 0 0 27.11 308.85 A19.0351 20.1761 0 0 1 16.13 292.22 A16.0068           15.1016 -139.43 0 0 -0 276.51 A19.4842 18.3823 28.01 0 1 13.55 293.18 A19.8913 18.7664 -90 0           0 24.05 309.35 A6.39172 6.77486 0 0 1 28.05 313.84 Z"
               class="st12"
               id="path420"
               style="fill:#000000" /></g><g
             id="group93-161"
             v:mID="93"
             v:groupContext="group"
             style="fill:#000000"><title
               id="title423">Sheet.93</title><g
               id="shape94-162"
               v:mID="94"
               v:groupContext="shape"
               transform="translate(47.7836,-21.2334) rotate(4.1) scale(-1,1)"
               style="fill:#000000"><title
                 id="title426">Sheet.94</title><path
                 d="M7.69 284.44 A6.33754 4.65456 63.7 0 1 13.79 277.41 A6.33754 4.65456 -116.3 0 0 12.92 276.14            A6.33754 4.65456 -116.3 1 0 6.73 283.58 A6.02989 5.30804 -141.53 0 0 4.36 294.16 A5.78878            5.0958 -141.53 0 0 5.71 294.43 A5.78878 5.0958 38.47 0 1 7.7 284.56 A5.78878 5.0958 38.47            0 1 7.79 284.56 a0.112163 0.0823769 63.7 0 1 -0.101748 -0.115829 ZM7.92 304.43 A6.57063            4.60206 -70.04 0 0 15.21 310.51 A6.55038 4.50331 -72.89 0 0 15.78 309.01 A6.55038 4.50331            107.11 0 1 8.42 303.9 A5.75884 4.90994 135.64 0 1 5.72 294.44 A5.88205 5.01499 -44.36 0            0 4.39 294.85 A5.93453 4.918 -48.61 0 0 7.92 304.43 Z"
                 class="st12"
                 id="path428"
                 style="fill:#000000" /></g><g
               id="group95-164"
               transform="translate(22.8927,-35.4456)"
               v:mID="95"
               v:groupContext="group"
               style="fill:#000000"><title
                 id="title431">Sheet.95</title><g
                 id="shape96-165"
                 v:mID="96"
                 v:groupContext="shape"
                 transform="translate(-292.817,362.546) rotate(79.1) scale(1,-1)"
                 style="fill:#000000"><title
                   id="title434">Sheet.96</title><path
                   d="M0.14 305.8 A4.71326 6.46807 -180 0 0 0 307.37 A4.71326 6.46807 -180 0 0 9.43 307.37 A4.71326             6.46807 -180 0 0 9.29 305.8 A4.71326 6.46807 0 0 1 0.14 305.8 Z"
                   class="st12"
                   id="path436"
                   style="fill:#000000" /></g><g
                 id="shape97-167"
                 v:mID="97"
                 v:groupContext="shape"
                 transform="translate(-271.847,426.153) rotate(64.1) scale(1,-1)"
                 style="fill:#000000"><title
                   id="title439">Sheet.97</title><path
                   d="M0.14 305.8 A4.57012 6.46758 -180 0 0 0 307.37 A4.57012 6.46758 -180 0 0 9.14 307.37 A4.57012             6.46758 -180 0 0 9 305.8 A4.57012 6.46758 0 0 1 0.14 305.8 Z"
                   class="st12"
                   id="path441"
                   style="fill:#000000" /></g><g
                 id="shape98-169"
                 v:mID="98"
                 v:groupContext="shape"
                 transform="translate(-230.724,479.926) rotate(49.1) scale(1,-1)"
                 style="fill:#000000"><title
                   id="title444">Sheet.98</title><path
                   d="M0.13 305.14 A4.37045 7.00048 -180 0 0 0 306.84 A4.37045 7.00048 -180 0 0 8.74 306.84 A4.37045             7.00048 -180 0 0 8.61 305.14 A4.37045 7.00048 0 0 1 0.13 305.14 Z"
                   class="st12"
                   id="path446"
                   style="fill:#000000" /></g></g><g
               id="group99-171"
               transform="translate(77.8948,4.97523) rotate(15)"
               v:mID="99"
               v:groupContext="group"
               style="fill:#000000"><title
                 id="title449">Sheet.99</title><g
                 id="shape100-172"
                 v:mID="100"
                 v:groupContext="shape"
                 transform="translate(-111.008,29.6934) rotate(-25.9) scale(-1,1)"
                 style="fill:#000000"><title
                   id="title452">Sheet.100</title><path
                   d="M0.11 305.64 A3.69444 6.59724 -180 0 0 0 307.24 A3.69444 6.59724 -180 0 0 7.39 307.24 A3.69444             6.59724 -180 0 0 7.28 305.64 A3.69444 6.59724 0 0 1 0.11 305.64 Z"
                   class="st12"
                   id="path454"
                   style="fill:#000000" /></g><g
                 id="shape101-174"
                 v:mID="101"
                 v:groupContext="shape"
                 transform="translate(-69.4266,8.16911) rotate(-15.9) scale(-1,1)"
                 style="fill:#000000"><title
                   id="title457">Sheet.101</title><path
                   d="M0.11 305.45 A3.60599 6.74843 -180 0 0 0 307.09 A3.60599 6.74843 -180 0 0 7.21 307.09 A3.60599             6.74843 -180 0 0 7.1 305.45 A3.60599 6.74843 0 0 1 0.11 305.45 Z"
                   class="st12"
                   id="path459"
                   style="fill:#000000" /></g><g
                 id="shape102-176"
                 v:mID="102"
                 v:groupContext="shape"
                 transform="translate(2.25639,-7.56845) rotate(-0.9) scale(-1,1)"
                 style="fill:#000000"><title
                   id="title462">Sheet.102</title><path
                   d="M0.11 305.3 A3.53867 6.86526 -180 0 0 0 306.97 A3.53867 6.86526 -180 0 0 7.08 306.97 A3.53867             6.86526 -180 0 0 6.97 305.3 A3.53867 6.86526 0 0 1 0.11 305.3 Z"
                   class="st12"
                   id="path464"
                   style="fill:#000000" /></g><g
                 id="shape103-178"
                 v:mID="103"
                 v:groupContext="shape"
                 transform="translate(55.626,-5.97748) rotate(4.1) scale(-1,1)"
                 style="fill:#000000"><title
                   id="title467">Sheet.103</title><path
                   d="M3.22 291.86 A3.72939 3.40349 -180 0 0 3.3 291.88 A3.7843 3.3541 -26 0 0 3.21 291.89 L3.22             291.86 ZM5.25 305.07 A3.89815 3.25614 -40.99 0 0 5.33 305.04 L5.26 305.11 L5.25 305.07             ZM3.3 298.68 A3.89815 3.25614 -40.99 0 0 5.25 305.07 A6.31075 3.88175 -51.78 0 0 9.81             311.62 A6.28428 3.86547 -51.78 0 0 10.8 310.45 A6.28428 3.86547 128.22 0 1 6.02 304.68             A3.89815 3.25614 -40.99 0 0 6.23 304.53 A3.89815 3.25614 139.01 0 1 6.1 304.56 A6.28428             3.86547 128.22 0 1 6.39 304.13 A6.28428 3.86547 -51.78 0 0 5.81 304.59 A3.89815 3.25614             139.01 0 1 3.97 298.64 A3.7843 3.3541 -26 0 0 4.2 298.6 A3.7843 3.3541 -26 0 0 5.08             298.31 A3.7843 3.3541 154 0 1 3.83 291.95 A3.7843 3.3541 154 0 1 3.91 291.91 A3.72939             3.40349 -180 0 0 4.72 291.81 A3.72939 3.40349 0 0 1 4.72 285.2 A3.72939 3.40349 -180             0 0 3.82 285.1 A3.72939 3.40349 -180 0 0 3.22 291.86 A3.80115 3.36902 -26 0 0 3.3 298.68             Z"
                   class="st13"
                   id="path469"
                   style="fill:#000000" /><path
                   d="M3.22 291.86 A3.72939 3.40349 -180 0 0 3.3 291.88 A3.7843 3.3541 -26 0 0 3.21 291.89M5.25             305.07 A3.89815 3.25614 -40.99 0 0 5.33 305.04 L5.26 305.11M3.3 298.68 A3.89815 3.25614             -40.99 0 0 5.25 305.07 A6.31075 3.88175 -51.78 0 0 9.81 311.62 A6.28428 3.86547 -51.78             0 0 10.8 310.45 A6.28428 3.86547 128.22 0 1 6.02 304.68 A3.89815 3.25614 -40.99 0 0             6.23 304.53 A3.89815 3.25614 139.01 0 1 6.1 304.56 A6.28428 3.86547 128.22 0 1 6.39             304.13 A6.28428 3.86547 -51.78 0 0 5.81 304.59 A3.89815 3.25614 139.01 0 1 3.97 298.64             A3.7843 3.3541 -26 0 0 4.2 298.6 A3.7843 3.3541 -26 0 0 5.08 298.31 A3.7843 3.3541 154             0 1 3.83 291.95 A3.7843 3.3541 154 0 1 3.91 291.91 A3.72939 3.40349 -180 0 0 4.72 291.81             A3.72939 3.40349 0 0 1 4.72 285.2 A3.72939 3.40349 -180 0 0 3.82 285.1 A3.72939 3.40349             -180 0 0 3.22 291.86 A3.80115 3.36902 -26 0 0 3.3 298.68"
                   class="st14"
                   id="path471"
                   style="fill:#000000" /></g><g
                 id="shape104-181"
                 v:mID="104"
                 v:groupContext="shape"
                 transform="translate(-275.083,202.36) rotate(-75.9) scale(-1,1)"
                 style="fill:#000000"><title
                   id="title474">Sheet.104</title><path
                   d="M0.13 307.97 A4.36969 4.71939 -180 0 0 -0 309.12 A4.36969 4.71939 -180 0 0 8.74 309.12 A4.36969             4.71939 -180 0 0 8.61 307.97 A4.36969 4.71939 0 0 1 0.13 307.97 Z"
                   class="st12"
                   id="path476"
                   style="fill:#000000" /></g><g
                 id="shape105-183"
                 v:mID="105"
                 v:groupContext="shape"
                 transform="translate(-231.413,114.456) rotate(-55.9) scale(-1,1)"
                 style="fill:#000000"><title
                   id="title479">Sheet.105</title><path
                   d="M0.13 307.71 A4.19283 4.93305 -180 0 0 0 308.91 A4.19283 4.93305 -180 0 0 8.39 308.91 A4.19283             4.93305 -180 0 0 8.26 307.71 A4.19283 4.93305 0 0 1 0.13 307.71 Z"
                   class="st12"
                   id="path481"
                   style="fill:#000000" /></g><g
                 id="shape106-185"
                 v:mID="106"
                 v:groupContext="shape"
                 transform="translate(-116.599,16.5217) rotate(-25.9) scale(-1,1)"
                 style="fill:#000000"><title
                   id="title484">Sheet.106</title><path
                   d="M0.09 308.78 A2.98538 4.0709 -180 0 0 0 309.77 A2.98538 4.0709 -180 0 0 5.97 309.77 A2.98538             4.0709 -180 0 0 5.88 308.78 A2.98538 4.0709 0 0 1 0.09 308.78 Z"
                   class="st12"
                   id="path486"
                   style="fill:#000000" /></g></g></g></g><g
           id="group107-187"
           transform="translate(145.99,-71.7773)"
           v:mID="107"
           v:groupContext="group"
           style="fill:#000000"><title
             id="title489">Sheet.107</title><g
             id="shape108-188"
             v:mID="108"
             v:groupContext="shape"
             transform="translate(262.075,71.2459) rotate(60)"
             style="fill:#000000"><title
               id="title492">Sheet.108</title><path
               d="M28.05 313.84 A3.46904 3.67699 -180 0 0 27.11 308.85 A19.0351 20.1761 0 0 1 16.13 292.22 A16.0068           15.1016 -139.43 0 0 -0 276.51 A19.4842 18.3823 28.01 0 1 13.55 293.18 A19.8913 18.7664 -90 0           0 24.05 309.35 A6.39172 6.77486 0 0 1 28.05 313.84 Z"
               class="st12"
               id="path494"
               style="fill:#000000" /></g><g
             id="group109-190"
             v:mID="109"
             v:groupContext="group"
             style="fill:#000000"><title
               id="title497">Sheet.109</title><g
               id="shape110-191"
               v:mID="110"
               v:groupContext="shape"
               transform="translate(47.7836,-21.2334) rotate(4.1) scale(-1,1)"
               style="fill:#000000"><title
                 id="title500">Sheet.110</title><path
                 d="M7.69 284.44 A6.33754 4.65456 63.7 0 1 13.79 277.41 A6.33754 4.65456 -116.3 0 0 12.92 276.14            A6.33754 4.65456 -116.3 1 0 6.73 283.58 A6.02989 5.30804 -141.53 0 0 4.36 294.16 A5.78878            5.0958 -141.53 0 0 5.71 294.43 A5.78878 5.0958 38.47 0 1 7.7 284.56 A5.78878 5.0958 38.47            0 1 7.79 284.56 a0.112163 0.0823769 63.7 0 1 -0.101748 -0.115829 ZM7.92 304.43 A6.57063            4.60206 -70.04 0 0 15.21 310.51 A6.55038 4.50331 -72.89 0 0 15.78 309.01 A6.55038 4.50331            107.11 0 1 8.42 303.9 A5.75884 4.90994 135.64 0 1 5.72 294.44 A5.88205 5.01499 -44.36 0            0 4.39 294.85 A5.93453 4.918 -48.61 0 0 7.92 304.43 Z"
                 class="st12"
                 id="path502"
                 style="fill:#000000" /></g><g
               id="group111-193"
               transform="translate(22.8927,-35.4456)"
               v:mID="111"
               v:groupContext="group"
               style="fill:#000000"><title
                 id="title505">Sheet.111</title><g
                 id="shape112-194"
                 v:mID="112"
                 v:groupContext="shape"
                 transform="translate(-292.817,362.546) rotate(79.1) scale(1,-1)"
                 style="fill:#000000"><title
                   id="title508">Sheet.112</title><path
                   d="M0.14 305.8 A4.71326 6.46807 -180 0 0 0 307.37 A4.71326 6.46807 -180 0 0 9.43 307.37 A4.71326             6.46807 -180 0 0 9.29 305.8 A4.71326 6.46807 0 0 1 0.14 305.8 Z"
                   class="st12"
                   id="path510"
                   style="fill:#000000" /></g><g
                 id="shape113-196"
                 v:mID="113"
                 v:groupContext="shape"
                 transform="translate(-271.847,426.153) rotate(64.1) scale(1,-1)"
                 style="fill:#000000"><title
                   id="title513">Sheet.113</title><path
                   d="M0.14 305.8 A4.57012 6.46758 -180 0 0 0 307.37 A4.57012 6.46758 -180 0 0 9.14 307.37 A4.57012             6.46758 -180 0 0 9 305.8 A4.57012 6.46758 0 0 1 0.14 305.8 Z"
                   class="st12"
                   id="path515"
                   style="fill:#000000" /></g><g
                 id="shape114-198"
                 v:mID="114"
                 v:groupContext="shape"
                 transform="translate(-230.724,479.926) rotate(49.1) scale(1,-1)"
                 style="fill:#000000"><title
                   id="title518">Sheet.114</title><path
                   d="M0.13 305.14 A4.37045 7.00048 -180 0 0 0 306.84 A4.37045 7.00048 -180 0 0 8.74 306.84 A4.37045             7.00048 -180 0 0 8.61 305.14 A4.37045 7.00048 0 0 1 0.13 305.14 Z"
                   class="st12"
                   id="path520"
                   style="fill:#000000" /></g></g><g
               id="group115-200"
               transform="translate(77.8948,4.97523) rotate(15)"
               v:mID="115"
               v:groupContext="group"
               style="fill:#000000"><title
                 id="title523">Sheet.115</title><g
                 id="shape116-201"
                 v:mID="116"
                 v:groupContext="shape"
                 transform="translate(-111.008,29.6934) rotate(-25.9) scale(-1,1)"
                 style="fill:#000000"><title
                   id="title526">Sheet.116</title><path
                   d="M0.11 305.64 A3.69444 6.59724 -180 0 0 0 307.24 A3.69444 6.59724 -180 0 0 7.39 307.24 A3.69444             6.59724 -180 0 0 7.28 305.64 A3.69444 6.59724 0 0 1 0.11 305.64 Z"
                   class="st12"
                   id="path528"
                   style="fill:#000000" /></g><g
                 id="shape117-203"
                 v:mID="117"
                 v:groupContext="shape"
                 transform="translate(-69.4266,8.16911) rotate(-15.9) scale(-1,1)"
                 style="fill:#000000"><title
                   id="title531">Sheet.117</title><path
                   d="M0.11 305.45 A3.60599 6.74843 -180 0 0 0 307.09 A3.60599 6.74843 -180 0 0 7.21 307.09 A3.60599             6.74843 -180 0 0 7.1 305.45 A3.60599 6.74843 0 0 1 0.11 305.45 Z"
                   class="st12"
                   id="path533"
                   style="fill:#000000" /></g><g
                 id="shape118-205"
                 v:mID="118"
                 v:groupContext="shape"
                 transform="translate(2.25639,-7.56845) rotate(-0.9) scale(-1,1)"
                 style="fill:#000000"><title
                   id="title536">Sheet.118</title><path
                   d="M0.11 305.3 A3.53867 6.86526 -180 0 0 0 306.97 A3.53867 6.86526 -180 0 0 7.08 306.97 A3.53867             6.86526 -180 0 0 6.97 305.3 A3.53867 6.86526 0 0 1 0.11 305.3 Z"
                   class="st12"
                   id="path538"
                   style="fill:#000000" /></g><g
                 id="shape119-207"
                 v:mID="119"
                 v:groupContext="shape"
                 transform="translate(55.626,-5.97748) rotate(4.1) scale(-1,1)"
                 style="fill:#000000"><title
                   id="title541">Sheet.119</title><path
                   d="M3.22 291.86 A3.72939 3.40349 -180 0 0 3.3 291.88 A3.7843 3.3541 -26 0 0 3.21 291.89 L3.22             291.86 ZM5.25 305.07 A3.89815 3.25614 -40.99 0 0 5.33 305.04 L5.26 305.11 L5.25 305.07             ZM3.3 298.68 A3.89815 3.25614 -40.99 0 0 5.25 305.07 A6.31075 3.88175 -51.78 0 0 9.81             311.62 A6.28428 3.86547 -51.78 0 0 10.8 310.45 A6.28428 3.86547 128.22 0 1 6.02 304.68             A3.89815 3.25614 -40.99 0 0 6.23 304.53 A3.89815 3.25614 139.01 0 1 6.1 304.56 A6.28428             3.86547 128.22 0 1 6.39 304.13 A6.28428 3.86547 -51.78 0 0 5.81 304.59 A3.89815 3.25614             139.01 0 1 3.97 298.64 A3.7843 3.3541 -26 0 0 4.2 298.6 A3.7843 3.3541 -26 0 0 5.08             298.31 A3.7843 3.3541 154 0 1 3.83 291.95 A3.7843 3.3541 154 0 1 3.91 291.91 A3.72939             3.40349 -180 0 0 4.72 291.81 A3.72939 3.40349 0 0 1 4.72 285.2 A3.72939 3.40349 -180             0 0 3.82 285.1 A3.72939 3.40349 -180 0 0 3.22 291.86 A3.80115 3.36902 -26 0 0 3.3 298.68             Z"
                   class="st13"
                   id="path543"
                   style="fill:#000000" /><path
                   d="M3.22 291.86 A3.72939 3.40349 -180 0 0 3.3 291.88 A3.7843 3.3541 -26 0 0 3.21 291.89M5.25             305.07 A3.89815 3.25614 -40.99 0 0 5.33 305.04 L5.26 305.11M3.3 298.68 A3.89815 3.25614             -40.99 0 0 5.25 305.07 A6.31075 3.88175 -51.78 0 0 9.81 311.62 A6.28428 3.86547 -51.78             0 0 10.8 310.45 A6.28428 3.86547 128.22 0 1 6.02 304.68 A3.89815 3.25614 -40.99 0 0             6.23 304.53 A3.89815 3.25614 139.01 0 1 6.1 304.56 A6.28428 3.86547 128.22 0 1 6.39             304.13 A6.28428 3.86547 -51.78 0 0 5.81 304.59 A3.89815 3.25614 139.01 0 1 3.97 298.64             A3.7843 3.3541 -26 0 0 4.2 298.6 A3.7843 3.3541 -26 0 0 5.08 298.31 A3.7843 3.3541 154             0 1 3.83 291.95 A3.7843 3.3541 154 0 1 3.91 291.91 A3.72939 3.40349 -180 0 0 4.72 291.81             A3.72939 3.40349 0 0 1 4.72 285.2 A3.72939 3.40349 -180 0 0 3.82 285.1 A3.72939 3.40349             -180 0 0 3.22 291.86 A3.80115 3.36902 -26 0 0 3.3 298.68"
                   class="st14"
                   id="path545"
                   style="fill:#000000" /></g><g
                 id="shape120-210"
                 v:mID="120"
                 v:groupContext="shape"
                 transform="translate(-275.083,202.36) rotate(-75.9) scale(-1,1)"
                 style="fill:#000000"><title
                   id="title548">Sheet.120</title><path
                   d="M0.13 307.97 A4.36969 4.71939 -180 0 0 -0 309.12 A4.36969 4.71939 -180 0 0 8.74 309.12 A4.36969             4.71939 -180 0 0 8.61 307.97 A4.36969 4.71939 0 0 1 0.13 307.97 Z"
                   class="st12"
                   id="path550"
                   style="fill:#000000" /></g><g
                 id="shape121-212"
                 v:mID="121"
                 v:groupContext="shape"
                 transform="translate(-231.413,114.456) rotate(-55.9) scale(-1,1)"
                 style="fill:#000000"><title
                   id="title553">Sheet.121</title><path
                   d="M0.13 307.71 A4.19283 4.93305 -180 0 0 0 308.91 A4.19283 4.93305 -180 0 0 8.39 308.91 A4.19283             4.93305 -180 0 0 8.26 307.71 A4.19283 4.93305 0 0 1 0.13 307.71 Z"
                   class="st12"
                   id="path555"
                   style="fill:#000000" /></g><g
                 id="shape122-214"
                 v:mID="122"
                 v:groupContext="shape"
                 transform="translate(-116.599,16.5217) rotate(-25.9) scale(-1,1)"
                 style="fill:#000000"><title
                   id="title558">Sheet.122</title><path
                   d="M0.09 308.78 A2.98538 4.0709 -180 0 0 0 309.77 A2.98538 4.0709 -180 0 0 5.97 309.77 A2.98538             4.0709 -180 0 0 5.88 308.78 A2.98538 4.0709 0 0 1 0.09 308.78 Z"
                   class="st12"
                   id="path560"
                   style="fill:#000000" /></g></g></g></g><g
           id="group123-216"
           transform="translate(283.97,41.6568) rotate(35)"
           v:mID="123"
           v:groupContext="group"
           style="fill:#000000"><title
             id="title563">Sheet.123</title><g
             id="shape124-217"
             v:mID="124"
             v:groupContext="shape"
             transform="translate(7.09124,-4.57117)"
             style="fill:#000000"><title
               id="title566">Sheet.124</title><path
               d="M5.96 303.44 A7.03605 4.4257 51.65 0 1 4.66 302.56 A7.03605 4.4257 -128.35 0 0 5.71 303.92 A7.03605           4.4257 -128.35 0 0 6.71 304.9 A7.03605 4.4257 51.65 0 1 -0 309.62 A7.03605 4.4257 -128.35 0           0 1.05 310.98 A7.03605 4.4257 -128.35 0 0 8.25 305.96 A7.03605 4.4257 -128.35 0 0 11.7 297.31           A7.03605 4.4257 -128.35 0 0 10.47 296.14 A7.03605 4.4257 51.65 0 1 6.28 303.61 A7.03605 4.4257           -128.35 0 0 5.81 303.2 A7.03605 4.4257 51.65 0 1 5.96 303.44 Z"
               class="st12"
               id="path568"
               style="fill:#000000" /></g><g
             id="shape125-219"
             v:mID="125"
             v:groupContext="shape"
             transform="translate(-197.255,93.9961) rotate(-45)"
             style="fill:#000000"><title
               id="title571">Sheet.125</title><path
               d="M0.14 304.96 A4.54608 7.14383 -180 0 0 0 306.69 A4.54608 7.14383 -180 0 0 9.09 306.69 A4.54608 7.14383           -180 0 0 8.96 304.96 A4.54608 7.14383 0 0 1 0.14 304.96 Z"
               class="st12"
               id="path573"
               style="fill:#000000" /></g><g
             id="shape126-221"
             v:mID="126"
             v:groupContext="shape"
             transform="translate(-216.047,78.1929) rotate(-45)"
             style="fill:#000000"><title
               id="title576">Sheet.126</title><path
               d="M0.14 304.96 A4.54608 7.14383 -180 0 0 0 306.69 A4.54608 7.14383 -180 0 0 9.09 306.69 A4.54608 7.14383           -180 0 0 8.96 304.96 A4.54608 7.14383 0 0 1 0.14 304.96 Z"
               class="st12"
               id="path578"
               style="fill:#000000" /></g></g><g
           id="group127-223"
           transform="translate(109.735,-43.7027) scale(-1,1)"
           v:mID="127"
           v:groupContext="group"
           style="fill:#000000"><title
             id="title581">Eagle.134</title><g
             id="shape128-224"
             v:mID="128"
             v:groupContext="shape"
             transform="translate(16.2144,-50.1741)"
             style="fill:#000000"><title
               id="title584">Sheet.128</title><path
               d="M0.3 291.29 A9.94183 18.1427 -180 0 0 -0 295.7 A9.94183 18.1427 -180 0 0 19.88 295.7 A9.94183 18.1427           -180 0 0 19.59 291.29 A9.94183 18.1427 0 0 1 0.3 291.29 Z"
               class="st12"
               id="path586"
               style="fill:#000000" /></g><g
             id="group129-226"
             transform="translate(2.4356,-45.2551)"
             v:mID="129"
             v:groupContext="group"
             style="fill:#000000"><title
               id="title589">Sheet.129</title><g
               id="shape130-227"
               v:mID="130"
               v:groupContext="shape"
               style="fill:#000000"><title
                 id="title592">Sheet.130</title><path
                 d="M0.18 300.39 A5.93016 10.8219 -180 0 0 0 303.02 A5.93016 10.8219 -180 0 0 11.86 303.02 A5.93016            10.8219 -180 0 0 11.68 300.39 A5.93016 10.8219 0 0 1 0.18 300.39 Z"
                 class="st12"
                 id="path594"
                 style="fill:#000000" /></g><g
               id="shape131-229"
               v:mID="131"
               v:groupContext="shape"
               transform="translate(35.581,5.68434E-014)"
               style="fill:#000000"><title
                 id="title597">Sheet.131</title><path
                 d="M0.18 300.39 A5.93016 10.8219 -180 0 0 0 303.02 A5.93016 10.8219 -180 0 0 11.86 303.02 A5.93016            10.8219 -180 0 0 11.68 300.39 A5.93016 10.8219 0 0 1 0.18 300.39 Z"
                 class="st12"
                 id="path599"
                 style="fill:#000000" /></g></g><g
             id="group132-231"
             transform="translate(12.6016,-26.8087)"
             v:mID="132"
             v:groupContext="group"
             style="fill:#000000"><title
               id="title602">Sheet.132</title><g
               id="shape133-232"
               v:mID="133"
               v:groupContext="shape"
               style="fill:#000000"><title
                 id="title605">Sheet.133</title><path
                 d="M0.18 300.39 A5.93016 10.8219 -180 0 0 0 303.02 A5.93016 10.8219 -180 0 0 11.86 303.02 A5.93016            10.8219 -180 0 0 11.68 300.39 A5.93016 10.8219 0 0 1 0.18 300.39 Z"
                 class="st12"
                 id="path607"
                 style="fill:#000000" /></g><g
               id="shape134-234"
               v:mID="134"
               v:groupContext="shape"
               transform="translate(15.249,5.68434E-014)"
               style="fill:#000000"><title
                 id="title610">Sheet.134</title><path
                 d="M0.18 300.39 A5.93016 10.8219 -180 0 0 0 303.02 A5.93016 10.8219 -180 0 0 11.86 303.02 A5.93016            10.8219 -180 0 0 11.68 300.39 A5.93016 10.8219 0 0 1 0.18 300.39 Z"
                 class="st12"
                 id="path612"
                 style="fill:#000000" /></g></g><g
             id="group135-236"
             transform="translate(0,-63.4555)"
             v:mID="135"
             v:groupContext="group"
             style="fill:#000000"><title
               id="title615">Sheet.135</title><g
               id="shape136-237"
               v:mID="136"
               v:groupContext="shape"
               style="fill:#000000"><title
                 id="title618">Sheet.136</title><path
                 d="M0.18 300.39 A5.93016 10.8219 -180 0 0 0 303.02 A5.93016 10.8219 -180 0 0 11.86 303.02 A5.93016            10.8219 -180 0 0 11.68 300.39 A5.93016 10.8219 0 0 1 0.18 300.39 Z"
                 class="st12"
                 id="path620"
                 style="fill:#000000" /></g><g
               id="shape137-239"
               v:mID="137"
               v:groupContext="shape"
               transform="translate(40.4522,5.68434E-014)"
               style="fill:#000000"><title
                 id="title623">Sheet.137</title><path
                 d="M0.18 300.39 A5.93016 10.8219 -180 0 0 0 303.02 A5.93016 10.8219 -180 0 0 11.86 303.02 A5.93016            10.8219 -180 0 0 11.68 300.39 A5.93016 10.8219 0 0 1 0.18 300.39 Z"
                 class="st12"
                 id="path625"
                 style="fill:#000000" /></g></g><g
             id="shape138-241"
             v:mID="138"
             v:groupContext="shape"
             transform="translate(16.2144,-5.68434E-014)"
             style="fill:#000000"><title
               id="title628">Sheet.138</title><path
               d="M0.3 291.29 A9.94183 18.1427 -180 0 0 -0 295.7 A9.94183 18.1427 -180 0 0 19.88 295.7 A9.94183 18.1427           -180 0 0 19.59 291.29 A9.94183 18.1427 0 0 1 0.3 291.29 Z"
               class="st12"
               id="path630"
               style="fill:#000000" /></g></g></g></g></g></svg>