<?xml version="1.0" encoding="UTF-8" standalone="no"?>
<!-- Generated by Microsoft Visio 11.0, SVG Export, v1.0 Goat_Rampant.svg Page-1 -->

<svg
   xmlns:v="http://schemas.microsoft.com/visio/2003/SVGExtensions/"
   xmlns:dc="http://purl.org/dc/elements/1.1/"
   xmlns:cc="http://creativecommons.org/ns#"
   xmlns:rdf="http://www.w3.org/1999/02/22-rdf-syntax-ns#"
   xmlns:svg="http://www.w3.org/2000/svg"
   xmlns="http://www.w3.org/2000/svg"
   xmlns:sodipodi="http://sodipodi.sourceforge.net/DTD/sodipodi-0.dtd"
   xmlns:inkscape="http://www.inkscape.org/namespaces/inkscape"
   width="5.7021871in"
   height="6.4384327in"
   viewBox="0 0 410.5576 463.56705"
   xml:space="preserve"
   class="st11"
   id="svg2"
   version="1.1"
   inkscape:version="0.91 r13725"
   sodipodi:docname="ram.svg"
   style="font-size:12px;overflow:visible;color-interpolation-filters:sRGB;fill:none;fill-rule:evenodd;stroke-linecap:square;stroke-miterlimit:3"><metadata
     id="metadata262"><rdf:RDF><cc:Work
         rdf:about=""><dc:format>image/svg+xml</dc:format><dc:type
           rdf:resource="http://purl.org/dc/dcmitype/StillImage" /><dc:title>Goat Rampant</dc:title></cc:Work></rdf:RDF></metadata><defs
     id="defs260" /><sodipodi:namedview
     pagecolor="#ffffff"
     bordercolor="#666666"
     borderopacity="1"
     objecttolerance="10"
     gridtolerance="10"
     guidetolerance="10"
     inkscape:pageopacity="0"
     inkscape:pageshadow="2"
     inkscape:window-width="1248"
     inkscape:window-height="1388"
     id="namedview258"
     showgrid="false"
     fit-margin-top="0"
     fit-margin-left="0"
     fit-margin-right="0"
     fit-margin-bottom="0"
     inkscape:zoom="2.0401529"
     inkscape:cx="256.59841"
     inkscape:cy="289.72948"
     inkscape:window-x="3232"
     inkscape:window-y="24"
     inkscape:window-maximized="0"
     inkscape:current-layer="svg2" /><title
     id="title4">Goat Rampant</title><v:documentProperties
     v:langID="1033"
     v:viewMarkup="false" /><style
     type="text/css"
     id="style6"><![CDATA[
		.st1 {fill:#ffff00;stroke:#000000;stroke-linecap:round;stroke-linejoin:round;stroke-width:2.25}
		.st2 {fill:#ffff00;stroke:#000000;stroke-linecap:round;stroke-linejoin:round;stroke-width:3}
		.st3 {fill:#ffffff;stroke:#000000;stroke-linecap:round;stroke-linejoin:round;stroke-width:2.25}
		.st4 {stroke:#000000;stroke-linecap:round;stroke-linejoin:round;stroke-width:1.5}
		.st5 {fill:#ff0000;stroke:#000000;stroke-linecap:round;stroke-linejoin:round;stroke-width:2.16}
		.st6 {stroke:#000000;stroke-linecap:round;stroke-linejoin:round;stroke-width:2.25}
		.st7 {fill:#ff0000;stroke:#000000;stroke-linecap:round;stroke-linejoin:round;stroke-width:3}
		.st8 {fill:#ffffff;stroke:#000000;stroke-linecap:round;stroke-linejoin:round;stroke-width:1.5}
		.st9 {fill:#000000;stroke:#000000;stroke-linecap:round;stroke-linejoin:round;stroke-width:1.5}
		.st10 {fill:#ffffff;stroke:#000000;stroke-linecap:round;stroke-linejoin:round;stroke-width:0.24}
		.st11 {fill:none;fill-rule:evenodd;font-size:12px;overflow:visible;stroke-linecap:square;stroke-miterlimit:3}
	]]></style><g
     v:mID="0"
     v:index="1"
     v:groupContext="foregroundPage"
     id="g8"
     style="fill:#000000"
     transform="translate(-2.8928416,-33.686267)"><title
       id="title10">Page-1</title><v:pageProperties
       v:drawingScale="1"
       v:pageScale="1"
       v:drawingUnits="19"
       v:shadowOffsetX="9"
       v:shadowOffsetY="-9" /><g
       id="group1-1"
       transform="translate(4.01531,-4.07718)"
       v:mID="1"
       v:groupContext="group"
       style="fill:#000000"><title
         id="title13">Goat Rampant</title><g
         id="group2-2"
         transform="translate(72,-147)"
         v:mID="2"
         v:groupContext="group"
         style="fill:#000000"><title
           id="title16">Sheet.2</title><g
           id="shape3-3"
           v:mID="3"
           v:groupContext="shape"
           transform="matrix(0.93969262,0.34202014,-0.34202014,0.93969262,169.594,24.9074)"
           style="fill:#000000"><title
             id="title19">Sheet.3</title><path
             d="M 0.82,470.49 0,499.99 A 18.126,21.1309 -180 0 0 20.61,477.63 44.1883,51.5136 0 0 1 10.2,458.12 35.8755,41.8227 0 0 1 0.82,470.49 Z"
             class="st1"
             id="path21"
             style="fill:#000000;stroke:#000000;stroke-width:2.25;stroke-linecap:round;stroke-linejoin:round"
             inkscape:connector-curvature="0" /></g><g
           id="shape4-5"
           v:mID="4"
           v:groupContext="shape"
           transform="translate(12.5123,0)"
           style="fill:#000000"><title
             id="title24">Sheet.4</title><path
             d="M 0.8,469.84 0,499.99 A 17.6672,21.5897 -180 0 0 20.09,477.14 43.0697,52.6322 0 0 1 9.95,457.2 34.9673,42.7309 0 0 1 0.8,469.84 Z"
             class="st1"
             id="path26"
             style="fill:#000000;stroke:#000000;stroke-width:2.25;stroke-linecap:round;stroke-linejoin:round"
             inkscape:connector-curvature="0" /></g></g><g
         id="shape5-7"
         v:mID="5"
         v:groupContext="shape"
         transform="matrix(0.80385686,-0.59482279,0.59482279,0.80385686,-7.89938,-198.329)"
         style="fill:#000000"><title
           id="title29">Sheet.5</title><path
           d="M 98.83,460.76 A 59.4298,59.4298 98.82 0 1 66.37,500.2 82.7059,82.7059 -86.04 0 0 7.81,358.07 15.5371,15.5371 0 0 1 2.03,336.9 l 6.5,0 4.33,-2.88 a 7.07194,7.07194 0 0 1 9.14,-0.48 7.74966,7.74966 -180 0 0 9.62,0.48 5.53279,5.53279 0 0 1 9.61,1.92 7.53634,7.53634 -180 0 0 9.8,3.85 6.53008,6.53008 0 0 1 9.08,4.81 5.25407,5.25407 -180 0 0 8.12,4.45 5.42482,5.42482 0 0 1 7.21,6.13 6.19341,6.19341 -89.77 0 0 6.68,7.22 5.79467,5.79467 0 0 1 5.05,6.73 5.66062,5.66062 -91.54 0 0 6.01,8.42 7.14567,7.14567 0 0 1 3.25,9.86 9.01401,9.01401 -2.65 0 0 5.17,11.54 7.36877,7.36877 3.94 0 1 1.56,11.3 12.8422,12.8422 -180 0 0 1.93,12.75 8.26533,8.26533 0 0 1 -0.12,13.23 13.7019,13.7019 -180 0 0 -2.89,12.98 8.54727,8.54727 0 0 1 -3.25,11.55 z"
           class="st2"
           id="path31"
           style="fill:#000000;stroke:#000000;stroke-width:3;stroke-linecap:round;stroke-linejoin:round"
           inkscape:connector-curvature="0" /></g><g
         id="shape6-9"
         v:mID="6"
         v:groupContext="shape"
         transform="matrix(0.80385686,-0.59482279,0.59482279,0.80385686,30.9003,-160.973)"
         style="fill:#000000"><title
           id="title34">Sheet.6</title><path
           d="M 115.58,454.07 A 69.5014,69.5014 102.48 0 1 77.61,500.2 96.7222,96.7222 -84.25 0 0 9.13,333.98 18.1702,18.1702 0 0 1 2.38,309.23 l 7.59,0 5.07,-3.37 a 8.27043,8.27043 0 0 1 10.68,-0.57 9.06301,9.06301 -180 0 0 11.25,0.57 6.47045,6.47045 0 0 1 11.25,2.25 8.81354,8.81354 -180 0 0 11.46,4.5 7.63675,7.63675 0 0 1 10.62,5.62 6.14449,6.14449 -180 0 0 9.49,5.2 6.34418,6.34418 0 0 1 8.44,7.18 7.24302,7.24302 -89.76 0 0 7.81,8.43 6.7767,6.7767 0 0 1 5.9,7.88 6.61993,6.61993 -91.6 0 0 7.03,9.84 8.35666,8.35666 0 0 1 3.8,11.53 10.5416,10.5416 -2.67 0 0 6.05,13.5 8.61757,8.61757 4.32 0 1 1.82,13.22 15.0186,15.0186 -180 0 0 2.25,14.91 9.66607,9.66607 0 0 1 -0.14,15.47 16.024,16.024 -180 0 0 -3.37,15.18 9.99579,9.99579 0 0 1 -3.8,13.5 z"
           class="st2"
           id="path36"
           style="fill:#000000;stroke:#000000;stroke-width:3;stroke-linecap:round;stroke-linejoin:round"
           inkscape:connector-curvature="0" /></g><g
         id="group7-11"
         transform="matrix(0.5,0.8660254,-0.8660254,0.5,429.17,-65.5524)"
         v:mID="7"
         v:groupContext="group"
         style="fill:#000000"><title
           id="title39">Sheet.7</title><g
           id="shape8-12"
           v:mID="8"
           v:groupContext="shape"
           transform="matrix(0.93969262,0.34202014,-0.34202014,0.93969262,169.594,24.9074)"
           style="fill:#000000"><title
             id="title42">Sheet.8</title><path
             d="M 0.82,470.49 0,499.99 A 18.126,21.1309 -180 0 0 20.61,477.63 44.1883,51.5136 0 0 1 10.2,458.12 35.8755,41.8227 0 0 1 0.82,470.49 Z"
             class="st1"
             id="path44"
             style="fill:#000000;stroke:#000000;stroke-width:2.25;stroke-linecap:round;stroke-linejoin:round"
             inkscape:connector-curvature="0" /></g><g
           id="shape9-14"
           v:mID="9"
           v:groupContext="shape"
           transform="translate(12.5123,0)"
           style="fill:#000000"><title
             id="title47">Sheet.9</title><path
             d="M 0.8,469.84 0,499.99 A 17.6672,21.5897 -180 0 0 20.09,477.14 43.0697,52.6322 0 0 1 9.95,457.2 34.9673,42.7309 0 0 1 0.8,469.84 Z"
             class="st1"
             id="path49"
             style="fill:#000000;stroke:#000000;stroke-width:2.25;stroke-linecap:round;stroke-linejoin:round"
             inkscape:connector-curvature="0" /></g></g><g
         id="shape10-16"
         v:mID="10"
         v:groupContext="shape"
         transform="matrix(0.5,0.8660254,-0.8660254,0.5,444.541,-77.9048)"
         style="fill:#000000"><title
           id="title52">Sheet.10</title><path
           d="m 32.37,477.81 a 8.09914,8.09914 0 0 1 8.2,13.25 9.97303,9.97303 -180 0 0 9.05,-10.82 11.499,11.499 -180 0 0 -7.27,-8.4 321.195,321.195 -180 0 0 11.75,4.85 3.85477,3.85477 0 0 1 2.33,6.72 8.12275,8.12275 -180 0 0 -1.96,-14.92 12.427,12.427 0 0 1 -8.39,-13.25 10.3266,10.3266 -180 0 0 12.31,8.4 4.87718,4.87718 0 0 1 6.25,4.1 10.1531,10.1531 -180 0 0 -6.81,-16.79 9.84545,9.84545 0 0 1 -11.75,-4.1 34.4984,34.4984 -180 0 0 13.61,-1.87 16.7811,16.7811 0 0 1 -12.68,-8.58 215.647,215.647 0 0 1 35.26,-0.37 8.01661,8.01661 0 0 1 8.2,2.98 31.6901,31.6901 -102.19 0 0 20.79,4.74 21.6121,21.6121 -74.86 0 0 13.91,-11.08 31.1105,31.1105 -180 0 0 -31.52,-51.86 78.4784,78.4784 0 0 1 -25.93,27.24 25.88,25.88 0 0 1 -23.32,2.61 21.909,21.909 -180 0 0 -8.21,-1.5 12.0096,12.0096 -180 0 0 -13.8,15.67 91.3533,91.3533 0 0 1 -8.21,42.91 12.8939,12.8939 -180 0 0 -6.72,16.79 10.082,10.082 0 0 1 -7.46,10.45 10.9647,10.9647 -180 0 0 13.43,-12.69 16.7073,16.7073 0 0 1 -0.37,17.91 14.521,14.521 -180 0 0 9.33,-19.77 17.8608,17.8608 0 0 1 7.46,16.78 15.771,15.771 -180 0 0 2.52,-19.4 z"
           class="st3"
           id="path54"
           style="fill:#000000;stroke:#000000;stroke-width:2.25;stroke-linecap:round;stroke-linejoin:round"
           inkscape:connector-curvature="0" /></g><g
         id="group11-18"
         transform="matrix(0.5,0.8660254,-0.8660254,0.5,490.546,-66.124)"
         v:mID="11"
         v:groupContext="group"
         style="fill:#000000"><title
           id="title57">Sheet.11</title><g
           id="shape12-19"
           v:mID="12"
           v:groupContext="shape"
           transform="matrix(0.20952982,-0.97780226,0.97780226,0.20952982,-489.096,395.393)"
           style="fill:#000000"><title
             id="title60">Sheet.12</title><path
             d="m 0,500.2 26.71,0"
             class="st4"
             id="path62"
             style="fill:#000000;stroke:#000000;stroke-width:1.5;stroke-linecap:round;stroke-linejoin:round"
             inkscape:connector-curvature="0" /></g><g
           id="shape13-22"
           v:mID="13"
           v:groupContext="shape"
           transform="matrix(0.92448084,-0.38122851,0.38122851,0.92448084,-134.407,1.1272)"
           style="fill:#000000"><title
             id="title65">Sheet.13</title><path
             d="m 0,495.45 a 33.542,25.2851 -180 0 0 39.15,0"
             class="st4"
             id="path67"
             style="fill:#000000;stroke:#000000;stroke-width:1.5;stroke-linecap:round;stroke-linejoin:round"
             inkscape:connector-curvature="0" /></g></g><g
         id="group14-25"
         transform="matrix(0.64278761,0.76604444,-0.76604444,0.64278761,474.406,63.4464)"
         v:mID="14"
         v:groupContext="group"
         style="fill:#000000"><title
           id="title70">Sheet.14</title><g
           id="shape15-26"
           v:mID="15"
           v:groupContext="shape"
           transform="matrix(0.93969262,0.34202014,-0.34202014,0.93969262,169.594,24.9074)"
           style="fill:#000000"><title
             id="title73">Sheet.15</title><path
             d="M 0.82,470.49 0,499.99 A 18.126,21.1309 -180 0 0 20.61,477.63 44.1883,51.5136 0 0 1 10.2,458.12 35.8755,41.8227 0 0 1 0.82,470.49 Z"
             class="st1"
             id="path75"
             style="fill:#000000;stroke:#000000;stroke-width:2.25;stroke-linecap:round;stroke-linejoin:round"
             inkscape:connector-curvature="0" /></g><g
           id="shape16-28"
           v:mID="16"
           v:groupContext="shape"
           transform="translate(12.5123,0)"
           style="fill:#000000"><title
             id="title78">Sheet.16</title><path
             d="M 0.8,469.84 0,499.99 A 17.6672,21.5897 -180 0 0 20.09,477.14 43.0697,52.6322 0 0 1 9.95,457.2 34.9673,42.7309 0 0 1 0.8,469.84 Z"
             class="st1"
             id="path80"
             style="fill:#000000;stroke:#000000;stroke-width:2.25;stroke-linecap:round;stroke-linejoin:round"
             inkscape:connector-curvature="0" /></g></g><g
         id="shape17-30"
         v:mID="17"
         v:groupContext="shape"
         transform="translate(107.118,-74.088)"
         style="fill:#000000"><title
           id="title83">Sheet.17</title><path
           d="m 128.35,380.68 a 80.1548,80.1548 -180 0 0 -79.85,7.46 10.2747,10.2747 0 0 1 -16.78,4.48 11.3565,11.3565 -180 0 0 13.05,8.2 4.43454,4.43454 -180 0 0 -4.47,7.46 5.2820877,5.2820877 0 0 1 -7.47,7.47 12.1533,12.1533 -180 0 0 21.64,-8.96 59.531,59.531 -180 0 0 30.22,50 53.2999,53.2999 0 0 1 -37.3,-14.93 12.1194,12.1194 -180 0 0 -16.42,-5.22 16.44,16.44 0 0 1 -16.04,-13.43 11.7479,11.7479 -180 0 0 1.49,17.91 9.28765,9.28765 0 0 1 -16.42,-2.99 16.1158,16.1158 -180 0 0 27.98,11.2 14.5936,14.5936 -180 0 0 0,15.67 11.9559,11.9559 0 0 1 17.54,-8.96 9.16924,9.16924 0 0 1 -9.7,14.18 13.437,13.437 -180 0 0 23.13,0.74 12.1255,12.1255 0 0 1 -16.41,14.18 14.7124,14.7124 -180 0 0 25.37,-13.43 17.2937,17.2937 0 0 1 -3.36,28.36 18.6891,18.6891 -180 0 0 20.52,-22.39 22.2355,22.2355 -180 0 0 16.41,18.65 6.539,6.539 0 1 1 4.85,-11.93 4.2985,4.2985 -180 0 0 7.09,-2.24 l 0,-10.45 a 14.8893,14.8893 -180 0 0 -6.34,-8.21 21.441,21.441 0 0 1 -2.98,-15.67 59.6233,59.6233 -180 0 0 -2.8,-22.01 54.4017,54.4017 0 0 1 -13.99,-2.61 64.9681,64.9681 -180 0 0 36.37,0.74 22.1495,22.1495 -180 1 0 4.67,-43.27 z"
           class="st3"
           id="path85"
           style="fill:#000000;stroke:#000000;stroke-width:2.25;stroke-linecap:round;stroke-linejoin:round"
           inkscape:connector-curvature="0" /></g><g
         id="shape18-32"
         v:mID="18"
         v:groupContext="shape"
         transform="matrix(0.96230918,0.27195779,-0.27195779,0.96230918,298.707,-93.4666)"
         style="fill:#000000"><title
           id="title88">Sheet.18</title><path
           d="m 0,498.69 a 80.5814,60.745 -180 0 0 35.67,0"
           class="st4"
           id="path90"
           style="fill:#000000;stroke:#000000;stroke-width:1.5;stroke-linecap:round;stroke-linejoin:round"
           inkscape:connector-curvature="0" /></g><g
         id="shape19-35"
         v:mID="19"
         v:groupContext="shape"
         transform="matrix(0.96592583,-0.25881905,0.25881905,0.96592583,66.9846,-132.151)"
         style="fill:#000000"><title
           id="title93">Lion Salient.42</title><path
           d="M 41.79,497.86 A 10.8578,10.8578 0 0 1 25.37,484.43 65.6356,65.6356 -180 0 0 0,457.56 a 39.2434,39.2434 0 0 1 38.8,14.93 13.0058,13.0058 2.33 1 1 2.99,25.37 z"
           class="st5"
           id="path95"
           style="fill:#000000;stroke:#000000;stroke-width:2.16000009;stroke-linecap:round;stroke-linejoin:round"
           inkscape:connector-curvature="0" /></g><g
         id="group20-37"
         transform="matrix(0.96592583,0.25881905,-0.25881905,0.96592583,340.165,12.6717)"
         v:mID="20"
         v:groupContext="group"
         style="fill:#000000"><title
           id="title98">Sheet.20</title><g
           id="shape21-38"
           v:mID="21"
           v:groupContext="shape"
           transform="matrix(0.93969262,0.34202014,-0.34202014,0.93969262,169.594,24.9074)"
           style="fill:#000000"><title
             id="title101">Sheet.21</title><path
             d="M 0.82,470.49 0,499.99 A 18.126,21.1309 -180 0 0 20.61,477.63 44.1883,51.5136 0 0 1 10.2,458.12 35.8755,41.8227 0 0 1 0.82,470.49 Z"
             class="st1"
             id="path103"
             style="fill:#000000;stroke:#000000;stroke-width:2.25;stroke-linecap:round;stroke-linejoin:round"
             inkscape:connector-curvature="0" /></g><g
           id="shape22-40"
           v:mID="22"
           v:groupContext="shape"
           transform="translate(12.5123,0)"
           style="fill:#000000"><title
             id="title106">Sheet.22</title><path
             d="M 0.8,469.84 0,499.99 A 17.6672,21.5897 -180 0 0 20.09,477.14 43.0697,52.6322 0 0 1 9.95,457.2 34.9673,42.7309 0 0 1 0.8,469.84 Z"
             class="st1"
             id="path108"
             style="fill:#000000;stroke:#000000;stroke-width:2.25;stroke-linecap:round;stroke-linejoin:round"
             inkscape:connector-curvature="0" /></g></g><g
         id="shape23-42"
         v:mID="23"
         v:groupContext="shape"
         transform="translate(70.1719,-26.2726)"
         style="fill:#000000"><title
           id="title111">Sheet.23</title><path
           d="m 207.08,494.04 a 11.6203,11.6203 -180 0 0 2.05,-15.67 8.82235,8.82235 0 0 1 -2.05,-10.82 6.31387,6.31387 -180 0 0 6.71,7.46 8.44766,8.44766 0 0 1 6.16,8.21 11.0689,11.0689 -180 0 0 -3.36,-15.67 9.51725,9.51725 0 0 1 -5.41,-11.94 16.3693,16.3693 -180 0 0 12.5,7.83 6.61393,6.61393 0 0 1 2.99,8.96 16.2894,16.2894 -180 0 0 -8.21,-23.88 10.4725,10.4725 -172.48 0 0 12.12,2.61 5.49252,5.49252 112.5 0 1 5.97,8.58 18.0254,18.0254 -180 0 0 -3.91,-23.88 10.0283,10.0283 -180 0 0 17.72,-7.46 6.06693,6.06693 0 0 1 -11.57,1.87 4.35274,4.35274 0 0 1 2.61,-4.85 4.79287,4.79287 -180 0 0 1.5,-8.58 3.9844,3.9844 0 0 1 0.37,-5.6 5.06121,5.06121 -180 0 0 -6.16,-5.6 12.1445,12.1445 0 0 1 -12.5,-14.55 54.8744,54.8744 -180 0 0 -18.28,-42.16 58.7211,58.7211 -180 0 0 37.31,11.57 16.1805,16.1805 0 0 1 19.03,5.22 9.38972,9.38972 0 0 1 -12.69,13.81 16.637,16.637 -180 1 0 25,-21.64 223.452,223.452 -180 0 0 -13.8,-5.23 l 24.62,1.87 a 12.7879,12.7879 0 0 1 12.5,12.69 4.25448,4.25448 0 0 1 -7.83,2.98 10.7942,10.7942 -180 0 0 16.41,-12.69 16.7364,16.7364 -180 0 0 -18.47,-16.04 11.262,11.262 0 0 1 19.59,-8.21 3.96827,3.96827 0 0 1 -2.05,5.23 7.86529,7.86529 -180 0 0 5.78,-14.55 23.6261,23.6261 -180 0 0 -32.83,2.98 l -8.4,7.84 a 32.2666,32.2666 -180 0 0 6.35,-20.52 9.12846,9.12846 87.29 1 1 18.09,-1.87 22.8929,22.8929 -92.18 0 0 -6.25,-15.52 16.0416,16.0416 -81.28 0 0 -14.27,-4.25 16.7013,16.7013 -93.38 0 0 -14.18,18.28 l -0.56,-17.16 a 13.3067,13.3067 86.24 0 1 19.41,-10.45 62.86,62.86 -180 0 0 30.4,13.06 20.2131,20.2131 0 0 1 19.78,7.46 8.11455,8.11455 0 0 1 -3.36,7.09 12.6934,12.6934 -180 0 0 2.61,-25 14.3639,14.3639 -180 0 0 3.54,-24.25 24.6246,24.6246 0 0 1 -39.17,17.91 29.1571,29.1571 -180 0 0 27.98,-38.8 8.51666,8.51666 -180 0 0 -15.85,-0.38 6.73773,6.73773 0 0 1 9.51,7.84 23.0993,23.0993 0 0 1 -32.09,13.06 62.4634,62.4634 -180 0 0 -17.72,-7.09 26.1353,26.1353 -180 0 0 35.07,-22.01 14.2005,14.2005 4.52 0 1 -12.5,7.46 19.5378,19.5378 -180 0 0 14.74,-26.12 14.0559,14.0559 -180 0 0 -12.87,-10.07 11.7655,11.7655 0 0 1 4.29,17.53 l -15.48,14.18 a 19.234,19.234 -180 0 0 -10.64,-35.44 10.8026,10.8026 -180 0 0 -10.63,8.58 11.1258,11.1258 0 0 1 15.3,15.29 32.4943,32.4943 0 0 1 -11.57,19.03 34.2322,34.2322 -180 0 0 -15.3,21.27 18.4551,18.4551 -180 0 0 -6.15,-23.51 13.4479,13.4479 -180 0 0 -13.99,-0.37 10.8046,10.8046 0 0 1 7.27,17.54 30.3198,30.3198 -180 0 0 7.28,40.66 38.7484,38.7484 0 0 1 17.35,22.39 16.0908,16.0908 -180 0 0 -28.36,-4.48 13.7741,13.7741 -180 0 0 10.45,19.4 7.02268,7.02268 0 1 1 5.97,-12.68 10.6626,10.6626 0 0 1 -2.05,19.77 27.2031,27.2031 0 0 1 -23.51,-10.45 30.3604,30.3604 -81.9 0 0 -17.42,-18.09 131.176,131.176 87.2 0 1 -38.17,-99.8 252.751,252.751 -180 0 0 7.84,-73.88 31.2207,31.2207 -180 0 0 -55.22,23.14 25.1667,25.1667 0 0 1 -8.96,30.59 231.528,231.528 -2.58 0 0 -34.69,31.34 61.0557,61.0557 -180 0 0 -12.2,47.46 26.4499,26.4499 103.17 0 1 -24.43,-1.77 11.8618,11.8618 -120.8 0 0 -13.78,14.06 99.5923,99.5923 26.21 0 1 -9,43.87 12.1732,12.1732 -180 0 0 -6.15,13.09 14.4204,14.4204 0 0 1 -7.21,15.32 12.3021,12.3021 -180 0 0 13.5,-13.22 18.1972,18.1972 0 0 1 -0.42,18.28 14.0621,14.0621 -180 0 0 9.14,-19.97 18.5717,18.5717 0 0 1 7.87,17.16 15.7489,15.7489 -180 0 0 2.11,-19.69 8.2999,8.2999 0 0 1 8.16,13.78 10.2054,10.2054 -180 0 0 1.41,-19.96 l 12.09,4.78 a 4.65457,4.65457 162.72 0 1 3.37,6.75 7.26538,7.26538 -177.26 0 0 -2.53,-13.5 10.2647,10.2647 162.38 0 1 -7.87,-14.07 9.02192,9.02192 -40.76 0 0 10.12,7.88 5.83783,5.83783 126.95 0 1 8.16,3.94 9.15261,9.15261 -8.87 0 0 -7.59,-15.75 9.07222,9.07222 130.93 0 1 -11.54,-5.63 616.465,616.465 -76.03 0 0 15.47,-0.56 17.495,17.495 151.23 0 1 -14.34,-9 253.457,253.457 -54.43 0 0 24.03,-0.14 61.0557,61.0557 -180 0 0 26.25,20.91 208.201,208.201 0 0 1 50.74,20.15 26.2998,26.2998 0 0 1 11.94,38.8 7.72746,7.72746 -180 0 0 -8.77,11.56 6.85209,6.85209 0 0 1 -5.04,12.32 8.93038,8.93038 -180 0 0 16.42,-5.23 8.78964,8.78964 -180 0 0 2.61,7.84 7.55426,7.55426 0 0 1 -4.29,13.8 12.2193,12.2193 -180 0 0 11.01,-20.52 55.1939,55.1939 -180 0 0 20.33,13.81 14.6549,14.6549 0 0 1 9.7,11.94 115.853,115.853 0 0 1 -23.88,42.9 12.1494,12.1494 0 0 1 -9.7,5.22 9.95519,9.95519 -179.15 0 0 -12.31,6.72 13.0526,13.0526 179.59 0 1 -17.35,4.85 14.2161,14.2161 -0.16 0 0 20.9,2.98 20.5302,20.5302 174.62 0 1 -14.74,11.2 16.2593,16.2593 -2.33 0 0 24.06,-8.96 20.0989,20.0989 -180 0 0 10.08,11.2 18.7445,18.7445 0 0 1 2.8,-14.93 8.34473,8.34473 -180 0 0 8.2,10.82 6.22743,6.22743 0 1 1 10.26,-5.22 6.92317,6.92317 -180 0 0 -2.05,-11.94 12.0825,12.0825 0 0 1 8.77,15.3 z"
           class="st3"
           id="path113"
           style="fill:#000000;stroke:#000000;stroke-width:2.25;stroke-linecap:round;stroke-linejoin:round"
           inkscape:connector-curvature="0" /></g><g
         id="group24-44"
         transform="translate(264.566,-55.5666)"
         v:mID="24"
         v:groupContext="group"
         style="fill:#000000"><title
           id="title116">Sheet.24</title><g
           id="shape25-45"
           v:mID="25"
           v:groupContext="shape"
           transform="matrix(0.47257538,-0.88129026,0.88129026,0.47257538,-440.516,263.98)"
           style="fill:#000000"><title
             id="title119">Sheet.25</title><path
             d="m 0,499.85 a 930.343,701.325 -180 0 0 58.42,0"
             class="st6"
             id="path121"
             style="fill:#000000;stroke:#000000;stroke-width:2.25;stroke-linecap:round;stroke-linejoin:round"
             inkscape:connector-curvature="0" /></g><g
           id="group26-48"
           transform="translate(34.3245,-87.1992)"
           v:mID="26"
           v:groupContext="group"
           style="fill:#000000"><title
             id="title124">Sheet.26</title><g
             id="shape27-49"
             v:mID="27"
             v:groupContext="shape"
             transform="matrix(0.30700284,0.9517086,-0.9517086,0.30700284,539.096,311.461)"
             style="fill:#000000"><title
               id="title127">Sheet.27</title><path
               d="m 0,500.2 a 14.6387,11.0351 0 0 1 24.31,0"
               class="st6"
               id="path129"
               style="fill:#000000;stroke:#000000;stroke-width:2.25;stroke-linecap:round;stroke-linejoin:round"
               inkscape:connector-curvature="0" /></g><g
             id="shape28-52"
             v:mID="28"
             v:groupContext="shape"
             transform="matrix(-0.94346011,0.33148609,-0.33148609,-0.94346011,228.298,887.612)"
             style="fill:#000000"><title
               id="title132">Sheet.28</title><path
               d="m 0,490.62 a 14.7778,11.14 -180 0 0 29.26,0"
               class="st6"
               id="path134"
               style="fill:#000000;stroke:#000000;stroke-width:2.25;stroke-linecap:round;stroke-linejoin:round"
               inkscape:connector-curvature="0" /></g><g
             id="shape29-55"
             v:mID="29"
             v:groupContext="shape"
             transform="translate(30.9667,-40.1888)"
             style="fill:#000000"><title
               id="title137">Sheet.29</title><path
               d="M 0,499.99 A 27.4355,26.2192 -117.55 0 0 25.74,486.56 21.7835,21.7835 0 0 1 50.37,479.1"
               class="st6"
               id="path139"
               style="fill:#000000;stroke:#000000;stroke-width:2.25;stroke-linecap:round;stroke-linejoin:round"
               inkscape:connector-curvature="0" /></g><g
             id="shape30-58"
             v:mID="30"
             v:groupContext="shape"
             transform="translate(0,-81.4387)"
             style="fill:#000000"><title
               id="title142">Sheet.30</title><path
               d="m 0,436.77 a 26.8396,26.8396 0 0 1 9.7,31.34 38.2125,38.2125 -180 0 0 16.42,32.09"
               class="st6"
               id="path144"
               style="fill:#000000;stroke:#000000;stroke-width:2.25;stroke-linecap:round;stroke-linejoin:round"
               inkscape:connector-curvature="0" /></g><g
             id="shape31-61"
             v:mID="31"
             v:groupContext="shape"
             transform="translate(21.2663,-100.839)"
             style="fill:#000000"><title
               id="title147">Sheet.31</title><path
               d="M 0,500.2 A 19.8862,19.8862 0 0 1 33.21,488.26 27.1718,27.1718 -180 0 0 72.75,464.38"
               class="st6"
               id="path149"
               style="fill:#000000;stroke:#000000;stroke-width:2.25;stroke-linecap:round;stroke-linejoin:round"
               inkscape:connector-curvature="0" /></g><g
             id="shape32-64"
             v:mID="32"
             v:groupContext="shape"
             transform="matrix(-0.77571608,-0.63108206,0.63108206,-0.77571608,-210.131,806.72)"
             style="fill:#000000"><title
               id="title152">Sheet.32</title><path
               d="m 0,494.36 a 16.8332,12.6367 -180 0 0 28.38,0"
               class="st6"
               id="path154"
               style="fill:#000000;stroke:#000000;stroke-width:2.25;stroke-linecap:round;stroke-linejoin:round"
               inkscape:connector-curvature="0" /></g><g
             id="shape33-67"
             v:mID="33"
             v:groupContext="shape"
             transform="translate(28.355,-127.702)"
             style="fill:#000000"><title
               id="title157">Sheet.33</title><path
               d="m 0,500.2 a 20.4381,20.4381 0 0 1 23.5,-11.19 15.2693,15.2693 -180 0 0 16.05,-7.47"
               class="st6"
               id="path159"
               style="fill:#000000;stroke:#000000;stroke-width:2.25;stroke-linecap:round;stroke-linejoin:round"
               inkscape:connector-curvature="0" /></g><g
             id="shape34-70"
             v:mID="34"
             v:groupContext="shape"
             transform="matrix(0.36244617,-0.93200471,0.93200471,0.36244617,-454.995,271.79)"
             style="fill:#000000"><title
               id="title162">Sheet.34</title><path
               d="m 0,500.2 a 11.0236,8.30993 0 1 1 21.62,0"
               class="st6"
               id="path164"
               style="fill:#000000;stroke:#000000;stroke-width:2.25;stroke-linecap:round;stroke-linejoin:round"
               inkscape:connector-curvature="0" /></g><g
             id="shape35-73"
             v:mID="35"
             v:groupContext="shape"
             transform="matrix(0.67572402,-0.7371547,0.7371547,0.67572402,-338.927,165.222)"
             style="fill:#000000"><title
               id="title167">Sheet.35</title><path
               d="m 0,491.16 a 12.148,9.15758 -180 0 0 24.29,0"
               class="st6"
               id="path169"
               style="fill:#000000;stroke:#000000;stroke-width:2.25;stroke-linecap:round;stroke-linejoin:round"
               inkscape:connector-curvature="0" /></g><g
             id="shape36-76"
             v:mID="36"
             v:groupContext="shape"
             transform="matrix(0.62469494,0.7808689,-0.7808689,0.62469494,421.556,8.5382)"
             style="fill:#000000"><title
               id="title172">Sheet.36</title><path
               d="m 0,500.2 a 14.6856,11.0705 0 0 1 28.67,0"
               class="st6"
               id="path174"
               style="fill:#000000;stroke:#000000;stroke-width:2.25;stroke-linecap:round;stroke-linejoin:round"
               inkscape:connector-curvature="0" /></g></g></g><g
         id="group37-79"
         transform="translate(86.8533,-314.4)"
         v:mID="37"
         v:groupContext="group"
         style="fill:#000000"><title
           id="title177">Sheet.37</title><g
           id="shape38-80"
           v:mID="38"
           v:groupContext="shape"
           transform="matrix(0.96592583,0.25881905,-0.25881905,0.96592583,222.008,-95.4704)"
           style="fill:#000000"><title
             id="title180">Sheet.38</title><path
             d="M 32.34,489.98 A 37.4708,37.4708 -180 0 0 2.5,465.36 a 3.44612,3.44612 -180 0 0 1.49,6.71 12.3469,12.3469 0 0 1 7.83,17.91 10.2601,10.2601 -180 0 0 20.52,0 z"
             class="st3"
             id="path182"
             style="fill:#000000;stroke:#000000;stroke-width:2.25;stroke-linecap:round;stroke-linejoin:round"
             inkscape:connector-curvature="0" /></g><g
           id="shape39-82"
           v:mID="39"
           v:groupContext="shape"
           transform="translate(0,-35.6623)"
           style="fill:#000000"><title
             id="title185">Sheet.39</title><path
             d="m 103.84,474.58 a 61.0472,61.0472 -180 0 0 -55.96,12.69 11.7106,11.7106 0 0 1 -18.66,-6.72 11.7352,11.7352 -180 0 0 -19.03,-8.21 6.31878,6.31878 0 0 1 -9.88,-2.98 9.04811,9.04811 -180 0 0 13.43,10.07 7.42959,7.42959 0 0 1 9.88,8.21 19.9486,19.9486 -180 0 0 30.97,8.21 15.1794,15.1794 0 0 1 15.3,-0.38 22.3889,22.3889 -180 0 0 33.95,-20.89 z"
             class="st7"
             id="path187"
             style="fill:#000000;stroke:#000000;stroke-width:3;stroke-linecap:round;stroke-linejoin:round"
             inkscape:connector-curvature="0" /></g><g
           id="shape40-84"
           v:mID="40"
           v:groupContext="shape"
           transform="translate(46.1013,0)"
           style="fill:#000000"><title
             id="title190">Sheet.40</title><path
             d="m 81.62,390.42 a 26.4468,26.4468 -180 0 0 -44.03,2.98 l 0,8.21 a 342.245,342.245 91.69 0 1 -36.67,28.8 3.74032,3.74032 -110.14 0 0 3.09,6.19 14.8662,14.8662 71.66 0 1 6.72,-3.65 14.8171,14.8171 -81.5 0 0 -9.53,14.9 8.75387,8.75387 -66.58 0 0 15.75,3.37 69.6782,69.6782 -87.33 0 0 18.03,-12.3 10.0449,10.0449 0 0 1 14.55,7.46 11.8227,11.8227 -80.42 0 0 -15.14,8.22 6.66704,6.66704 80.56 0 1 -12.1,1.48 5.17584,5.17584 -180 1 0 -2.98,9.7 5.03909,5.03909 0 1 1 -9.33,3.73 9.44701,9.44701 -180 0 0 15.67,8.21 l -0.37,12.69 a 5.97141,5.97141 85.9 0 1 -8.4,5.97 12.7758,12.7758 -93.64 0 0 21.08,-13.44 14.8059,14.8059 0 0 1 -0.18,-10.82 8.07646,8.07646 -180 1 0 16.04,1.5 5.19279,5.19279 0 1 1 -6.34,-8.21 l 19.21,-13.43 a 21.4706,21.4706 -180 0 0 -7.46,-18.66 22.9195,22.9195 0 0 1 7.84,18.66 16.0584,16.0584 -180 0 0 21.45,-23.13 26.6309,26.6309 0 0 1 8.58,10.07 33.0983,33.0983 -180 0 0 33.02,4.48 102.974,102.974 -87.57 0 0 21.26,-5.6 3.67607,3.67607 -180 1 0 0.56,-7.09 A 31.7617,31.7617 0 0 1 119.49,424 21.0955,21.0955 -180 0 0 95.42,407.58 11.8505,11.8505 -180 0 0 81.62,390.42 Z"
             class="st3"
             id="path192"
             style="fill:#000000;stroke:#000000;stroke-width:2.25;stroke-linecap:round;stroke-linejoin:round"
             inkscape:connector-curvature="0" /></g><g
           id="group41-86"
           transform="translate(79.4023,-76.2038)"
           v:mID="41"
           v:groupContext="group"
           style="fill:#000000"><title
             id="title195">Sheet.41</title><g
             id="group42-87"
             transform="translate(14.3641,-0.746185)"
             v:mID="42"
             v:groupContext="group"
             style="fill:#000000"><title
               id="title198">Sheet.42</title><g
               id="shape43-88"
               v:mID="43"
               v:groupContext="shape"
               transform="translate(7.83495,0)"
               style="fill:#000000"><title
                 id="title201">Sheet.43</title><path
                 d="M 0,490.52 A 14.5955,14.5955 0 0 1 21.45,489.4 10.7532,10.7532 0 0 1 0,490.52 Z"
                 class="st8"
                 id="path203"
                 style="fill:#000000;stroke:#000000;stroke-width:1.5;stroke-linecap:round;stroke-linejoin:round"
                 inkscape:connector-curvature="0" /></g><g
               id="shape44-90"
               v:mID="44"
               v:groupContext="shape"
               transform="translate(8.39458,-3.94517)"
               style="fill:#000000"><title
                 id="title206">Sheet.44</title><path
                 d="M 12.87,490.16 A 9.82251,9.82251 -180 0 0 0,495.38 6.96386,6.96386 -180 1 0 12.87,490.16 Z"
                 class="st9"
                 id="path208"
                 style="fill:#000000;stroke:#000000;stroke-width:1.5;stroke-linecap:round;stroke-linejoin:round"
                 inkscape:connector-curvature="0" /></g><g
               id="shape45-92"
               v:mID="45"
               v:groupContext="shape"
               transform="translate(0,-2.61165)"
               style="fill:#000000"><title
                 id="title211">Sheet.45</title><path
                 d="M 8.21,482.29 A 5.48139,5.48139 -180 1 0 7.83,492.74 L 0,500.2 8.21,492.74 a 17.4805,17.4805 0 0 1 21.45,-1.5 5.01739,5.01739 -180 0 0 9.14,-1.86"
                 class="st4"
                 id="path213"
                 style="fill:#000000;stroke:#000000;stroke-width:1.5;stroke-linecap:round;stroke-linejoin:round"
                 inkscape:connector-curvature="0" /></g><g
               id="shape46-95"
               v:mID="46"
               v:groupContext="shape"
               transform="translate(16.4161,-7.46185)"
               style="fill:#000000"><title
                 id="title216">Circle.109</title><v:userDefs><v:ud
                   v:nameU="visVersion"
                   v:val="VT0(14):26" /></v:userDefs><path
                 d="m 0,497.68 a 2.52,2.52 0 0 1 5.04,0 2.52,2.52 0 0 1 -5.04,0 z"
                 class="st10"
                 id="path218"
                 style="fill:#000000;stroke:#000000;stroke-width:0.23999999;stroke-linecap:round;stroke-linejoin:round"
                 inkscape:connector-curvature="0" /></g></g><g
             id="shape47-97"
             v:mID="47"
             v:groupContext="shape"
             transform="matrix(-0.75925995,0.65078747,-0.65078747,-0.75925995,341.195,866.547)"
             style="fill:#000000"><title
               id="title221">Sheet.47</title><path
               d="m 0,500.2 20.64,0"
               class="st4"
               id="path223"
               style="fill:#000000;stroke:#000000;stroke-width:1.5;stroke-linecap:round;stroke-linejoin:round"
               inkscape:connector-curvature="0" /></g></g><g
           id="shape48-100"
           v:mID="48"
           v:groupContext="shape"
           transform="translate(131.635,-63.2413)"
           style="fill:#000000"><title
             id="title226">Sheet.48</title><path
             d="M 49.25,499.55 A 39.4359,39.4359 0 0 1 15.48,489.85 24.0259,24.0259 0 0 1 0,481.64 a 3.5276,3.5276 -180 0 0 6.16,0.37 l -0.94,-4.85 a 21.0708,21.0708 0 0 1 19.59,12.31 24.7505,24.7505 -180 0 0 24.44,10.08 z"
             class="st9"
             id="path228"
             style="fill:#000000;stroke:#000000;stroke-width:1.5;stroke-linecap:round;stroke-linejoin:round"
             inkscape:connector-curvature="0" /></g><g
           id="shape49-102"
           v:mID="49"
           v:groupContext="shape"
           transform="translate(77.3503,-7.55476)"
           style="fill:#000000"><title
             id="title231">Sheet.49</title><path
             d="M 7.83,477.81 A 8.58596,8.58596 -180 0 0 1.87,490.5 7.13837,7.13837 0 0 1 0,500.2"
             class="st4"
             id="path233"
             style="fill:#000000;stroke:#000000;stroke-width:1.5;stroke-linecap:round;stroke-linejoin:round"
             inkscape:connector-curvature="0" /></g></g><g
         id="group50-105"
         transform="translate(103.39,-198.088)"
         v:mID="50"
         v:groupContext="group"
         style="fill:#000000"><title
           id="title236">Sheet.50</title><g
           id="shape51-106"
           v:mID="51"
           v:groupContext="shape"
           transform="matrix(0.20952982,-0.97780226,0.97780226,0.20952982,-489.096,395.393)"
           style="fill:#000000"><title
             id="title239">Sheet.51</title><path
             d="m 0,500.2 26.71,0"
             class="st6"
             id="path241"
             style="fill:#000000;stroke:#000000;stroke-width:2.25;stroke-linecap:round;stroke-linejoin:round"
             inkscape:connector-curvature="0" /></g><g
           id="shape52-109"
           v:mID="52"
           v:groupContext="shape"
           transform="matrix(0.92448084,-0.38122851,0.38122851,0.92448084,-134.407,1.1272)"
           style="fill:#000000"><title
             id="title244">Sheet.52</title><path
             d="m 0,495.45 a 33.542,25.2851 -180 0 0 39.15,0"
             class="st6"
             id="path246"
             style="fill:#000000;stroke:#000000;stroke-width:2.25;stroke-linecap:round;stroke-linejoin:round"
             inkscape:connector-curvature="0" /></g><g
           id="shape53-112"
           v:mID="53"
           v:groupContext="shape"
           transform="translate(37.573,-15.6057)"
           style="fill:#000000"><title
             id="title249">Sheet.53</title><path
             d="m 0,485.97 9.56,0 a 8.8303,8.8303 0 0 1 10.13,3.93 17.3106,17.3106 -82.36 0 0 20.81,9.57 15.7914,15.7914 -71.91 0 0 12.94,-11.82 19.3364,19.3364 0 0 1 4.78,-9.56 40.737,40.737 -180 0 0 -3.1,-41.62"
             class="st6"
             id="path251"
             style="fill:#000000;stroke:#000000;stroke-width:2.25;stroke-linecap:round;stroke-linejoin:round"
             inkscape:connector-curvature="0" /></g><g
           id="shape54-115"
           v:mID="54"
           v:groupContext="shape"
           transform="matrix(0.72530589,-0.68842674,0.68842674,0.72530589,-314.915,84.8141)"
           style="fill:#000000"><title
             id="title254">Sheet.54</title><path
             d="m 0,496.82 a 79.1776,79.1776 -180 0 0 45.76,0"
             class="st6"
             id="path256"
             style="fill:#000000;stroke:#000000;stroke-width:2.25;stroke-linecap:round;stroke-linejoin:round"
             inkscape:connector-curvature="0" /></g></g></g></g></svg>